{"componentChunkName":"component---packages-blog-gatsby-blog-core-src-templates-collection-tag-js","path":"/tag/page/10/","result":{"data":{"collectionInfo":{"id":"0ee6dc2f-86b3-5f71-b1d3-fa4710b72715","name":"í”„ë¡œë•íŠ¸ ë§¤ë‹ˆì €","slug":"/tag/"},"posts":{"nodes":[{"id":"ecba75a5-f955-5230-8697-88dfa4336247","title":"ë¹„ì „ê³µì, ì–´ë–»ê²Œ ë°ì´í„° ë¶„ì„ê°€ê°€ ë˜ì—ˆì„ê¹Œ?","slug":"/how-to-become-data-analyst-without-majoring-in/","link":null,"excerpt":"ë¹„ì „ê³µì, ì–´ë–»ê²Œ ë°ì´í„° ë¶„ì„ê°€ê°€ ë˜ì—ˆì„ê¹Œ? ë¹„ì „ê³µì ì¶œì‹  ë°ì´í„° ë¶„ì„ê°€ë¡œ ì¼í•œì§€ ì–´ëŠë§ 3ë…„ì°¨ ì…ë‹ˆë‹¤. â€¦","timeToRead":4,"featured":null,"thumbnailText":null,"date":"2022-04-15","category":{"id":"03fd41aa-5b9b-5e34-a9c9-fcfe159c2c98","name":"Career","slug":"/category/career/","color":"#bee3f8","icon":null},"author":{"id":"45872695-3cff-5e2a-848c-e9cc46f6b37f","name":"í™ì„œì—°","slug":"/author/seoyeon/","title":"Data Analyst","description":"","skills":["Data Analysis","Visualization","Communication","Pyspark","SQL","Python","Business Strategy","Tableau","Statistics","Agile"],"social":[{"name":"LinkedIn","url":"linkedin.com/in/seoyeon-hong-15701b158"}],"thumbnail":null},"thumbnail":{"__typename":"ImageSharp","ImageSharp_vertical":{"layout":"constrained","backgroundColor":"#68c8e8","images":{"fallback":{"src":"/static/2c78e2cc00d67ee7a6a9b431af478a73/144fe/00_thunbnail.jpg","srcSet":"/static/2c78e2cc00d67ee7a6a9b431af478a73/9d7b9/00_thunbnail.jpg 190w,\n/static/2c78e2cc00d67ee7a6a9b431af478a73/144fe/00_thunbnail.jpg 380w","sizes":"(min-width: 380px) 380px, 100vw"},"sources":[{"srcSet":"/static/2c78e2cc00d67ee7a6a9b431af478a73/228d6/00_thunbnail.webp 190w,\n/static/2c78e2cc00d67ee7a6a9b431af478a73/6b99c/00_thunbnail.webp 380w","type":"image/webp","sizes":"(min-width: 380px) 380px, 100vw"}]},"width":380,"height":290},"ImageSharp_hero":{"layout":"constrained","backgroundColor":"#68c8e8","images":{"fallback":{"src":"/static/2c78e2cc00d67ee7a6a9b431af478a73/5e493/00_thunbnail.jpg","srcSet":"/static/2c78e2cc00d67ee7a6a9b431af478a73/696c0/00_thunbnail.jpg 800w,\n/static/2c78e2cc00d67ee7a6a9b431af478a73/5e493/00_thunbnail.jpg 1600w","sizes":"(min-width: 1600px) 1600px, 100vw"},"sources":[{"srcSet":"/static/2c78e2cc00d67ee7a6a9b431af478a73/c9f06/00_thunbnail.webp 800w,\n/static/2c78e2cc00d67ee7a6a9b431af478a73/f47df/00_thunbnail.webp 1600w","type":"image/webp","sizes":"(min-width: 1600px) 1600px, 100vw"}]},"width":1600,"height":650}}},{"id":"6ac7565a-2172-5609-b748-1bb5f1268d77","title":"ë°ì´í„° ë¶„ì„ì‹œ ì²´í¬í•´ì•¼ í•  3ê°€ì§€","slug":"/3-things-to-check-when-analyzing-data/","link":null,"excerpt":"ìš”ì¦˜ì€ ì •ë§ ë°ì´í„°ê°€ ì „ë¶€ì¸ ì„¸ìƒì¸ ê²ƒ ê°™ìŠµë‹ˆë‹¤.\nê³ ê°ì˜ ì •ë³´ë¥¼ í™œìš©í•˜ì—¬ ë§ì¶¤ ì„œë¹„ìŠ¤ë¥¼ ì œê³µí•˜ëŠ” ê²ƒì´ ë‹¹ì—°â€¦","timeToRead":4,"featured":null,"thumbnailText":null,"date":"2022-04-13","category":{"id":"72591dba-cc76-502b-b1a6-e70b32d12956","name":"Data-Driven","slug":"/category/data-driven/","color":"#fefcbf","icon":null},"author":{"id":"02bcdbb4-b89e-5b5b-9738-3c8b6c209b30","name":"ê¹€í¬ì˜","slug":"/author/heeyoung/","title":"Data Analyst","description":"ì‚¬ëŒì˜ ì‹¬ë¦¬ì™€ í–‰ë™ì„ ì¤‘ì‹¬ìœ¼ë¡œ ë¶„ì„ì„í•˜ëŠ” ë°ì´í„° ë¶„ì„ê°€ì…ë‹ˆë‹¤.","skills":["Data Analysis","Python","Communication"],"social":null,"thumbnail":null},"thumbnail":{"__typename":"ImageSharp","ImageSharp_vertical":{"layout":"constrained","backgroundColor":"#d85858","images":{"fallback":{"src":"/static/0aebbfc3b3c5d42ff832f21a176991cb/19188/season2_thumbnail.png","srcSet":"/static/0aebbfc3b3c5d42ff832f21a176991cb/db297/season2_thumbnail.png 190w,\n/static/0aebbfc3b3c5d42ff832f21a176991cb/19188/season2_thumbnail.png 380w","sizes":"(min-width: 380px) 380px, 100vw"},"sources":[{"srcSet":"/static/0aebbfc3b3c5d42ff832f21a176991cb/228d6/season2_thumbnail.webp 190w,\n/static/0aebbfc3b3c5d42ff832f21a176991cb/6b99c/season2_thumbnail.webp 380w","type":"image/webp","sizes":"(min-width: 380px) 380px, 100vw"}]},"width":380,"height":290},"ImageSharp_hero":{"layout":"constrained","backgroundColor":"#d85858","images":{"fallback":{"src":"/static/0aebbfc3b3c5d42ff832f21a176991cb/5fb32/season2_thumbnail.png","srcSet":"/static/0aebbfc3b3c5d42ff832f21a176991cb/739fd/season2_thumbnail.png 600w,\n/static/0aebbfc3b3c5d42ff832f21a176991cb/5fb32/season2_thumbnail.png 1200w","sizes":"(min-width: 1200px) 1200px, 100vw"},"sources":[{"srcSet":"/static/0aebbfc3b3c5d42ff832f21a176991cb/288e3/season2_thumbnail.webp 600w,\n/static/0aebbfc3b3c5d42ff832f21a176991cb/5b893/season2_thumbnail.webp 1200w","type":"image/webp","sizes":"(min-width: 1200px) 1200px, 100vw"}]},"width":1600,"height":650.6666666666666}}},{"id":"ad11488c-cc31-5bb8-8fe8-79ebda351583","title":"ë°ì´í„°ë¶„ì„ê°€ì˜ ì—­í• ","slug":"/data-analyst-roles/","link":null,"excerpt":"ğŸ™†ğŸ»â€â™‚ï¸ ë³¸ ê¸€ì€  ê°œì¸ë¸”ë¡œê·¸ ì—ì„œë„ í™•ì¸ ê°€ëŠ¥í•©ë‹ˆë‹¤. ë°ì´í„°ë¶„ì„ê°€ í¬ì§€ì…˜ì€ PM/PO, ê°œë°œì ë“±ì— ë¹„í•´ ì—­í• â€¦","timeToRead":4,"featured":null,"thumbnailText":null,"date":"2022-04-10","category":{"id":"fdc6088f-100f-5e34-b5c5-72c641ed1c6a","name":"Etc","slug":"/category/etc/","color":"#bee3f8","icon":null},"author":{"id":"a3d9a776-8230-5988-bc8e-25ddd6ae64b6","name":"í—ˆí˜„","slug":"/author/ben/","title":"Data Analyst","description":"NCSOFTì—ì„œ ìœ ì €ì™€ ê²Œì„ ìƒí™©ì„ ë¶„ì„í•˜ëŠ” ì¼ì„ í•˜ê³  ìˆìŠµë‹ˆë‹¤.","skills":["Data Analysis","SQL","Communication","Visualization"],"social":[{"name":"Website","url":"https://benheo.github.io"}],"thumbnail":null},"thumbnail":null},{"id":"c8b9cc05-6728-5691-9d12-edd0a9151fc0","title":"A/B í…ŒìŠ¤íŠ¸ì—ì„œ ì˜ë¯¸ìˆëŠ” íš¨ê³¼ ê¸°ì¤€ (MDE)ì„ ì„¤ì •í•˜ëŠ” ë°©ë²•","slug":"/abtest-setting-mde/","link":null,"excerpt":"ë¶€ì œ: A/B í…ŒìŠ¤íŠ¸ì˜ ê°€ì¥ ì°¾ê¸° í˜ë“  íŒŒë¼ë¯¸í„°ë¥¼ ì•Œì•„ë³´ê¸° ì´ ê¸€ì€  ê°œì¸ ë¸”ë¡œê·¸ ì— ë¨¼ì € ì‘ì„±ëœ ê¸€ì…ë‹ˆë‹¤â€¦","timeToRead":4,"featured":null,"thumbnailText":null,"date":"2022-02-15","category":{"id":"1c4c37b8-393e-55bb-a4bc-8261b121a85c","name":"Experiment","slug":"/category/experiment/","color":"#e9d8fd","icon":null},"author":{"id":"a52ce1a7-def3-5dd8-af26-056e71a54d6e","name":"ê¹€ì§„í™˜","slug":"/author/jinhwan/","title":"Data Scientist","description":"ë°ì´í„° ê¹ëŠ” ì• ì˜¹ì´","skills":["R","Visualization","Product Management","Data Analysis","ì¸„ë¥´"],"social":[{"name":"Website","url":"https://medium.com/@jhk0530"}],"thumbnail":null},"thumbnail":null},{"id":"3a230e06-2a89-5081-a035-dd021983f091","title":"ë°ì´í„°ë¡œ ëª¨ë“  ë¬¸ì œë¥¼ í•´ê²°í•  ìˆ˜ ìˆì„ê¹Œ?","slug":"/solve-problems-data/","link":null,"excerpt":"ì´ ê¸€ì€  [ë°ì´í„°ë¬¸í•´ë ¥ - ì¹´ì‹œì™€ê¸° ìš”ì‹œí‚¤ ì§€ìŒ, ê°•ëª¨í¬ ì˜®ê¹€ | í”„ë¦¬ë ‰] ì„ ì½ìœ¼ë©´ì„œ ì¬ë¯¸ìˆê²Œ ë³´ì•˜ë˜ â€¦","timeToRead":3,"featured":null,"thumbnailText":null,"date":"2022-02-13","category":{"id":"72591dba-cc76-502b-b1a6-e70b32d12956","name":"Data-Driven","slug":"/category/data-driven/","color":"#fefcbf","icon":null},"author":{"id":"9f304968-7773-5d63-a088-568b07d21e5b","name":"ì–‘í˜„ì„","slug":"/author/johan/","title":"Product Owner","description":"ì¸ìŠˆì–´í…Œí¬ í”Œë«í¼ì„ ë§Œë“¤ê³  ìˆìŠµë‹ˆë‹¤","skills":["Product Management","Communication","Business Strategy","Python"],"social":null,"thumbnail":null},"thumbnail":null},{"id":"92b59314-0869-5a3f-9f70-d60ac56dad0c","title":"ë°ì´í„° ê¸°ë°˜ í”„ë¡œë•íŠ¸ ê°œë°œì˜ ë¹„ê²°: Product Data Science","slug":"/key-product-data-science/","link":null,"excerpt":"í”„ë¡œë•íŠ¸ ë°ì´í„° ë¶„ì„ ë° í™œìš©ì— ëŒ€í•œ ìƒê°ë“¤ ì‘ì„±ì ë¸”ë¡œê·¸ ë§í¬   í•„ìì˜ ì´ì•¼ê¸° ì²« íšŒì‚¬ ìƒí™œì„ ì‹œì‘í•˜ê¸°â€¦","timeToRead":5,"featured":null,"thumbnailText":null,"date":"2022-02-07","category":{"id":"dfebefca-7b20-5a5e-9ed5-28a35cf56320","name":"Product Analytics","slug":"/category/product-analytics/","color":"#c6f6d5","icon":null},"author":{"id":"8646d171-706b-59e0-9492-1525e03b3fa6","name":"ìµœë³´ê²½","slug":"/author/bonnie/","title":"Data Analyst","description":"ë°ì´í„°ê°€ ê¸°ì—… ìš´ì˜ì˜ í•µì‹¬ì´ ë˜ë„ë¡ í•˜ëŠ” ì¼ì„ ì§€í–¥í•©ë‹ˆë‹¤.","skills":["Data Analysis","SQL","Communication","Product Strategy","Business Strategy"],"social":[{"name":"Website","url":"https://medium.com/bondata"}],"thumbnail":null},"thumbnail":{"__typename":"ImageSharp","ImageSharp_vertical":{"layout":"constrained","backgroundColor":"#f8f8f8","images":{"fallback":{"src":"/static/0425536d726ecee4e3f5c94ec07b4b77/19188/phases.png","srcSet":"/static/0425536d726ecee4e3f5c94ec07b4b77/db297/phases.png 190w,\n/static/0425536d726ecee4e3f5c94ec07b4b77/19188/phases.png 380w","sizes":"(min-width: 380px) 380px, 100vw"},"sources":[{"srcSet":"/static/0425536d726ecee4e3f5c94ec07b4b77/228d6/phases.webp 190w,\n/static/0425536d726ecee4e3f5c94ec07b4b77/6b99c/phases.webp 380w","type":"image/webp","sizes":"(min-width: 380px) 380px, 100vw"}]},"width":380,"height":290},"ImageSharp_hero":{"layout":"constrained","backgroundColor":"#f8f8f8","images":{"fallback":{"src":"/static/0425536d726ecee4e3f5c94ec07b4b77/81b3c/phases.png","srcSet":"/static/0425536d726ecee4e3f5c94ec07b4b77/84e46/phases.png 700w,\n/static/0425536d726ecee4e3f5c94ec07b4b77/81b3c/phases.png 1400w","sizes":"(min-width: 1400px) 1400px, 100vw"},"sources":[{"srcSet":"/static/0425536d726ecee4e3f5c94ec07b4b77/aca1f/phases.webp 700w,\n/static/0425536d726ecee4e3f5c94ec07b4b77/dd088/phases.webp 1400w","type":"image/webp","sizes":"(min-width: 1400px) 1400px, 100vw"}]},"width":1600,"height":650.2857142857143}}}],"pageInfo":{"pageCount":18,"hasPreviousPage":true,"hasNextPage":true,"currentPage":10},"totalCount":103}},"pageContext":{"slug":"/tag/","limit":6,"skip":54,"collectionType":"tags","paginatePostsPage":true,"basePath":"/","services":{"algolia":false,"mailchimp":false,"disqus":true,"graphComment":false,"facebookComment":false},"siteUrl":"https://playinpap.github.io","mobileMenu":{"title":"Topics","items":[{"name":"AI","slug":"/category/ai/"},{"name":"Time Series","slug":"/category/time-series/"},{"name":"Notice","slug":"/category/notice/"},{"name":"Visualization","slug":"/category/visualization/"},{"name":"SQL","slug":"/category/sql/"},{"name":"RecSys","slug":"/category/recsys/"},{"name":"Product Analytics","slug":"/category/product-analytics/"},{"name":"Metric","slug":"/category/metric/"},{"name":"Machine Learning","slug":"/category/machine-learning/"},{"name":"Experiment","slug":"/category/experiment/"},{"name":"Etc","slug":"/category/etc/"},{"name":"Data Engineering","slug":"/category/data-engineering/"},{"name":"Data-Driven","slug":"/category/data-driven/"},{"name":"Causal Inference","slug":"/category/causal-inference/"},{"name":"Career","slug":"/category/career/"},{"name":"Causal Inference","slug":"/category/causal-inference/"},{"name":"Data-Driven","slug":"/category/data-driven/"},{"name":"Career","slug":"/category/career/"},{"name":"Data Engineering","slug":"/category/data-engineering/"},{"name":"Etc","slug":"/category/etc/"},{"name":"Experiment","slug":"/category/experiment/"},{"name":"Machine Learning","slug":"/category/machine-learning/"},{"name":"Metric","slug":"/category/metric/"},{"name":"Notice","slug":"/category/notice/"},{"name":"Product Analytics","slug":"/category/product-analytics/"},{"name":"Visualization","slug":"/category/visualization/"},{"name":"RecSys","slug":"/category/recsys/"},{"name":"SQL","slug":"/category/sql/"}]},"darkMode":true,"includeExcerpt":true,"includeTimeToRead":true,"includeTableOfContents":true,"imageQuality":75}},"staticQueryHashes":["1992822086","2313160350"]}