{"componentChunkName":"component---packages-blog-gatsby-blog-core-src-templates-collection-tag-js","path":"/tag/page/13/","result":{"data":{"collectionInfo":{"id":"a4c4f489-24a0-548c-bd14-aab51e1a2beb","name":"ì§€í‘œ","slug":"/tag/"},"posts":{"nodes":[{"id":"b5489b3a-2b0a-5191-8677-bb8998b922d4","title":"ë„·í”Œë¦­ìŠ¤ì—ì„œ A/B í…ŒìŠ¤íŠ¸ë¥¼ í•´ì„í•˜ëŠ” ë²•: ê±°ì§“ ì–‘ì„± ì˜¤ë¥˜ ì•Œì•„ë³´ê¸°","slug":"/interpreting-a/b-test-results-false-positives/","link":null,"excerpt":"A/B í…ŒìŠ¤íŠ¸ ê²°ê³¼ í•´ì„í•˜ê¸° ê°œìš” ìµœê·¼ì— ì¸ê³¼ ì¶”ë¡ ì„ ê³µë¶€í•˜ë©´ì„œ ê´€ë ¨ëœ ê¸€ì„ ì°¾ì•„ë³´ê²Œ ë˜ì—ˆìŠµë‹ˆë‹¤. ê·¸ëŸ¬ë‹¤ â€¦","timeToRead":5,"featured":null,"thumbnailText":null,"date":"2022-01-01","category":{"id":"1c4c37b8-393e-55bb-a4bc-8261b121a85c","name":"Experiment","slug":"/category/experiment/","color":"#e9d8fd","icon":null},"author":{"id":"75c31cae-14f5-574c-8c9d-c6eeae2041d1","name":"ë°•ì°¬ë¯¼","slug":"/author/chan/","title":"Data Engineer","description":"ë°ì´í„° ì—”ì§€ë‹ˆì–´ë¡œ ì‹œì‘í–ˆì§€ë§Œ, ë¶„ì„ ë° ì˜ì‚¬ê²°ì •ì—ë„ ê´€ì‹¬ì´ ë§ì•„ í•¨ê»˜ í™œë™í•˜ê²Œ ë˜ì—ˆìŠµë‹ˆë‹¤ ğŸ˜‚","skills":["SQL","Development","Business Strategy","Python"],"social":[{"name":"Website","url":"https://chanssp.github.io/"}],"thumbnail":null},"thumbnail":null},{"id":"e05582bb-29ed-5e66-ade1-db67ac138280","title":"ìš°ë²„ì˜ ì‹¤í—˜ í”Œë«í¼ ë“¤ì—¬ë‹¤ë³´ê¸°","slug":"/uber-experiment-platform/","link":null,"excerpt":"Under the Hood of Uberâ€™s Experimentation Platform ì›ê¸€ ë³´ëŸ¬ê°€ê¸° Eâ€¦","timeToRead":7,"featured":null,"thumbnailText":null,"date":"2021-12-29","category":{"id":"1c4c37b8-393e-55bb-a4bc-8261b121a85c","name":"Experiment","slug":"/category/experiment/","color":"#e9d8fd","icon":null},"author":{"id":"26c9333e-6e21-5541-9fe4-9514c6cd315b","name":"ìœ ìŠ¹í›ˆ","slug":"/author/seunghuni/","title":"Student","description":"ë°ì´í„°ë¶„ì„ì— ê´€ì‹¬ì´ ìˆìŠµë‹ˆë‹¤.","skills":["Data Analysis","Python","R","SQL","Tableau"],"social":[{"name":"Website","url":"https://seunghuni96.tistory.com"}],"thumbnail":null},"thumbnail":{"__typename":"ImageSharp","ImageSharp_vertical":{"layout":"constrained","backgroundColor":"#f8f8f8","images":{"fallback":{"src":"/static/39635db5f0bf7c996b68b37d4881f5aa/19188/main_fig.png","srcSet":"/static/39635db5f0bf7c996b68b37d4881f5aa/db297/main_fig.png 190w,\n/static/39635db5f0bf7c996b68b37d4881f5aa/19188/main_fig.png 380w","sizes":"(min-width: 380px) 380px, 100vw"},"sources":[{"srcSet":"/static/39635db5f0bf7c996b68b37d4881f5aa/228d6/main_fig.webp 190w,\n/static/39635db5f0bf7c996b68b37d4881f5aa/6b99c/main_fig.webp 380w","type":"image/webp","sizes":"(min-width: 380px) 380px, 100vw"}]},"width":380,"height":290},"ImageSharp_hero":{"layout":"constrained","backgroundColor":"#f8f8f8","images":{"fallback":{"src":"/static/39635db5f0bf7c996b68b37d4881f5aa/6a482/main_fig.png","srcSet":"/static/39635db5f0bf7c996b68b37d4881f5aa/727b6/main_fig.png 384w,\n/static/39635db5f0bf7c996b68b37d4881f5aa/6a482/main_fig.png 768w","sizes":"(min-width: 768px) 768px, 100vw"},"sources":[{"srcSet":"/static/39635db5f0bf7c996b68b37d4881f5aa/eb0f8/main_fig.webp 384w,\n/static/39635db5f0bf7c996b68b37d4881f5aa/8424c/main_fig.webp 768w","type":"image/webp","sizes":"(min-width: 768px) 768px, 100vw"}]},"width":1600,"height":650}}},{"id":"458a041d-97b9-5af7-be38-b068f5e3c799","title":"ë°ì´í„° ë¶„ì„, SQLì´ ë¬¸ì œê°€ ì•„ë‹ˆì•¼!","slug":"/sql-is-not-the-problem/","link":null,"excerpt":"ì› ê¸€ì€  ì‘ì„±ì ë¸”ë¡œê·¸ ì—ì„œ ë³´ì‹¤ ìˆ˜ ìˆìŠµë‹ˆë‹¤. í•˜ë„ ë°ì´í„°, ë°ì´í„° ì™¸ì³ ëŒ€ëŠ” í†µì— SQLì„ ë°°ì› ì§€ë§Œ,â€¦","timeToRead":3,"featured":null,"thumbnailText":null,"date":"2021-12-27","category":{"id":"ee98faff-9590-5e26-ad25-07c638dbe883","name":"SQL","slug":"/category/sql/","color":"#e9d8fd","icon":null},"author":{"id":"11b163c4-212b-50ce-a753-4730fa1fce33","name":"ì´ìœ¤í¬","slug":"/author/noel/","title":"Strategy Manager","description":"ë…¼ë¦¬ì™€ ë°ì´í„° ê¸°ë°˜ì˜ íƒì›”í•œ ì œë„ˆëŸ´ë¦¬ìŠ¤íŠ¸ë¥¼ ì§€í–¥í•©ë‹ˆë‹¤.","skills":["Data Analysis","Communication","SQL","Business Strategy"],"social":[{"name":"Website","url":"https://medium.com/@connect2yh"}],"thumbnail":null},"thumbnail":null},{"id":"fd9af1b3-5a2a-5811-ae22-4172a8fcbf81","title":"ì•„ë§ˆì¡´ì´ ì•Œë ¤ì£¼ëŠ” ê°€ê²©buybox","slug":"/amazon-buybox/","link":null,"excerpt":"ë³¸ í¬ìŠ¤íŒ…ì˜ ì›ë¬¸ì€  ì´ê³³ ì—ì„œ í™•ì¸í•˜ì‹¤ ìˆ˜ ìˆìŠµë‹ˆë‹¤! ê°œìš” ì´ì»¤ë¨¸ìŠ¤ íšŒì‚¬ë¥¼ ë‹¤ë‹ˆê³  ë˜ ê°œì¸ì ìœ¼ë¡œ ì´ì»¤ë¨¸ìŠ¤â€¦","timeToRead":3,"featured":null,"thumbnailText":null,"date":"2021-12-27","category":{"id":"72591dba-cc76-502b-b1a6-e70b32d12956","name":"Data-Driven","slug":"/category/data-driven/","color":"#fefcbf","icon":null},"author":{"id":"79161546-a306-548e-b4f5-9f2abdfc5af9","name":"ì´ì¸ì˜","slug":"/author/nathan/","title":"Data Analyst","description":"ìƒì¡´í˜• ë¹„ì¦ˆë‹ˆìŠ¤ ë°ì´í„°ë¶„ì„ê°€","skills":null,"social":null,"thumbnail":null},"thumbnail":null},{"id":"4624e765-fe8b-5d09-9099-0989ae6fff2a","title":"ë°ì´í„°ì˜ í•¨ì •ì— ë¹ ì§€ì§€ ì•ŠëŠ” ë°©ë²•","slug":"/trap-of-data/","link":null,"excerpt":"ë“¤ì–´ê°€ê¸°ì— ì•ì„œ ì¼ì„ í•˜ë©´ì„œ ê·¸ë¦¬ê³  ìƒí™œ ì†ì—ì„œë„ ìš°ë¦¬ëŠ” ë‹¤ì–‘í•œ ìˆ«ìë“¤ì„ ë§ˆì£¼í•˜ê²Œ ë˜ëŠ”ë°ìš”. í˜¹ì‹œ ê·¸ ìˆ«ìâ€¦","timeToRead":2,"featured":null,"thumbnailText":null,"date":"2021-12-27","category":{"id":"72591dba-cc76-502b-b1a6-e70b32d12956","name":"Data-Driven","slug":"/category/data-driven/","color":"#fefcbf","icon":null},"author":{"id":"9f304968-7773-5d63-a088-568b07d21e5b","name":"ì–‘í˜„ì„","slug":"/author/johan/","title":"Product Owner","description":"ì¸ìŠˆì–´í…Œí¬ í”Œë«í¼ì„ ë§Œë“¤ê³  ìˆìŠµë‹ˆë‹¤","skills":["Product Management","Communication","Business Strategy","Python"],"social":null,"thumbnail":null},"thumbnail":null},{"id":"e27343c0-2bfe-55d6-967f-f98d84cd20da","title":"ìƒ˜í”Œ ì‚¬ì´ì¦ˆ ê³„ì‚°ê¸°ì— ìˆ¨ì–´ìˆëŠ” í†µê³„ ì´ì•¼ê¸°","slug":"/sample-size-calculator-statistics/","link":null,"excerpt":"ì› ê¸€ì€  ì‘ì„±ì ë¸”ë¡œê·¸ ì—ì„œ ë³´ì‹¤ ìˆ˜ ìˆìŠµë‹ˆë‹¤. A/B í…ŒìŠ¤íŠ¸ë¥¼ ì§„í–‰í•˜ê¸° ì•ì„œ ëŠ˜ ê³ ë¯¼ë˜ëŠ” ê²ƒì€ â€œì ì ˆí•œâ€¦","timeToRead":4,"featured":null,"thumbnailText":null,"date":"2021-12-26","category":{"id":"1c4c37b8-393e-55bb-a4bc-8261b121a85c","name":"Experiment","slug":"/category/experiment/","color":"#e9d8fd","icon":null},"author":{"id":"7a7d0f8f-6082-5dd7-aae3-d7f4803f9c32","name":"ì˜¤ì±„í™˜","slug":"/author/chaehwan/","title":"Data Scientist","description":"ì´ì»¤ë¨¸ìŠ¤ë¥¼ ìœ„í•œ ë§ˆì¼€íŒ… ìë™í™” ì†”ë£¨ì…˜ì„ ì œê³µí•˜ëŠ” ë¹…ì¸ì‚¬ì´íŠ¸ì—ì„œ ë°ì´í„° ë¶„ì„ì„ ë§¡ê³  ìˆìŠµë‹ˆë‹¤.","skills":["Data Analysis","Development","SQL","ML/DL"],"social":[{"name":"Website","url":"https://chaehwan-oh.github.io"}],"thumbnail":null},"thumbnail":null}],"pageInfo":{"pageCount":18,"hasPreviousPage":true,"hasNextPage":true,"currentPage":13},"totalCount":105}},"pageContext":{"slug":"/tag/","limit":6,"skip":72,"collectionType":"{tags: {slug: SELECT}","paginatePostsPage":true,"basePath":"/","services":{"algolia":false,"mailchimp":false,"disqus":true,"graphComment":false,"facebookComment":false},"siteUrl":"https://playinpap.github.io","mobileMenu":{"title":"Topics","items":[{"name":"Data pipeline","slug":"/category/data-pipeline/"},{"name":"AI","slug":"/category/ai/"},{"name":"Time Series","slug":"/category/time-series/"},{"name":"Notice","slug":"/category/notice/"},{"name":"Visualization","slug":"/category/visualization/"},{"name":"SQL","slug":"/category/sql/"},{"name":"RecSys","slug":"/category/recsys/"},{"name":"Product Analytics","slug":"/category/product-analytics/"},{"name":"Metric","slug":"/category/metric/"},{"name":"Machine Learning","slug":"/category/machine-learning/"},{"name":"Experiment","slug":"/category/experiment/"},{"name":"Etc","slug":"/category/etc/"},{"name":"Data Engineering","slug":"/category/data-engineering/"},{"name":"Data-Driven","slug":"/category/data-driven/"},{"name":"Causal Inference","slug":"/category/causal-inference/"},{"name":"Career","slug":"/category/career/"},{"name":"Career","slug":"/category/career/"},{"name":"Causal Inference","slug":"/category/causal-inference/"},{"name":"Data-Driven","slug":"/category/data-driven/"},{"name":"Data Engineering","slug":"/category/data-engineering/"},{"name":"Etc","slug":"/category/etc/"},{"name":"Machine Learning","slug":"/category/machine-learning/"},{"name":"Experiment","slug":"/category/experiment/"},{"name":"Metric","slug":"/category/metric/"},{"name":"Notice","slug":"/category/notice/"},{"name":"SQL","slug":"/category/sql/"},{"name":"Product Analytics","slug":"/category/product-analytics/"},{"name":"RecSys","slug":"/category/recsys/"},{"name":"Visualization","slug":"/category/visualization/"}]},"darkMode":true,"includeExcerpt":true,"includeTimeToRead":true,"includeTableOfContents":true,"imageQuality":75}},"staticQueryHashes":["1992822086","2313160350"],"slicesMap":{}}