{"componentChunkName":"component---packages-blog-gatsby-blog-core-src-templates-collection-tag-js","path":"/tag/page/18/","result":{"data":{"collectionInfo":{"id":"0ee6dc2f-86b3-5f71-b1d3-fa4710b72715","name":"í”„ë¡œë•íŠ¸ ë§¤ë‹ˆì €","slug":"/tag/"},"posts":{"nodes":[{"id":"3e95dea5-277f-5f9c-973d-67fc64f3af02","title":"2021ë…„ FWì‹œì¦Œ PAP í¼ë¸”ë¦¬ì…”ë¥¼ ëª¨ì§‘í•©ë‹ˆë‹¤!","slug":"/2021-fw-member-recruitment/","link":null,"excerpt":"ì•ˆë…•í•˜ì„¸ìš”. PAPê³¼ í•¨ê»˜í•  ë©¤ë²„ë“¤ì„ ì°¾ê³  ìˆìŠµë‹ˆë‹¤! ì´ëŸ° ë¶„ë“¤ ê³„ì‹ ê°€ìš”? ğŸ’ğŸ» í”„ë¡œë•íŠ¸ì™€ ë°ì´í„° ë¶„ì„ ê´€ë ¨â€¦","timeToRead":1,"featured":null,"thumbnailText":null,"date":"2021-10-14","category":{"id":"88d0b610-237e-5ff2-98f0-ea762ae750cc","name":"Notice","slug":"/category/notice/","color":"#c6f6d5","icon":null},"author":{"id":"8646d171-706b-59e0-9492-1525e03b3fa6","name":"ìµœë³´ê²½","slug":"/author/bonnie/","title":"Data Analyst","description":"ë°ì´í„°ê°€ ê¸°ì—… ìš´ì˜ì˜ í•µì‹¬ì´ ë˜ë„ë¡ í•˜ëŠ” ì¼ì„ ì§€í–¥í•©ë‹ˆë‹¤.","skills":["Data Analysis","SQL","Communication","Product Strategy","Business Strategy"],"social":[{"name":"Website","url":"https://medium.com/bondata"}],"thumbnail":null},"thumbnail":null}],"pageInfo":{"pageCount":18,"hasPreviousPage":true,"hasNextPage":false,"currentPage":18},"totalCount":103}},"pageContext":{"slug":"/tag/","limit":6,"skip":102,"collectionType":"tags","paginatePostsPage":true,"basePath":"/","services":{"algolia":false,"mailchimp":false,"disqus":true,"graphComment":false,"facebookComment":false},"siteUrl":"https://playinpap.github.io","mobileMenu":{"title":"Topics","items":[{"name":"AI","slug":"/category/ai/"},{"name":"Time Series","slug":"/category/time-series/"},{"name":"Notice","slug":"/category/notice/"},{"name":"Visualization","slug":"/category/visualization/"},{"name":"SQL","slug":"/category/sql/"},{"name":"RecSys","slug":"/category/recsys/"},{"name":"Product Analytics","slug":"/category/product-analytics/"},{"name":"Metric","slug":"/category/metric/"},{"name":"Machine Learning","slug":"/category/machine-learning/"},{"name":"Experiment","slug":"/category/experiment/"},{"name":"Etc","slug":"/category/etc/"},{"name":"Data Engineering","slug":"/category/data-engineering/"},{"name":"Data-Driven","slug":"/category/data-driven/"},{"name":"Causal Inference","slug":"/category/causal-inference/"},{"name":"Career","slug":"/category/career/"},{"name":"Causal Inference","slug":"/category/causal-inference/"},{"name":"Data-Driven","slug":"/category/data-driven/"},{"name":"Career","slug":"/category/career/"},{"name":"Data Engineering","slug":"/category/data-engineering/"},{"name":"Etc","slug":"/category/etc/"},{"name":"Experiment","slug":"/category/experiment/"},{"name":"Machine Learning","slug":"/category/machine-learning/"},{"name":"Metric","slug":"/category/metric/"},{"name":"Notice","slug":"/category/notice/"},{"name":"Product Analytics","slug":"/category/product-analytics/"},{"name":"Visualization","slug":"/category/visualization/"},{"name":"RecSys","slug":"/category/recsys/"},{"name":"SQL","slug":"/category/sql/"}]},"darkMode":true,"includeExcerpt":true,"includeTimeToRead":true,"includeTableOfContents":true,"imageQuality":75}},"staticQueryHashes":["1992822086","2313160350"]}