{
    "componentChunkName": "component---packages-blog-gatsby-blog-core-src-templates-collection-tag-js",
    "path": "/tag/page/27/",
    "result": {"data":{"collectionInfo":{"id":"b2cefa94-20b0-54ae-acfd-96fb23be7755","name":"#커뮤니티공지","slug":"/tag/"},"posts":{"nodes":[],"pageInfo":{"pageCount":17,"hasPreviousPage":true,"hasNextPage":false,"currentPage":27},"totalCount":100}},"pageContext":{"slug":"/tag/","limit":6,"skip":156,"collectionType":"tags","paginatePostsPage":true,"basePath":"/","services":{"algolia":false,"mailchimp":false,"disqus":true,"graphComment":false,"facebookComment":false},"siteUrl":"https://playinpap.github.io","mobileMenu":{"title":"Topics","items":[{"name":"Causal Inference","slug":"/category/causal-inference/"},{"name":"Career","slug":"/category/career/"},{"name":"Data-Driven","slug":"/category/data-driven/"},{"name":"Data Engineering","slug":"/category/data-engineering/"},{"name":"Experiment","slug":"/category/experiment/"},{"name":"Machine Learning","slug":"/category/machine-learning/"},{"name":"Metric","slug":"/category/metric/"},{"name":"Notice","slug":"/category/notice/"},{"name":"Product Analytics","slug":"/category/product-analytics/"},{"name":"RecSys","slug":"/category/recsys/"},{"name":"SQL","slug":"/category/sql/"},{"name":"Visualization","slug":"/category/visualization/"},{"name":"Etc","slug":"/category/etc/"}]},"darkMode":true,"includeExcerpt":true,"includeTimeToRead":true,"includeTableOfContents":true,"imageQuality":75}},
    "staticQueryHashes": ["1992822086","2313160350"]}