{"componentChunkName":"component---packages-blog-gatsby-blog-core-src-templates-collection-tag-js","path":"/tag/page/4/","result":{"data":{"collectionInfo":{"id":"a4c4f489-24a0-548c-bd14-aab51e1a2beb","name":"ì§€í‘œ","slug":"/tag/"},"posts":{"nodes":[{"id":"fa0f5f18-5f39-53d4-aa3c-3b1e3d90bdd0","title":"Carrying Capacity ì‹¬í™”í¸","slug":"/advanced-carrying-capacity/","link":null,"excerpt":"ğŸ™†ğŸ»â€â™‚ï¸ ë³¸ ê¸€ì€  ê°œì¸ë¸”ë¡œê·¸ ì—ì„œë„ í™•ì¸ ê°€ëŠ¥í•©ë‹ˆë‹¤. ìµœê·¼ Carrying Capacity(CC)ì— ëŒ€í•œ ì–˜ê¸°â€¦","timeToRead":3,"featured":null,"thumbnailText":null,"date":"2022-07-17","category":{"id":"548e726d-f106-558f-8ae7-d58a9f70d36e","name":"Metric","slug":"/category/metric/","color":"#e9d8fd","icon":null},"author":{"id":"a3d9a776-8230-5988-bc8e-25ddd6ae64b6","name":"í—ˆí˜„","slug":"/author/ben/","title":"Data Analyst","description":"NCSOFTì—ì„œ ìœ ì €ì™€ ê²Œì„ ìƒí™©ì„ ë¶„ì„í•˜ëŠ” ì¼ì„ í•˜ê³  ìˆìŠµë‹ˆë‹¤.","skills":["Data Analysis","SQL","Communication","Visualization"],"social":[{"name":"Website","url":"https://benheo.github.io"}],"thumbnail":null},"thumbnail":null},{"id":"48bec53c-5461-51e1-8d5f-2d521ea05682","title":"ì¸ê³¼ì¶”ë¡  ë‹¤ì„¯ë²ˆì§¸ - íšŒê·€ë‹¨ì ˆ(Regression Discontinuity, RD)","slug":"/casual-inference-regression-discontinuity/","link":null,"excerpt":"ì¸ê³¼ì¶”ë¡  - íšŒê·€ë‹¨ì ˆ ë“¤ì–´ê°€ê¸° ì•ì„œ ì¸ê³¼íš¨ê³¼ë¥¼ ì¶”ì •í•˜ëŠ” ë°©ë²• ë²Œì¨ 5ë²ˆì§¸ ê¸€ì´ë„¤ìš”! \nì´ë²ˆì—ëŠ” íšŒê·€ë‹¨ì ˆì— â€¦","timeToRead":3,"featured":null,"thumbnailText":null,"date":"2022-07-12","category":{"id":"91a926e7-e227-537c-9237-db3e7379964e","name":"Causal Inference","slug":"/category/causal-inference/","color":"#c6f6d5","icon":null},"author":{"id":"c8a036a4-0cad-5963-ac2f-955ee1e03576","name":"ê²½ìœ¤ì˜","slug":"/author/yun/","title":"Job Seeker","description":"ë°ì´í„° ë¶„ì„ê°€ê°€ ë˜ê¸° ìœ„í•´ ì¤€ë¹„í•˜ê³  ìˆìŠµë‹ˆë‹¤~!","skills":["Data Analysis","R","SQL","Python"],"social":null,"thumbnail":null},"thumbnail":null},{"id":"6ebb726a-1c96-51d1-80d2-8400fe5dfc37","title":"ë² ì´ì§€ì•ˆ A/B í…ŒìŠ¤íŠ¸ - MCMC","slug":"/bayesian_ab_test_mcmc/","link":null,"excerpt":"ì´ ê¸€ì€  ì‘ì„±ì ë¸”ë¡œê·¸ ì—ì„œë„ ë³´ì‹¤ ìˆ˜ ìˆìŠµë‹ˆë‹¤. ì´ë²ˆ ê¸€ì— ìˆëŠ” ì½”ë“œë¥¼ ì‹¤í–‰í•˜ê¸° ìœ„í•´ í•„ìš”í•œ ë¼ì´ë¸ŒëŸ¬ë¦¬â€¦","timeToRead":2,"featured":null,"thumbnailText":null,"date":"2022-07-11","category":{"id":"1c4c37b8-393e-55bb-a4bc-8261b121a85c","name":"Experiment","slug":"/category/experiment/","color":"#e9d8fd","icon":null},"author":{"id":"2a572c4e-eef7-50d6-92bd-328b31b5fade","name":"ì˜¤ì—°ì£¼","slug":"/author/yeonjuoh/","title":"Data Scientist","description":"ì„¸ìƒì— ê´€ì‹¬ì´ ë§ìŠµë‹ˆë‹¤.","skills":["Data Analysis","Machine Learning","Visualization"],"social":null,"thumbnail":null},"thumbnail":{"__typename":"ImageSharp","ImageSharp_vertical":{"layout":"constrained","backgroundColor":"#d85858","images":{"fallback":{"src":"/static/0aebbfc3b3c5d42ff832f21a176991cb/19188/season2_thumbnail.png","srcSet":"/static/0aebbfc3b3c5d42ff832f21a176991cb/db297/season2_thumbnail.png 190w,\n/static/0aebbfc3b3c5d42ff832f21a176991cb/19188/season2_thumbnail.png 380w","sizes":"(min-width: 380px) 380px, 100vw"},"sources":[{"srcSet":"/static/0aebbfc3b3c5d42ff832f21a176991cb/228d6/season2_thumbnail.webp 190w,\n/static/0aebbfc3b3c5d42ff832f21a176991cb/6b99c/season2_thumbnail.webp 380w","type":"image/webp","sizes":"(min-width: 380px) 380px, 100vw"}]},"width":380,"height":290},"ImageSharp_hero":{"layout":"constrained","backgroundColor":"#d85858","images":{"fallback":{"src":"/static/0aebbfc3b3c5d42ff832f21a176991cb/5fb32/season2_thumbnail.png","srcSet":"/static/0aebbfc3b3c5d42ff832f21a176991cb/739fd/season2_thumbnail.png 600w,\n/static/0aebbfc3b3c5d42ff832f21a176991cb/5fb32/season2_thumbnail.png 1200w","sizes":"(min-width: 1200px) 1200px, 100vw"},"sources":[{"srcSet":"/static/0aebbfc3b3c5d42ff832f21a176991cb/288e3/season2_thumbnail.webp 600w,\n/static/0aebbfc3b3c5d42ff832f21a176991cb/5b893/season2_thumbnail.webp 1200w","type":"image/webp","sizes":"(min-width: 1200px) 1200px, 100vw"}]},"width":1600,"height":650.6666666666666}}},{"id":"ef6a521f-0725-5437-bcf2-84065ea60a77","title":"ì¶”ì²œì‹œìŠ¤í…œ, ê·¸ê²ƒì´ ì•Œê³ ì‹¶ë‹¤","slug":"/recsys-basic/","link":null,"excerpt":"ì•ˆë…•í•˜ì„¸ìš”. ì¶”ì²œì„ ì¢‹ì•„í•˜ëŠ” ë°ì´í„° ë¶„ì„ê°€ì…ë‹ˆë‹¤. ì´ë²ˆ ê¸€ì€ ê·¸ë™ì•ˆ ì¶”ì²œì„ ì• ì •í•˜ë©° ê³µë¶€í•´ì˜¨ ë‚´ìš©ë“¤ì„ ë°”íƒ•â€¦","timeToRead":3,"featured":null,"thumbnailText":null,"date":"2022-07-11","category":{"id":"235c56fb-b8e8-5f99-b5c6-aa537fd9450a","name":"RecSys","slug":"/category/recsys/","color":"#bee3f8","icon":null},"author":{"id":"7794027c-71aa-588f-8ad6-a109b3ddac03","name":"ì£¼ì •ë¯¼","slug":"/author/jmin/","title":"Data Analyst","description":"ê¸€ë¡œë²Œ ì»¤ë¨¸ìŠ¤, ë°°ë‹¬ í”Œë«í¼ ë“± ë‹¤ì–‘í•œ ì‚°ì—…ì—ì„œ ë°ì´í„° ë¶„ì„ê°€ë¡œ í™œë™í•˜ê³  ìˆìŠµë‹ˆë‹¤.","skills":["data analysis","data visualization","experiment"],"social":[{"name":null,"url":"https://www.linkedin.com/in/jeongmin-ju/"},{"name":null,"url":"https://medium.com/@jeongmin-ju"}],"thumbnail":null},"thumbnail":{"__typename":"ImageSharp","ImageSharp_vertical":{"layout":"constrained","backgroundColor":"#d85858","images":{"fallback":{"src":"/static/0aebbfc3b3c5d42ff832f21a176991cb/19188/season2_thumbnail.png","srcSet":"/static/0aebbfc3b3c5d42ff832f21a176991cb/db297/season2_thumbnail.png 190w,\n/static/0aebbfc3b3c5d42ff832f21a176991cb/19188/season2_thumbnail.png 380w","sizes":"(min-width: 380px) 380px, 100vw"},"sources":[{"srcSet":"/static/0aebbfc3b3c5d42ff832f21a176991cb/228d6/season2_thumbnail.webp 190w,\n/static/0aebbfc3b3c5d42ff832f21a176991cb/6b99c/season2_thumbnail.webp 380w","type":"image/webp","sizes":"(min-width: 380px) 380px, 100vw"}]},"width":380,"height":290},"ImageSharp_hero":{"layout":"constrained","backgroundColor":"#d85858","images":{"fallback":{"src":"/static/0aebbfc3b3c5d42ff832f21a176991cb/5fb32/season2_thumbnail.png","srcSet":"/static/0aebbfc3b3c5d42ff832f21a176991cb/739fd/season2_thumbnail.png 600w,\n/static/0aebbfc3b3c5d42ff832f21a176991cb/5fb32/season2_thumbnail.png 1200w","sizes":"(min-width: 1200px) 1200px, 100vw"},"sources":[{"srcSet":"/static/0aebbfc3b3c5d42ff832f21a176991cb/288e3/season2_thumbnail.webp 600w,\n/static/0aebbfc3b3c5d42ff832f21a176991cb/5b893/season2_thumbnail.webp 1200w","type":"image/webp","sizes":"(min-width: 1200px) 1200px, 100vw"}]},"width":1600,"height":650.6666666666666}}},{"id":"a0945ebe-1a6d-55a6-b472-b11f16deacfd","title":"ì„ ì¶”ì²œí›„ê°ìƒ- Learning Recommendation","slug":"/reco-first-enjoy-after-learning-recommendation-02/","link":null,"excerpt":"| ğŸ’ğŸ½â€â™‚ï¸ ë³¸ í¬ìŠ¤íŒ…ì˜ ì›ë¬¸ì€  ì´ê³³ ì—ì„œ í™•ì¸í•˜ì‹¤ ìˆ˜ ìˆìŠµë‹ˆë‹¤! ë“¤ì–´ê°€ë©°   ì´ë²ˆ ê¸€ì—ì„œëŠ” ì¶”ì²œ ì‹œìŠ¤í…œì„ í•™â€¦","timeToRead":4,"featured":null,"thumbnailText":null,"date":"2022-07-11","category":{"id":"8d143366-e046-552d-be25-4380e8516613","name":"Machine Learning","slug":"/category/machine-learning/","color":"#F29B9B","icon":null},"author":{"id":"09f29a42-ab7f-57ab-8f12-e29d0e46ce49","name":"ì•ˆì°½ë°°","slug":"/author/dane/","title":"Data Scientist","description":"í†µê³„ì™€ ë¨¸ì‹ ëŸ¬ë‹ì„ ì˜ ì¨ë¨¹ê³  ì‹¶ì€ DS. ê°œì¸í™”ì— ê´€ì‹¬ ë§ì•„ìš”!","skills":["ML/DL","Python","Statistics"],"social":null,"thumbnail":null},"thumbnail":{"__typename":"ImageSharp","ImageSharp_vertical":{"layout":"constrained","backgroundColor":"#d85858","images":{"fallback":{"src":"/static/0aebbfc3b3c5d42ff832f21a176991cb/19188/season2_thumbnail.png","srcSet":"/static/0aebbfc3b3c5d42ff832f21a176991cb/db297/season2_thumbnail.png 190w,\n/static/0aebbfc3b3c5d42ff832f21a176991cb/19188/season2_thumbnail.png 380w","sizes":"(min-width: 380px) 380px, 100vw"},"sources":[{"srcSet":"/static/0aebbfc3b3c5d42ff832f21a176991cb/228d6/season2_thumbnail.webp 190w,\n/static/0aebbfc3b3c5d42ff832f21a176991cb/6b99c/season2_thumbnail.webp 380w","type":"image/webp","sizes":"(min-width: 380px) 380px, 100vw"}]},"width":380,"height":290},"ImageSharp_hero":{"layout":"constrained","backgroundColor":"#d85858","images":{"fallback":{"src":"/static/0aebbfc3b3c5d42ff832f21a176991cb/5fb32/season2_thumbnail.png","srcSet":"/static/0aebbfc3b3c5d42ff832f21a176991cb/739fd/season2_thumbnail.png 600w,\n/static/0aebbfc3b3c5d42ff832f21a176991cb/5fb32/season2_thumbnail.png 1200w","sizes":"(min-width: 1200px) 1200px, 100vw"},"sources":[{"srcSet":"/static/0aebbfc3b3c5d42ff832f21a176991cb/288e3/season2_thumbnail.webp 600w,\n/static/0aebbfc3b3c5d42ff832f21a176991cb/5b893/season2_thumbnail.webp 1200w","type":"image/webp","sizes":"(min-width: 1200px) 1200px, 100vw"}]},"width":1600,"height":650.6666666666666}}},{"id":"7f4a544f-4311-5a28-a4fd-2f2a037b95f9","title":"ë²„ê±°í‚¹ì˜ ì¿ í° í™œìš©ì„ í†µí•´ ì•Œì•„ë³´ëŠ” ê³ ê° ê·¸ë£¹Â ë‚˜ëˆ„ê¸°","slug":"/segment-burgerking/","link":null,"excerpt":"ë¶€ì œ: ì´ê±° ì“°ë ¤ê³  ì‹ ë©”ë‰´ í•œë²ˆ ë” ë¨¹ì—ˆë‹¤ ê°œìš” ìµœê·¼ ì ì‹¬ì„ ìœ„í•´ ë²„ê±°í‚¹ì˜ ë§¤ì¥ì— ê°”ëŠ”ë°, ê°™ì´ ì£¼ëŠ” ì˜¤í”„â€¦","timeToRead":5,"featured":null,"thumbnailText":null,"date":"2022-07-11","category":{"id":"fdc6088f-100f-5e34-b5c5-72c641ed1c6a","name":"Etc","slug":"/category/etc/","color":"#bee3f8","icon":null},"author":{"id":"a52ce1a7-def3-5dd8-af26-056e71a54d6e","name":"ê¹€ì§„í™˜","slug":"/author/jinhwan/","title":"Data Scientist","description":"ë°ì´í„° ê¹ëŠ” ì• ì˜¹ì´","skills":["R","Visualization","Product Management","Data Analysis","ì¸„ë¥´"],"social":[{"name":"Website","url":"https://medium.com/@jhk0530"}],"thumbnail":null},"thumbnail":null}],"pageInfo":{"pageCount":18,"hasPreviousPage":true,"hasNextPage":true,"currentPage":4},"totalCount":105}},"pageContext":{"slug":"/tag/","limit":6,"skip":18,"collectionType":"{tags: {slug: SELECT}","paginatePostsPage":true,"basePath":"/","services":{"algolia":false,"mailchimp":false,"disqus":true,"graphComment":false,"facebookComment":false},"siteUrl":"https://playinpap.github.io","mobileMenu":{"title":"Topics","items":[{"name":"Data pipeline","slug":"/category/data-pipeline/"},{"name":"AI","slug":"/category/ai/"},{"name":"Time Series","slug":"/category/time-series/"},{"name":"Notice","slug":"/category/notice/"},{"name":"Visualization","slug":"/category/visualization/"},{"name":"SQL","slug":"/category/sql/"},{"name":"RecSys","slug":"/category/recsys/"},{"name":"Product Analytics","slug":"/category/product-analytics/"},{"name":"Metric","slug":"/category/metric/"},{"name":"Machine Learning","slug":"/category/machine-learning/"},{"name":"Experiment","slug":"/category/experiment/"},{"name":"Etc","slug":"/category/etc/"},{"name":"Data Engineering","slug":"/category/data-engineering/"},{"name":"Data-Driven","slug":"/category/data-driven/"},{"name":"Causal Inference","slug":"/category/causal-inference/"},{"name":"Career","slug":"/category/career/"},{"name":"Career","slug":"/category/career/"},{"name":"Causal Inference","slug":"/category/causal-inference/"},{"name":"Data-Driven","slug":"/category/data-driven/"},{"name":"Data Engineering","slug":"/category/data-engineering/"},{"name":"Etc","slug":"/category/etc/"},{"name":"Machine Learning","slug":"/category/machine-learning/"},{"name":"Experiment","slug":"/category/experiment/"},{"name":"Metric","slug":"/category/metric/"},{"name":"Notice","slug":"/category/notice/"},{"name":"SQL","slug":"/category/sql/"},{"name":"Product Analytics","slug":"/category/product-analytics/"},{"name":"RecSys","slug":"/category/recsys/"},{"name":"Visualization","slug":"/category/visualization/"}]},"darkMode":true,"includeExcerpt":true,"includeTimeToRead":true,"includeTableOfContents":true,"imageQuality":75}},"staticQueryHashes":["1992822086","2313160350"],"slicesMap":{}}