{"componentChunkName":"component---packages-blog-gatsby-blog-core-src-templates-collection-tag-js","path":"/tag/page/8/","result":{"data":{"collectionInfo":{"id":"b2cefa94-20b0-54ae-acfd-96fb23be7755","name":"#커뮤니티공지","slug":"/tag/"},"posts":{"nodes":[{"id":"ec55e0d7-6437-549c-b343-3e3128bb359a","title":"Python으로 그려보는 Cohort Chart","slug":"/plot-cohort-chart-using-python/","link":null,"excerpt":"이 글은  작성자 블로그 에서도 보실 수 있습니다. 서비스가 성장하기 위해서는 새로운 유저를 유입시키는 것…","timeToRead":4,"featured":null,"thumbnailText":null,"date":"2022-05-09","category":{"id":"2a2a70d3-754e-54c4-a95d-f47857aefd20","name":"Visualization","slug":"/category/visualization/","color":"#fefcbf","icon":null},"author":{"id":"d6afe6ac-e198-5e55-b7aa-375818152f43","name":"오연주","slug":"/author/yeonju/","title":"Data Analyst","description":"세상에 관심이 많은 데이터 분석가입니다.","skills":["Data Analysis","ML/DL","Python"],"social":[{"name":"Website","url":"https://yeonjuohh.github.io/"}],"thumbnail":null},"thumbnail":{"__typename":"ImageSharp","ImageSharp_vertical":{"layout":"constrained","backgroundColor":"#d85858","images":{"fallback":{"src":"/static/0aebbfc3b3c5d42ff832f21a176991cb/19188/season2_thumbnail.png","srcSet":"/static/0aebbfc3b3c5d42ff832f21a176991cb/db297/season2_thumbnail.png 190w,\n/static/0aebbfc3b3c5d42ff832f21a176991cb/19188/season2_thumbnail.png 380w","sizes":"(min-width: 380px) 380px, 100vw"},"sources":[{"srcSet":"/static/0aebbfc3b3c5d42ff832f21a176991cb/228d6/season2_thumbnail.webp 190w,\n/static/0aebbfc3b3c5d42ff832f21a176991cb/6b99c/season2_thumbnail.webp 380w","type":"image/webp","sizes":"(min-width: 380px) 380px, 100vw"}]},"width":380,"height":290},"ImageSharp_hero":{"layout":"constrained","backgroundColor":"#d85858","images":{"fallback":{"src":"/static/0aebbfc3b3c5d42ff832f21a176991cb/5fb32/season2_thumbnail.png","srcSet":"/static/0aebbfc3b3c5d42ff832f21a176991cb/739fd/season2_thumbnail.png 600w,\n/static/0aebbfc3b3c5d42ff832f21a176991cb/5fb32/season2_thumbnail.png 1200w","sizes":"(min-width: 1200px) 1200px, 100vw"},"sources":[{"srcSet":"/static/0aebbfc3b3c5d42ff832f21a176991cb/288e3/season2_thumbnail.webp 600w,\n/static/0aebbfc3b3c5d42ff832f21a176991cb/5b893/season2_thumbnail.webp 1200w","type":"image/webp","sizes":"(min-width: 1200px) 1200px, 100vw"}]},"width":1600,"height":650.6666666666666}}},{"id":"71491219-5544-54b2-bc2c-428ad34d5dd4","title":"데이터 분석가가 리소스 부족에 대처하는 4가지 방법","slug":"/jins-1/","link":null,"excerpt":"모든 분석가가 겪는 단 하나의 문제 데이터 분석가로 커리어를 시작하면서 다양한 규모의 회사에서 일할 기회가…","timeToRead":5,"featured":null,"thumbnailText":null,"date":"2022-05-09","category":{"id":"72591dba-cc76-502b-b1a6-e70b32d12956","name":"Data-Driven","slug":"/category/data-driven/","color":"#fefcbf","icon":null},"author":{"id":"26ca5d8d-f08c-51c0-971f-3023797366da","name":"서진하","slug":"/author/jins/","title":"Data Analyst","description":"머리는 차갑게 가슴은 뜨겁게. 고객의 문제에 누구보다 깊이 공감하는 데이터 분석가가 되고 싶습니다.","skills":["Data Analysis","Visualization","Communication","SQL","Python","Business Strategy","Growth Hacking"],"social":[{"name":"Website","url":"https://brunch.co.kr/@solus-ego"}],"thumbnail":null},"thumbnail":{"__typename":"ImageSharp","ImageSharp_vertical":{"layout":"constrained","backgroundColor":"#d85858","images":{"fallback":{"src":"/static/0aebbfc3b3c5d42ff832f21a176991cb/19188/season2_thumbnail.png","srcSet":"/static/0aebbfc3b3c5d42ff832f21a176991cb/db297/season2_thumbnail.png 190w,\n/static/0aebbfc3b3c5d42ff832f21a176991cb/19188/season2_thumbnail.png 380w","sizes":"(min-width: 380px) 380px, 100vw"},"sources":[{"srcSet":"/static/0aebbfc3b3c5d42ff832f21a176991cb/228d6/season2_thumbnail.webp 190w,\n/static/0aebbfc3b3c5d42ff832f21a176991cb/6b99c/season2_thumbnail.webp 380w","type":"image/webp","sizes":"(min-width: 380px) 380px, 100vw"}]},"width":380,"height":290},"ImageSharp_hero":{"layout":"constrained","backgroundColor":"#d85858","images":{"fallback":{"src":"/static/0aebbfc3b3c5d42ff832f21a176991cb/5fb32/season2_thumbnail.png","srcSet":"/static/0aebbfc3b3c5d42ff832f21a176991cb/739fd/season2_thumbnail.png 600w,\n/static/0aebbfc3b3c5d42ff832f21a176991cb/5fb32/season2_thumbnail.png 1200w","sizes":"(min-width: 1200px) 1200px, 100vw"},"sources":[{"srcSet":"/static/0aebbfc3b3c5d42ff832f21a176991cb/288e3/season2_thumbnail.webp 600w,\n/static/0aebbfc3b3c5d42ff832f21a176991cb/5b893/season2_thumbnail.webp 1200w","type":"image/webp","sizes":"(min-width: 1200px) 1200px, 100vw"}]},"width":1600,"height":650.6666666666666}}},{"id":"9c076b9a-ef1c-5d9d-a0df-a93b4ab7d8c1","title":"Product Analytics 201","slug":"/product-analytics-201/","link":null,"excerpt":"부제: Data in action: A model of a Dinner Party (1) 제가  이전에 작…","timeToRead":5,"featured":null,"thumbnailText":null,"date":"2022-05-09","category":{"id":"91a926e7-e227-537c-9237-db3e7379964e","name":"Causal Inference","slug":"/category/causal-inference/","color":"#c6f6d5","icon":null},"author":{"id":"a52ce1a7-def3-5dd8-af26-056e71a54d6e","name":"김진환","slug":"/author/jinhwan/","title":"Data Scientist","description":"데이터 깎는 애옹이","skills":["R","Visualization","Product Management","Data Analysis","츄르"],"social":[{"name":"Website","url":"https://medium.com/@jhk0530"}],"thumbnail":null},"thumbnail":null},{"id":"09855b25-7d03-550f-9e25-917096b698da","title":"데이터 프로덕트는 하루아침에 만들어지지 않았다","slug":"/data-product-workflow/","link":null,"excerpt":"이 글은  작성자 블로그 에서도 보실 수 있습니다. Intro 사내에 데이터 프로덕트라는 팀이 생겼습니다.…","timeToRead":7,"featured":null,"thumbnailText":null,"date":"2022-05-01","category":{"id":"fdc6088f-100f-5e34-b5c5-72c641ed1c6a","name":"Etc","slug":"/category/etc/","color":"#bee3f8","icon":null},"author":{"id":"ef0b2d29-821c-5ebf-9a35-79f0cb7bd774","name":"이용혁","slug":"/author/yong/","title":"Data Scientist","description":"기술에서 출발하는 것이 아닌 서비스에서 출발하는 ML을 만들어나가고 있습니다. 모두가 자신만의 ML 서비스를 만드는 그날까지.","skills":["ML/DL","Statistics","Python","Pyspark","Communication"],"social":[{"name":"Website","url":"https://medium.com/@joshuaisland"}],"thumbnail":null},"thumbnail":{"__typename":"ImageSharp","ImageSharp_vertical":{"layout":"constrained","backgroundColor":"#d85858","images":{"fallback":{"src":"/static/0aebbfc3b3c5d42ff832f21a176991cb/19188/season2_thumbnail.png","srcSet":"/static/0aebbfc3b3c5d42ff832f21a176991cb/db297/season2_thumbnail.png 190w,\n/static/0aebbfc3b3c5d42ff832f21a176991cb/19188/season2_thumbnail.png 380w","sizes":"(min-width: 380px) 380px, 100vw"},"sources":[{"srcSet":"/static/0aebbfc3b3c5d42ff832f21a176991cb/228d6/season2_thumbnail.webp 190w,\n/static/0aebbfc3b3c5d42ff832f21a176991cb/6b99c/season2_thumbnail.webp 380w","type":"image/webp","sizes":"(min-width: 380px) 380px, 100vw"}]},"width":380,"height":290},"ImageSharp_hero":{"layout":"constrained","backgroundColor":"#d85858","images":{"fallback":{"src":"/static/0aebbfc3b3c5d42ff832f21a176991cb/5fb32/season2_thumbnail.png","srcSet":"/static/0aebbfc3b3c5d42ff832f21a176991cb/739fd/season2_thumbnail.png 600w,\n/static/0aebbfc3b3c5d42ff832f21a176991cb/5fb32/season2_thumbnail.png 1200w","sizes":"(min-width: 1200px) 1200px, 100vw"},"sources":[{"srcSet":"/static/0aebbfc3b3c5d42ff832f21a176991cb/288e3/season2_thumbnail.webp 600w,\n/static/0aebbfc3b3c5d42ff832f21a176991cb/5b893/season2_thumbnail.webp 1200w","type":"image/webp","sizes":"(min-width: 1200px) 1200px, 100vw"}]},"width":1600,"height":650.6666666666666}}},{"id":"e64ec7c5-5767-55c0-a63d-2c3819a4c2b2","title":"우리의 요리가 고객을 살찌우려면","slug":"/how-to-make-client-fat/","link":null,"excerpt":"부제: 분석가의 노력이 행동이 되려면 (Photo by Jay Wenningto on Unsplash) 자…","timeToRead":3,"featured":null,"thumbnailText":null,"date":"2022-05-01","category":{"id":"72591dba-cc76-502b-b1a6-e70b32d12956","name":"Data-Driven","slug":"/category/data-driven/","color":"#fefcbf","icon":null},"author":{"id":"45ec90b7-2dec-5397-a733-6dc74e89f08a","name":"허석영","slug":"/author/boo/","title":"Data Analyst","description":"양질의 정보를 적합한 사람에게 전달할 때 소소한 기쁨을 느낍니다. ","skills":["Data Analysis","Statistics","ML/DL"],"social":[{"name":"Website","url":"https://brunch.co.kr/@quartz#articles"}],"thumbnail":null},"thumbnail":{"__typename":"ImageSharp","ImageSharp_vertical":{"layout":"constrained","backgroundColor":"#080808","images":{"fallback":{"src":"/static/112020defb9f700c3bdf9478bac51486/144fe/00_thunbnail.jpg","srcSet":"/static/112020defb9f700c3bdf9478bac51486/9d7b9/00_thunbnail.jpg 190w,\n/static/112020defb9f700c3bdf9478bac51486/144fe/00_thunbnail.jpg 380w","sizes":"(min-width: 380px) 380px, 100vw"},"sources":[{"srcSet":"/static/112020defb9f700c3bdf9478bac51486/228d6/00_thunbnail.webp 190w,\n/static/112020defb9f700c3bdf9478bac51486/6b99c/00_thunbnail.webp 380w","type":"image/webp","sizes":"(min-width: 380px) 380px, 100vw"}]},"width":380,"height":290},"ImageSharp_hero":{"layout":"constrained","backgroundColor":"#080808","images":{"fallback":{"src":"/static/112020defb9f700c3bdf9478bac51486/5e493/00_thunbnail.jpg","srcSet":"/static/112020defb9f700c3bdf9478bac51486/696c0/00_thunbnail.jpg 800w,\n/static/112020defb9f700c3bdf9478bac51486/5e493/00_thunbnail.jpg 1600w","sizes":"(min-width: 1600px) 1600px, 100vw"},"sources":[{"srcSet":"/static/112020defb9f700c3bdf9478bac51486/c9f06/00_thunbnail.webp 800w,\n/static/112020defb9f700c3bdf9478bac51486/f47df/00_thunbnail.webp 1600w","type":"image/webp","sizes":"(min-width: 1600px) 1600px, 100vw"}]},"width":1600,"height":650}}},{"id":"20b87ae7-ae99-5251-887a-2d0fa08843e1","title":"린하게 분석한 '가슴속 3천원'의 문제 발견과 검증","slug":"/solve-problems-data-lean/","link":null,"excerpt":"소제목 : 린 분석/PMF & GTM을 가슴속 삼천원에 적용하기 위한 빌드업 데스크탑 환경에서 가장 편안하…","timeToRead":4,"featured":null,"thumbnailText":null,"date":"2022-05-01","category":{"id":"72591dba-cc76-502b-b1a6-e70b32d12956","name":"Data-Driven","slug":"/category/data-driven/","color":"#fefcbf","icon":null},"author":{"id":"f32690e1-9afe-504d-b1b6-fd20ab5308cb","name":"이한나","slug":"/author/hannah/","title":"Project Manager","description":"Unmet-Needs를 충족하는 기획자 & Wants를 해결하는 PMO입니다. 길거리 음식 지도 커뮤니티 ‘가슴속 3천원’을 만들고 있습니다.","skills":["Product Management","Communication","Product Strategy","Growth Hacking"],"social":[{"name":"Website","url":"https://litt.ly/yeehannah"}],"thumbnail":null},"thumbnail":null}],"pageInfo":{"pageCount":17,"hasPreviousPage":true,"hasNextPage":true,"currentPage":8},"totalCount":101}},"pageContext":{"slug":"/tag/","limit":6,"skip":42,"collectionType":"tags","paginatePostsPage":true,"basePath":"/","services":{"algolia":false,"mailchimp":false,"disqus":true,"graphComment":false,"facebookComment":false},"siteUrl":"https://playinpap.github.io","mobileMenu":{"title":"Topics","items":[{"name":"Notice","slug":"/category/notice/"},{"name":"Visualization","slug":"/category/visualization/"},{"name":"SQL","slug":"/category/sql/"},{"name":"RecSys","slug":"/category/recsys/"},{"name":"Product Analytics","slug":"/category/product-analytics/"},{"name":"Metric","slug":"/category/metric/"},{"name":"Machine Learning","slug":"/category/machine-learning/"},{"name":"Experiment","slug":"/category/experiment/"},{"name":"Etc","slug":"/category/etc/"},{"name":"Data Engineering","slug":"/category/data-engineering/"},{"name":"Data-Driven","slug":"/category/data-driven/"},{"name":"Causal Inference","slug":"/category/causal-inference/"},{"name":"Career","slug":"/category/career/"},{"name":"Career","slug":"/category/career/"},{"name":"Causal Inference","slug":"/category/causal-inference/"},{"name":"Data-Driven","slug":"/category/data-driven/"},{"name":"Data Engineering","slug":"/category/data-engineering/"},{"name":"Etc","slug":"/category/etc/"},{"name":"Experiment","slug":"/category/experiment/"},{"name":"Machine Learning","slug":"/category/machine-learning/"},{"name":"Metric","slug":"/category/metric/"},{"name":"Notice","slug":"/category/notice/"},{"name":"Product Analytics","slug":"/category/product-analytics/"},{"name":"RecSys","slug":"/category/recsys/"},{"name":"SQL","slug":"/category/sql/"},{"name":"Visualization","slug":"/category/visualization/"}]},"darkMode":true,"includeExcerpt":true,"includeTimeToRead":true,"includeTableOfContents":true,"imageQuality":75}},"staticQueryHashes":["1992822086","2313160350"]}