{"componentChunkName":"component---packages-blog-gatsby-blog-core-src-templates-collection-tag-js","path":"/tag/page/3/","result":{"data":{"collectionInfo":{"id":"a4c4f489-24a0-548c-bd14-aab51e1a2beb","name":"지표","slug":"/tag/"},"posts":{"nodes":[{"id":"d2e5aaf9-54dd-5beb-af98-83ba589566b1","title":"데이터를 조지는 101가지 삽질 전 물어볼 질문들","slug":"/shapjil-101/","link":null,"excerpt":"데이터를 조지는 101가지 삽질 전 물어볼 질문들 모든 것이 빠르게 변하는 이 시대에 \"데이터 드리븐 결정…","timeToRead":5,"featured":null,"thumbnailText":null,"date":"2022-08-08","category":{"id":"fdc6088f-100f-5e34-b5c5-72c641ed1c6a","name":"Etc","slug":"/category/etc/","color":"#bee3f8","icon":null},"author":{"id":"30544e57-6926-5dfe-8ac4-b2c00d9f85e6","name":"최창식","slug":"/author/herick/","title":"Data Analyst","description":"서비스에 관심많은 데이터 분석가 입니다.","skills":["Data Analysis"],"social":[{"name":"Website","url":"https://brunch.co.kr/@changsikcho33ug"}],"thumbnail":null},"thumbnail":{"__typename":"ImageSharp","ImageSharp_vertical":{"layout":"constrained","backgroundColor":"#d85858","images":{"fallback":{"src":"/static/0aebbfc3b3c5d42ff832f21a176991cb/19188/season2_thumbnail.png","srcSet":"/static/0aebbfc3b3c5d42ff832f21a176991cb/db297/season2_thumbnail.png 190w,\n/static/0aebbfc3b3c5d42ff832f21a176991cb/19188/season2_thumbnail.png 380w","sizes":"(min-width: 380px) 380px, 100vw"},"sources":[{"srcSet":"/static/0aebbfc3b3c5d42ff832f21a176991cb/228d6/season2_thumbnail.webp 190w,\n/static/0aebbfc3b3c5d42ff832f21a176991cb/6b99c/season2_thumbnail.webp 380w","type":"image/webp","sizes":"(min-width: 380px) 380px, 100vw"}]},"width":380,"height":290},"ImageSharp_hero":{"layout":"constrained","backgroundColor":"#d85858","images":{"fallback":{"src":"/static/0aebbfc3b3c5d42ff832f21a176991cb/5fb32/season2_thumbnail.png","srcSet":"/static/0aebbfc3b3c5d42ff832f21a176991cb/739fd/season2_thumbnail.png 600w,\n/static/0aebbfc3b3c5d42ff832f21a176991cb/5fb32/season2_thumbnail.png 1200w","sizes":"(min-width: 1200px) 1200px, 100vw"},"sources":[{"srcSet":"/static/0aebbfc3b3c5d42ff832f21a176991cb/288e3/season2_thumbnail.webp 600w,\n/static/0aebbfc3b3c5d42ff832f21a176991cb/5b893/season2_thumbnail.webp 1200w","type":"image/webp","sizes":"(min-width: 1200px) 1200px, 100vw"}]},"width":1600,"height":650.6666666666666}}},{"id":"3eca469b-b42d-5161-bccc-f0e5e9f04d3c","title":"고객의 행동을 변화시키는 Actionable Insight","slug":"/for-model/","link":null,"excerpt":"부제: 데이터분석과 심리학 사이 그 어딘가 이번 글에서는 ( 이어지는 글 ) 아래 product analy…","timeToRead":3,"featured":null,"thumbnailText":null,"date":"2022-08-08","category":{"id":"72591dba-cc76-502b-b1a6-e70b32d12956","name":"Data-Driven","slug":"/category/data-driven/","color":"#fefcbf","icon":null},"author":{"id":"a52ce1a7-def3-5dd8-af26-056e71a54d6e","name":"김진환","slug":"/author/jinhwan/","title":"Data Scientist","description":"데이터 깎는 애옹이","skills":["R","Visualization","Product Management","Data Analysis","츄르"],"social":[{"name":"Website","url":"https://medium.com/@jhk0530"}],"thumbnail":null},"thumbnail":null},{"id":"a98ee8e0-b204-5eee-b121-b950cc33ef67","title":"데이터 프로덕트는 결국 프로덕트다 (번역)","slug":"/data-product-management/","link":null,"excerpt":"이 글은  작성자 블로그 에서도 보실 수 있습니다. 이 글은 아래 미디엄 블로그의 글을 번역하였습니다. (…","timeToRead":6,"featured":null,"thumbnailText":null,"date":"2022-07-31","category":{"id":"fdc6088f-100f-5e34-b5c5-72c641ed1c6a","name":"Etc","slug":"/category/etc/","color":"#bee3f8","icon":null},"author":{"id":"ef0b2d29-821c-5ebf-9a35-79f0cb7bd774","name":"이용혁","slug":"/author/yong/","title":"Data Scientist","description":"기술에서 출발하는 것이 아닌 서비스에서 출발하는 ML을 만들어나가고 있습니다. 모두가 자신만의 ML 서비스를 만드는 그날까지.","skills":["ML/DL","Statistics","Python","Pyspark","Communication"],"social":[{"name":"Website","url":"https://medium.com/@joshuaisland"}],"thumbnail":null},"thumbnail":{"__typename":"ImageSharp","ImageSharp_vertical":{"layout":"constrained","backgroundColor":"#d85858","images":{"fallback":{"src":"/static/0aebbfc3b3c5d42ff832f21a176991cb/19188/season2_thumbnail.png","srcSet":"/static/0aebbfc3b3c5d42ff832f21a176991cb/db297/season2_thumbnail.png 190w,\n/static/0aebbfc3b3c5d42ff832f21a176991cb/19188/season2_thumbnail.png 380w","sizes":"(min-width: 380px) 380px, 100vw"},"sources":[{"srcSet":"/static/0aebbfc3b3c5d42ff832f21a176991cb/228d6/season2_thumbnail.webp 190w,\n/static/0aebbfc3b3c5d42ff832f21a176991cb/6b99c/season2_thumbnail.webp 380w","type":"image/webp","sizes":"(min-width: 380px) 380px, 100vw"}]},"width":380,"height":290},"ImageSharp_hero":{"layout":"constrained","backgroundColor":"#d85858","images":{"fallback":{"src":"/static/0aebbfc3b3c5d42ff832f21a176991cb/5fb32/season2_thumbnail.png","srcSet":"/static/0aebbfc3b3c5d42ff832f21a176991cb/739fd/season2_thumbnail.png 600w,\n/static/0aebbfc3b3c5d42ff832f21a176991cb/5fb32/season2_thumbnail.png 1200w","sizes":"(min-width: 1200px) 1200px, 100vw"},"sources":[{"srcSet":"/static/0aebbfc3b3c5d42ff832f21a176991cb/288e3/season2_thumbnail.webp 600w,\n/static/0aebbfc3b3c5d42ff832f21a176991cb/5b893/season2_thumbnail.webp 1200w","type":"image/webp","sizes":"(min-width: 1200px) 1200px, 100vw"}]},"width":1600,"height":650.6666666666666}}},{"id":"09044c93-3a4e-5d05-af51-291b38440e90","title":"Retention Plateau의 중심에서 PMF를 외치다","slug":"/retention-plateau/","link":null,"excerpt":"현재 여러분께서는  프로덕트 데이터 분석 커뮤니티 PAP 블로그 에서 이 글을 보고 계시는데 디자인이 fi…","timeToRead":4,"featured":null,"thumbnailText":null,"date":"2022-07-31","category":{"id":"72591dba-cc76-502b-b1a6-e70b32d12956","name":"Data-Driven","slug":"/category/data-driven/","color":"#fefcbf","icon":null},"author":{"id":"f32690e1-9afe-504d-b1b6-fd20ab5308cb","name":"이한나","slug":"/author/hannah/","title":"Project Manager","description":"Unmet-Needs를 충족하는 기획자 & Wants를 해결하는 PMO입니다. 길거리 음식 지도 커뮤니티 ‘가슴속 3천원’을 만들고 있습니다.","skills":["Product Management","Communication","Product Strategy","Growth Hacking"],"social":[{"name":"Website","url":"https://litt.ly/yeehannah"}],"thumbnail":null},"thumbnail":null},{"id":"643ed447-9554-5722-acfe-56581d766be7","title":"데이터 분석가로 직무 전환하려는 사람들이 자주 묻는 질문 8가지","slug":"/data-analyst-career-pivot-faq/","link":null,"excerpt":"*이 글은  데이터리안 웹사이트 에서도 보실 수 있습니다. 안녕하세요, 데이터 분석가 김민주입니다. 저는 …","timeToRead":4,"featured":null,"thumbnailText":null,"date":"2022-07-26","category":{"id":"fdc6088f-100f-5e34-b5c5-72c641ed1c6a","name":"Etc","slug":"/category/etc/","color":"#bee3f8","icon":null},"author":{"id":"b722c0f5-7a12-5c55-a8b6-ab988ad675de","name":"김민주","slug":"/author/minju/","title":"Data Analyst","description":"모든 의사결정의 순간에 데이터가 함께하도록 교육과 컨설팅 서비스를 제공하는 데이터리안에서 일하고 있습니다.","skills":["Data Analysis","Business Strategy","Growth Hacking"],"social":[{"name":"Linkedin","url":"https://www.linkedin.com/in/minjukim-analyst/"}],"thumbnail":null},"thumbnail":{"__typename":"ImageSharp","ImageSharp_vertical":{"layout":"constrained","backgroundColor":"#e8e8e8","images":{"fallback":{"src":"/static/837e0211e83c8c77b673277333dbd826/144fe/data-analyst-career-pivot-faq.jpg","srcSet":"/static/837e0211e83c8c77b673277333dbd826/9d7b9/data-analyst-career-pivot-faq.jpg 190w,\n/static/837e0211e83c8c77b673277333dbd826/144fe/data-analyst-career-pivot-faq.jpg 380w","sizes":"(min-width: 380px) 380px, 100vw"},"sources":[{"srcSet":"/static/837e0211e83c8c77b673277333dbd826/228d6/data-analyst-career-pivot-faq.webp 190w,\n/static/837e0211e83c8c77b673277333dbd826/6b99c/data-analyst-career-pivot-faq.webp 380w","type":"image/webp","sizes":"(min-width: 380px) 380px, 100vw"}]},"width":380,"height":290},"ImageSharp_hero":{"layout":"constrained","backgroundColor":"#e8e8e8","images":{"fallback":{"src":"/static/837e0211e83c8c77b673277333dbd826/5e493/data-analyst-career-pivot-faq.jpg","srcSet":"/static/837e0211e83c8c77b673277333dbd826/696c0/data-analyst-career-pivot-faq.jpg 800w,\n/static/837e0211e83c8c77b673277333dbd826/5e493/data-analyst-career-pivot-faq.jpg 1600w","sizes":"(min-width: 1600px) 1600px, 100vw"},"sources":[{"srcSet":"/static/837e0211e83c8c77b673277333dbd826/c9f06/data-analyst-career-pivot-faq.webp 800w,\n/static/837e0211e83c8c77b673277333dbd826/f47df/data-analyst-career-pivot-faq.webp 1600w","type":"image/webp","sizes":"(min-width: 1600px) 1600px, 100vw"}]},"width":1600,"height":650}}},{"id":"fe0fd0a9-8f61-5c77-993e-d170ce56b441","title":"다짜고짜 배워보는 시계열 분석 | 패턴 쪼개기 (Seasonal Decomposition) - 1편","slug":"/easypeasy-time-series-01/","link":null,"excerpt":"지난 2월 데이터 분석 컨퍼런스 팝콘에서 쉽게 설명하는 분석 개념을 테마로 <다짜고짜 배워보는 인과추론>이…","timeToRead":4,"featured":null,"thumbnailText":null,"date":"2022-07-17","category":{"id":"fdc6088f-100f-5e34-b5c5-72c641ed1c6a","name":"Etc","slug":"/category/etc/","color":"#bee3f8","icon":null},"author":{"id":"11b163c4-212b-50ce-a753-4730fa1fce33","name":"이윤희","slug":"/author/noel/","title":"Strategy Manager","description":"논리와 데이터 기반의 탁월한 제너럴리스트를 지향합니다.","skills":["Data Analysis","Communication","SQL","Business Strategy"],"social":[{"name":"Website","url":"https://medium.com/@connect2yh"}],"thumbnail":null},"thumbnail":{"__typename":"ImageSharp","ImageSharp_vertical":{"layout":"constrained","backgroundColor":"#080808","images":{"fallback":{"src":"/static/79b18a595843143241b43423bca6b33d/19188/seasonal-decompose.png","srcSet":"/static/79b18a595843143241b43423bca6b33d/db297/seasonal-decompose.png 190w,\n/static/79b18a595843143241b43423bca6b33d/19188/seasonal-decompose.png 380w","sizes":"(min-width: 380px) 380px, 100vw"},"sources":[{"srcSet":"/static/79b18a595843143241b43423bca6b33d/228d6/seasonal-decompose.webp 190w,\n/static/79b18a595843143241b43423bca6b33d/6b99c/seasonal-decompose.webp 380w","type":"image/webp","sizes":"(min-width: 380px) 380px, 100vw"}]},"width":380,"height":290},"ImageSharp_hero":{"layout":"constrained","backgroundColor":"#080808","images":{"fallback":{"src":"/static/79b18a595843143241b43423bca6b33d/296af/seasonal-decompose.png","srcSet":"/static/79b18a595843143241b43423bca6b33d/4a524/seasonal-decompose.png 212w,\n/static/79b18a595843143241b43423bca6b33d/296af/seasonal-decompose.png 424w","sizes":"(min-width: 424px) 424px, 100vw"},"sources":[{"srcSet":"/static/79b18a595843143241b43423bca6b33d/b84e3/seasonal-decompose.webp 212w,\n/static/79b18a595843143241b43423bca6b33d/47a13/seasonal-decompose.webp 424w","type":"image/webp","sizes":"(min-width: 424px) 424px, 100vw"}]},"width":1600,"height":649.0566037735849}}}],"pageInfo":{"pageCount":18,"hasPreviousPage":true,"hasNextPage":true,"currentPage":3},"totalCount":105}},"pageContext":{"slug":"/tag/","limit":6,"skip":12,"collectionType":"{tags: {slug: SELECT}","paginatePostsPage":true,"basePath":"/","services":{"algolia":false,"mailchimp":false,"disqus":true,"graphComment":false,"facebookComment":false},"siteUrl":"https://playinpap.github.io","mobileMenu":{"title":"Topics","items":[{"name":"Data pipeline","slug":"/category/data-pipeline/"},{"name":"AI","slug":"/category/ai/"},{"name":"Time Series","slug":"/category/time-series/"},{"name":"Notice","slug":"/category/notice/"},{"name":"Visualization","slug":"/category/visualization/"},{"name":"SQL","slug":"/category/sql/"},{"name":"RecSys","slug":"/category/recsys/"},{"name":"Product Analytics","slug":"/category/product-analytics/"},{"name":"Metric","slug":"/category/metric/"},{"name":"Machine Learning","slug":"/category/machine-learning/"},{"name":"Experiment","slug":"/category/experiment/"},{"name":"Etc","slug":"/category/etc/"},{"name":"Data Engineering","slug":"/category/data-engineering/"},{"name":"Data-Driven","slug":"/category/data-driven/"},{"name":"Causal Inference","slug":"/category/causal-inference/"},{"name":"Career","slug":"/category/career/"},{"name":"Career","slug":"/category/career/"},{"name":"Causal Inference","slug":"/category/causal-inference/"},{"name":"Data-Driven","slug":"/category/data-driven/"},{"name":"Data Engineering","slug":"/category/data-engineering/"},{"name":"Etc","slug":"/category/etc/"},{"name":"Machine Learning","slug":"/category/machine-learning/"},{"name":"Experiment","slug":"/category/experiment/"},{"name":"Metric","slug":"/category/metric/"},{"name":"Notice","slug":"/category/notice/"},{"name":"SQL","slug":"/category/sql/"},{"name":"Product Analytics","slug":"/category/product-analytics/"},{"name":"RecSys","slug":"/category/recsys/"},{"name":"Visualization","slug":"/category/visualization/"}]},"darkMode":true,"includeExcerpt":true,"includeTimeToRead":true,"includeTableOfContents":true,"imageQuality":75}},"staticQueryHashes":["1992822086","2313160350"],"slicesMap":{}}