{
    "componentChunkName": "component---packages-blog-gatsby-blog-core-src-templates-collection-tag-js",
    "path": "/tag/page/5/",
    "result": {"data":{"collectionInfo":{"id":"b2cefa94-20b0-54ae-acfd-96fb23be7755","name":"#커뮤니티공지","slug":"/tag/"},"posts":{"nodes":[{"id":"89f1939d-74e1-5906-b0bf-033ffa237a57","title":"가볍게 읽는 Product Analysis","slug":"/basic-product-analysis/","link":null,"excerpt":"Don't Boil the Ocean How to Measure Your Product 요약 정리 글 원글 작성 미디엄 링크 원 비디오 링크 이전 글 에서 Product…","timeToRead":6,"featured":null,"thumbnailText":null,"date":"2021-11-18","category":{"id":"3e3c0a2b-7753-56ee-a672-684f1777713f","name":"Metric","slug":"/category/metric/","color":"#e9d8fd","icon":"/static/93c9c75517e1a6e95deaecabf3d1d050/metric.svg"},"author":{"id":"6ce3fd5d-a4f3-59e9-add5-5ddb9a3665db","name":"김진환","slug":"/author/jinhwan/","title":"Data Scientist","description":"데이터 깎는 애옹이","skills":["R","Visualization","Product Management","Data Analysis","츄르"],"social":[{"name":"Website","url":"https://medium.com/@jhk0530"}],"thumbnail":{"__typename":"ImageSharp","ImageSharp_small":{"layout":"fixed","placeholder":{"fallback":"data:image/svg+xml,%3csvg%20xmlns='http://www.w3.org/2000/svg'%20width='150'%20height='150'%20viewBox='0%200%20150%20150'%20preserveAspectRatio='none'%3e%3cpath%20d='M48%202c-5%203-12%2014-15%2024-1%205%200%2011%204%2015l2%205%202%208%202%207c1%206%207%2010%2015%2010%205%200%2011%206%209%208l-1%204c0%202%202%201%203-1l3-3c2%200%201-2-3-5l-7-7c-2-3-3-4-5-4-5%200-9-8-6-13%202-3%206-4%209-3%203%203%205%200%205-5-1-4%200-10%203-13l5-7c4-7%207-8%2022-9%2016-1%2017-1%2020%205%205%2011%206%2037%203%2048-6%2017-22%2024-33%2015-4-3-6-3-3%200s9%206%2014%206l4%201-10%2019-3%204-6-6a179%20179%200%2001-19-21l-1%202v7l-2%2031v26h56l-1-5a1097%201097%200%2000-6-59l3-4c12-10%2016-44%207-64l-3-10c0-8%200-8-14-8-20%200-30%204-37%2013-4%207-8%2017-9%2025l-1%206c-3%200-6%205-7%209v4l-3-5c-2-5-2-7-2-15%200-9-1-10-3-2l-1%204-1-3c-2-4-2-10%202-18%205-9%209-13%2016-16l5-2h-4l-8%202m10%2085l-6%201c-19%203-36%2023-45%2054-2%208-2%208%200%208%201%200%202-1%203-6%208-28%2024-49%2042-54l3-1-3%202c-6%208-7%2013-4%2025l2%207-2%204-4%207c-2%204-1%2016%201%2016l1-6c0-5%201-8%204-14l3-7-2-9c-4-10-3-15%204-23l4-5-1%201m51%202l3%206c4%206%204%2010%203%2016-1%205-1%206%201%2011%203%207%206%2019%206%2024%200%203%200%204%202%204%204%200%202-17-3-29-2-4-3-6-2-11%200-6%200-8-4-15-1-3%207%203%2011%207%207%208%2011%2020%2015%2041%201%206%202%207%203%207%203%200%203-1-1-16-6-25-13-36-25-40-2-1-5-2-6-4l-3-1'%20fill='%23d3d3d3'%20fill-rule='evenodd'/%3e%3c/svg%3e"},"images":{"fallback":{"src":"/static/011b3215b6b7e782f02d67aebfa4c319/a7a66/sample-image-m1.png","srcSet":"/static/011b3215b6b7e782f02d67aebfa4c319/a7a66/sample-image-m1.png 48w,\n/static/011b3215b6b7e782f02d67aebfa4c319/416a0/sample-image-m1.png 96w","sizes":"48px"},"sources":[{"srcSet":"/static/011b3215b6b7e782f02d67aebfa4c319/a3542/sample-image-m1.webp 48w,\n/static/011b3215b6b7e782f02d67aebfa4c319/0f66d/sample-image-m1.webp 96w","type":"image/webp","sizes":"48px"}]},"width":48,"height":48},"ImageSharp_regular":{"layout":"fixed","placeholder":{"fallback":"data:image/svg+xml,%3csvg%20xmlns='http://www.w3.org/2000/svg'%20width='150'%20height='150'%20viewBox='0%200%20150%20150'%20preserveAspectRatio='none'%3e%3cpath%20d='M48%202c-5%203-12%2014-15%2024-1%205%200%2011%204%2015l2%205%202%208%202%207c1%206%207%2010%2015%2010%205%200%2011%206%209%208l-1%204c0%202%202%201%203-1l3-3c2%200%201-2-3-5l-7-7c-2-3-3-4-5-4-5%200-9-8-6-13%202-3%206-4%209-3%203%203%205%200%205-5-1-4%200-10%203-13l5-7c4-7%207-8%2022-9%2016-1%2017-1%2020%205%205%2011%206%2037%203%2048-6%2017-22%2024-33%2015-4-3-6-3-3%200s9%206%2014%206l4%201-10%2019-3%204-6-6a179%20179%200%2001-19-21l-1%202v7l-2%2031v26h56l-1-5a1097%201097%200%2000-6-59l3-4c12-10%2016-44%207-64l-3-10c0-8%200-8-14-8-20%200-30%204-37%2013-4%207-8%2017-9%2025l-1%206c-3%200-6%205-7%209v4l-3-5c-2-5-2-7-2-15%200-9-1-10-3-2l-1%204-1-3c-2-4-2-10%202-18%205-9%209-13%2016-16l5-2h-4l-8%202m10%2085l-6%201c-19%203-36%2023-45%2054-2%208-2%208%200%208%201%200%202-1%203-6%208-28%2024-49%2042-54l3-1-3%202c-6%208-7%2013-4%2025l2%207-2%204-4%207c-2%204-1%2016%201%2016l1-6c0-5%201-8%204-14l3-7-2-9c-4-10-3-15%204-23l4-5-1%201m51%202l3%206c4%206%204%2010%203%2016-1%205-1%206%201%2011%203%207%206%2019%206%2024%200%203%200%204%202%204%204%200%202-17-3-29-2-4-3-6-2-11%200-6%200-8-4-15-1-3%207%203%2011%207%207%208%2011%2020%2015%2041%201%206%202%207%203%207%203%200%203-1-1-16-6-25-13-36-25-40-2-1-5-2-6-4l-3-1'%20fill='%23d3d3d3'%20fill-rule='evenodd'/%3e%3c/svg%3e"},"images":{"fallback":{"src":"/static/011b3215b6b7e782f02d67aebfa4c319/46e60/sample-image-m1.png","srcSet":"/static/011b3215b6b7e782f02d67aebfa4c319/46e60/sample-image-m1.png 150w,\n/static/011b3215b6b7e782f02d67aebfa4c319/d612b/sample-image-m1.png 300w","sizes":"150px"},"sources":[{"srcSet":"/static/011b3215b6b7e782f02d67aebfa4c319/ae23d/sample-image-m1.webp 150w,\n/static/011b3215b6b7e782f02d67aebfa4c319/bd37b/sample-image-m1.webp 300w","type":"image/webp","sizes":"150px"}]},"width":150,"height":150}}},"thumbnail":null},{"id":"2fd4dfa7-ba03-5007-914b-ac7c7dc7214b","title":"A/B 테스트의 확장판, MAB (Multi-Armed Bandits) 알고리즘","slug":"/mab/","link":null,"excerpt":"이번 포스팅에서는 A/B 테스트의 확장판이라 볼 수 있는 MAB (Multi-Armed Bandits) 알고리즘에 대해 살펴보고, 이를 R…","timeToRead":7,"featured":null,"thumbnailText":null,"date":"2021-11-03","category":{"id":"5b45dc73-d1ba-5771-b1b1-6be11a2e33fd","name":"Experiment","slug":"/category/experiment/","color":"#e9d8fd","icon":"/static/93c9c75517e1a6e95deaecabf3d1d050/experiment.svg"},"author":{"id":"884613f4-6681-5a64-8a09-03d1c0d7c8dc","name":"이은지","slug":"/author/eunji/","title":"Data Analyst","description":"넥슨 코리아에서 어떻게 하면 유저들이 더 즐길 수 있는 게임을 만들지 분석가의 관점에서 바라보고자 노력하고 있습니다.","skills":["Data Analysis","Visualization","R","Pyspark","SQL"],"social":[{"name":"Website","url":"https://assaeunji.github.io"}],"thumbnail":{"__typename":"ImageSharp","ImageSharp_small":{"layout":"fixed","placeholder":{"fallback":"data:image/svg+xml,%3csvg%20xmlns='http://www.w3.org/2000/svg'%20width='48'%20height='48'%20viewBox='0%200%2048%2048'%20preserveAspectRatio='none'%3e%3cpath%20d='M15%203c-3%203-5%209-4%2013%201%201%200%203-1%205-3%204-2%2010%201%2010l3%201%202%201%202%201h6v-3c1-3-2-10-4-12-3-3-3-6-1-6l3-1c1-4%208-8%2010-7%205%203%205%2014%201%2018-2%201-4%207-2%205l1%201v2h1l2%203c1%202%202%203%204%201s2-4%200-8c-1-3-1-3%201-6%203-4%202-7-2-17l-2-4h-9C17%200%2017%200%2015%203'%20fill='%23d3d3d3'%20fill-rule='evenodd'/%3e%3c/svg%3e"},"images":{"fallback":{"src":"/static/ec552a7c1f96030de0601b3b204b16cf/a7a66/sample-image-w1.png","srcSet":"/static/ec552a7c1f96030de0601b3b204b16cf/a7a66/sample-image-w1.png 48w,\n/static/ec552a7c1f96030de0601b3b204b16cf/416a0/sample-image-w1.png 96w","sizes":"48px"},"sources":[{"srcSet":"/static/ec552a7c1f96030de0601b3b204b16cf/a3542/sample-image-w1.webp 48w,\n/static/ec552a7c1f96030de0601b3b204b16cf/0f66d/sample-image-w1.webp 96w","type":"image/webp","sizes":"48px"}]},"width":48,"height":48},"ImageSharp_regular":{"layout":"fixed","placeholder":{"fallback":"data:image/svg+xml,%3csvg%20xmlns='http://www.w3.org/2000/svg'%20width='48'%20height='48'%20viewBox='0%200%2048%2048'%20preserveAspectRatio='none'%3e%3cpath%20d='M15%203c-3%203-5%209-4%2013%201%201%200%203-1%205-3%204-2%2010%201%2010l3%201%202%201%202%201h6v-3c1-3-2-10-4-12-3-3-3-6-1-6l3-1c1-4%208-8%2010-7%205%203%205%2014%201%2018-2%201-4%207-2%205l1%201v2h1l2%203c1%202%202%203%204%201s2-4%200-8c-1-3-1-3%201-6%203-4%202-7-2-17l-2-4h-9C17%200%2017%200%2015%203'%20fill='%23d3d3d3'%20fill-rule='evenodd'/%3e%3c/svg%3e"},"images":{"fallback":{"src":"/static/ec552a7c1f96030de0601b3b204b16cf/46e60/sample-image-w1.png","srcSet":"/static/ec552a7c1f96030de0601b3b204b16cf/46e60/sample-image-w1.png 150w,\n/static/ec552a7c1f96030de0601b3b204b16cf/d612b/sample-image-w1.png 300w","sizes":"150px"},"sources":[{"srcSet":"/static/ec552a7c1f96030de0601b3b204b16cf/ae23d/sample-image-w1.webp 150w,\n/static/ec552a7c1f96030de0601b3b204b16cf/bd37b/sample-image-w1.webp 300w","type":"image/webp","sizes":"150px"}]},"width":150,"height":150}}},"thumbnail":null},{"id":"2bb89458-7fb4-5967-b1d4-dced5821bea4","title":"2021년 FW시즌 PAP 퍼블리셔를 모집합니다!","slug":"/2021-fw-member-recruitment/","link":null,"excerpt":"안녕하세요. PAP…","timeToRead":1,"featured":null,"thumbnailText":null,"date":"2021-10-14","category":{"id":"4fbea03f-42d3-5d2b-86e4-ef5ef8f6e20a","name":"Notice","slug":"/category/notice/","color":"#c6f6d5","icon":null},"author":{"id":"e8ddb562-820d-5c74-bd79-3fadbbec0e77","name":"최보경","slug":"/author/bonnie/","title":"Data Analyst","description":"데이터가 기업 운영의 핵심이 되도록 하는 일을 지향합니다.","skills":["Data Analysis","SQL","Communication","Product Strategy","Business Strategy"],"social":[{"name":"Website","url":"https://medium.com/bondata"}],"thumbnail":{"__typename":"ImageSharp","ImageSharp_small":{"layout":"fixed","placeholder":{"fallback":"data:image/svg+xml,%3csvg%20xmlns='http://www.w3.org/2000/svg'%20width='48'%20height='48'%20viewBox='0%200%2048%2048'%20preserveAspectRatio='none'%3e%3cpath%20d='M15%203c-3%203-5%209-4%2013%201%201%200%203-1%205-3%204-2%2010%201%2010l3%201%202%201%202%201h6v-3c1-3-2-10-4-12-3-3-3-6-1-6l3-1c1-4%208-8%2010-7%205%203%205%2014%201%2018-2%201-4%207-2%205l1%201v2h1l2%203c1%202%202%203%204%201s2-4%200-8c-1-3-1-3%201-6%203-4%202-7-2-17l-2-4h-9C17%200%2017%200%2015%203'%20fill='%23d3d3d3'%20fill-rule='evenodd'/%3e%3c/svg%3e"},"images":{"fallback":{"src":"/static/ec552a7c1f96030de0601b3b204b16cf/a7a66/sample-image-w1.png","srcSet":"/static/ec552a7c1f96030de0601b3b204b16cf/a7a66/sample-image-w1.png 48w,\n/static/ec552a7c1f96030de0601b3b204b16cf/416a0/sample-image-w1.png 96w","sizes":"48px"},"sources":[{"srcSet":"/static/ec552a7c1f96030de0601b3b204b16cf/a3542/sample-image-w1.webp 48w,\n/static/ec552a7c1f96030de0601b3b204b16cf/0f66d/sample-image-w1.webp 96w","type":"image/webp","sizes":"48px"}]},"width":48,"height":48},"ImageSharp_regular":{"layout":"fixed","placeholder":{"fallback":"data:image/svg+xml,%3csvg%20xmlns='http://www.w3.org/2000/svg'%20width='48'%20height='48'%20viewBox='0%200%2048%2048'%20preserveAspectRatio='none'%3e%3cpath%20d='M15%203c-3%203-5%209-4%2013%201%201%200%203-1%205-3%204-2%2010%201%2010l3%201%202%201%202%201h6v-3c1-3-2-10-4-12-3-3-3-6-1-6l3-1c1-4%208-8%2010-7%205%203%205%2014%201%2018-2%201-4%207-2%205l1%201v2h1l2%203c1%202%202%203%204%201s2-4%200-8c-1-3-1-3%201-6%203-4%202-7-2-17l-2-4h-9C17%200%2017%200%2015%203'%20fill='%23d3d3d3'%20fill-rule='evenodd'/%3e%3c/svg%3e"},"images":{"fallback":{"src":"/static/ec552a7c1f96030de0601b3b204b16cf/46e60/sample-image-w1.png","srcSet":"/static/ec552a7c1f96030de0601b3b204b16cf/46e60/sample-image-w1.png 150w,\n/static/ec552a7c1f96030de0601b3b204b16cf/d612b/sample-image-w1.png 300w","sizes":"150px"},"sources":[{"srcSet":"/static/ec552a7c1f96030de0601b3b204b16cf/ae23d/sample-image-w1.webp 150w,\n/static/ec552a7c1f96030de0601b3b204b16cf/bd37b/sample-image-w1.webp 300w","type":"image/webp","sizes":"150px"}]},"width":150,"height":150}}},"thumbnail":null}],"pageInfo":{"pageCount":5,"hasPreviousPage":true,"hasNextPage":false,"currentPage":5},"totalCount":27}},"pageContext":{"slug":"/tag/","limit":6,"skip":24,"collectionType":"tags","paginatePostsPage":true,"basePath":"/","services":{"algolia":false,"mailchimp":false,"disqus":true,"graphComment":false,"facebookComment":false},"siteUrl":"https://playinpap.github.io","mobileMenu":{"title":"Topics","items":[{"name":"Causal Inference","slug":"/category/causal-inference/"},{"name":"Data Engineering","slug":"/category/data-engineering/"},{"name":"Etc","slug":"/category/etc/"},{"name":"Experiment","slug":"/category/experiment/"},{"name":"Metric","slug":"/category/metric/"},{"name":"Notice","slug":"/category/notice/"},{"name":"Visualization","slug":"/category/visualization/"}]},"darkMode":true,"includeExcerpt":true,"includeTimeToRead":true,"includeTableOfContents":true,"imageQuality":75}},
    "staticQueryHashes": ["1992822086","2313160350"]}