{"componentChunkName":"component---packages-blog-gatsby-blog-core-src-templates-collection-tag-js","path":"/tag/page/11/","result":{"data":{"collectionInfo":{"id":"453f9e8d-b63a-56ed-8023-db50795e3447","name":"ëŒ€ì‹œë³´ë“œ","slug":"/tag/"},"posts":{"nodes":[{"id":"ad11488c-cc31-5bb8-8fe8-79ebda351583","title":"ë°ì´í„°ë¶„ì„ê°€ì˜ ì—­í• ","slug":"/data-analyst-roles/","link":null,"excerpt":"ğŸ™†ğŸ»â€â™‚ï¸ ë³¸ ê¸€ì€  ê°œì¸ë¸”ë¡œê·¸ ì—ì„œë„ í™•ì¸ ê°€ëŠ¥í•©ë‹ˆë‹¤. ë°ì´í„°ë¶„ì„ê°€ í¬ì§€ì…˜ì€ PM/PO, ê°œë°œì ë“±ì— ë¹„í•´ ì—­í• â€¦","timeToRead":4,"featured":null,"thumbnailText":null,"date":"2022-04-10","category":{"id":"fdc6088f-100f-5e34-b5c5-72c641ed1c6a","name":"Etc","slug":"/category/etc/","color":"#bee3f8","icon":null},"author":{"id":"a3d9a776-8230-5988-bc8e-25ddd6ae64b6","name":"í—ˆí˜„","slug":"/author/ben/","title":"Data Analyst","description":"NCSOFTì—ì„œ ìœ ì €ì™€ ê²Œì„ ìƒí™©ì„ ë¶„ì„í•˜ëŠ” ì¼ì„ í•˜ê³  ìˆìŠµë‹ˆë‹¤.","skills":["Data Analysis","SQL","Communication","Visualization"],"social":[{"name":"Website","url":"https://benheo.github.io"}],"thumbnail":null},"thumbnail":null},{"id":"c8b9cc05-6728-5691-9d12-edd0a9151fc0","title":"A/B í…ŒìŠ¤íŠ¸ì—ì„œ ì˜ë¯¸ìˆëŠ” íš¨ê³¼ ê¸°ì¤€ (MDE)ì„ ì„¤ì •í•˜ëŠ” ë°©ë²•","slug":"/abtest-setting-mde/","link":null,"excerpt":"ë¶€ì œ: A/B í…ŒìŠ¤íŠ¸ì˜ ê°€ì¥ ì°¾ê¸° í˜ë“  íŒŒë¼ë¯¸í„°ë¥¼ ì•Œì•„ë³´ê¸° ì´ ê¸€ì€  ê°œì¸ ë¸”ë¡œê·¸ ì— ë¨¼ì € ì‘ì„±ëœ ê¸€ì…ë‹ˆë‹¤â€¦","timeToRead":4,"featured":null,"thumbnailText":null,"date":"2022-02-15","category":{"id":"1c4c37b8-393e-55bb-a4bc-8261b121a85c","name":"Experiment","slug":"/category/experiment/","color":"#e9d8fd","icon":null},"author":{"id":"a52ce1a7-def3-5dd8-af26-056e71a54d6e","name":"ê¹€ì§„í™˜","slug":"/author/jinhwan/","title":"Data Scientist","description":"ë°ì´í„° ê¹ëŠ” ì• ì˜¹ì´","skills":["R","Visualization","Product Management","Data Analysis","ì¸„ë¥´"],"social":[{"name":"Website","url":"https://medium.com/@jhk0530"}],"thumbnail":null},"thumbnail":null},{"id":"3a230e06-2a89-5081-a035-dd021983f091","title":"ë°ì´í„°ë¡œ ëª¨ë“  ë¬¸ì œë¥¼ í•´ê²°í•  ìˆ˜ ìˆì„ê¹Œ?","slug":"/solve-problems-data/","link":null,"excerpt":"ì´ ê¸€ì€  [ë°ì´í„°ë¬¸í•´ë ¥ - ì¹´ì‹œì™€ê¸° ìš”ì‹œí‚¤ ì§€ìŒ, ê°•ëª¨í¬ ì˜®ê¹€ | í”„ë¦¬ë ‰] ì„ ì½ìœ¼ë©´ì„œ ì¬ë¯¸ìˆê²Œ ë³´ì•˜ë˜ â€¦","timeToRead":3,"featured":null,"thumbnailText":null,"date":"2022-02-13","category":{"id":"72591dba-cc76-502b-b1a6-e70b32d12956","name":"Data-Driven","slug":"/category/data-driven/","color":"#fefcbf","icon":null},"author":{"id":"9f304968-7773-5d63-a088-568b07d21e5b","name":"ì–‘í˜„ì„","slug":"/author/johan/","title":"Product Owner","description":"ì¸ìŠˆì–´í…Œí¬ í”Œë«í¼ì„ ë§Œë“¤ê³  ìˆìŠµë‹ˆë‹¤","skills":["Product Management","Communication","Business Strategy","Python"],"social":null,"thumbnail":null},"thumbnail":null},{"id":"92b59314-0869-5a3f-9f70-d60ac56dad0c","title":"ë°ì´í„° ê¸°ë°˜ í”„ë¡œë•íŠ¸ ê°œë°œì˜ ë¹„ê²°: Product Data Science","slug":"/key-product-data-science/","link":null,"excerpt":"í”„ë¡œë•íŠ¸ ë°ì´í„° ë¶„ì„ ë° í™œìš©ì— ëŒ€í•œ ìƒê°ë“¤ ì‘ì„±ì ë¸”ë¡œê·¸ ë§í¬   í•„ìì˜ ì´ì•¼ê¸° ì²« íšŒì‚¬ ìƒí™œì„ ì‹œì‘í•˜ê¸°â€¦","timeToRead":5,"featured":null,"thumbnailText":null,"date":"2022-02-07","category":{"id":"dfebefca-7b20-5a5e-9ed5-28a35cf56320","name":"Product Analytics","slug":"/category/product-analytics/","color":"#c6f6d5","icon":null},"author":{"id":"8646d171-706b-59e0-9492-1525e03b3fa6","name":"ìµœë³´ê²½","slug":"/author/bonnie/","title":"Data Analyst","description":"ë°ì´í„°ê°€ ê¸°ì—… ìš´ì˜ì˜ í•µì‹¬ì´ ë˜ë„ë¡ í•˜ëŠ” ì¼ì„ ì§€í–¥í•©ë‹ˆë‹¤.","skills":["Data Analysis","SQL","Communication","Product Strategy","Business Strategy"],"social":[{"name":"Website","url":"https://medium.com/bondata"}],"thumbnail":null},"thumbnail":{"__typename":"ImageSharp","ImageSharp_vertical":{"layout":"constrained","backgroundColor":"#f8f8f8","images":{"fallback":{"src":"/static/0425536d726ecee4e3f5c94ec07b4b77/19188/phases.png","srcSet":"/static/0425536d726ecee4e3f5c94ec07b4b77/db297/phases.png 190w,\n/static/0425536d726ecee4e3f5c94ec07b4b77/19188/phases.png 380w","sizes":"(min-width: 380px) 380px, 100vw"},"sources":[{"srcSet":"/static/0425536d726ecee4e3f5c94ec07b4b77/228d6/phases.webp 190w,\n/static/0425536d726ecee4e3f5c94ec07b4b77/6b99c/phases.webp 380w","type":"image/webp","sizes":"(min-width: 380px) 380px, 100vw"}]},"width":380,"height":290},"ImageSharp_hero":{"layout":"constrained","backgroundColor":"#f8f8f8","images":{"fallback":{"src":"/static/0425536d726ecee4e3f5c94ec07b4b77/81b3c/phases.png","srcSet":"/static/0425536d726ecee4e3f5c94ec07b4b77/84e46/phases.png 700w,\n/static/0425536d726ecee4e3f5c94ec07b4b77/81b3c/phases.png 1400w","sizes":"(min-width: 1400px) 1400px, 100vw"},"sources":[{"srcSet":"/static/0425536d726ecee4e3f5c94ec07b4b77/aca1f/phases.webp 700w,\n/static/0425536d726ecee4e3f5c94ec07b4b77/dd088/phases.webp 1400w","type":"image/webp","sizes":"(min-width: 1400px) 1400px, 100vw"}]},"width":1600,"height":650.2857142857143}}},{"id":"43e2a2fb-a79c-5de7-85ce-2c5fb4abc598","title":"ë„·í”Œë¦­ìŠ¤ì˜ A/B Testing - ê±°ì§“ ìŒì„±ê³¼ ê²€ì •ë ¥","slug":"/netflix-ab-testing-fn/","link":null,"excerpt":"ì´ ê¸€ì€ ë„·í”Œë¦­ìŠ¤ ë¸”ë¡œê·¸ì—ì„œ A/B Testingê³¼ ê·¸ í™œìš©ì— ëŒ€í•´ ì†Œê°œí•œ ê¸€ ì‹œë¦¬ì¦ˆ ì¤‘ í•˜ë‚˜ì…ë‹ˆë‹¤. ê·¸ â€¦","timeToRead":4,"featured":null,"thumbnailText":null,"date":"2022-01-31","category":{"id":"1c4c37b8-393e-55bb-a4bc-8261b121a85c","name":"Experiment","slug":"/category/experiment/","color":"#e9d8fd","icon":null},"author":{"id":"26c9333e-6e21-5541-9fe4-9514c6cd315b","name":"ìœ ìŠ¹í›ˆ","slug":"/author/seunghuni/","title":"Student","description":"ë°ì´í„°ë¶„ì„ì— ê´€ì‹¬ì´ ìˆìŠµë‹ˆë‹¤.","skills":["Data Analysis","Python","R","SQL","Tableau"],"social":[{"name":"Website","url":"https://seunghuni96.tistory.com"}],"thumbnail":null},"thumbnail":null},{"id":"6dfce748-8175-5d45-99e5-9fb000f0b94e","title":"SQLì„ ì‘ì„±í•  ë•Œ ë†“ì¹˜ê¸° ì‰¬ìš´ 5ê°€ì§€","slug":"/sql-coding-tip/","link":null,"excerpt":"ì´ ê¸€ì€  ì‘ì„±ì ë¸”ë¡œê·¸ ì—ì„œë„ ë³´ì‹¤ ìˆ˜ ìˆìŠµë‹ˆë‹¤. ë§ì€ ë¶„ì„ê°€ë¶„ë“¤ì´ ì–´ë–»ê²Œ í•˜ë©´ ë” ë‚˜ì€ ì¿¼ë¦¬ë¥¼ ì‘ì„±í•  â€¦","timeToRead":4,"featured":null,"thumbnailText":null,"date":"2022-01-31","category":{"id":"ee98faff-9590-5e26-ad25-07c638dbe883","name":"SQL","slug":"/category/sql/","color":"#e9d8fd","icon":null},"author":{"id":"7a7d0f8f-6082-5dd7-aae3-d7f4803f9c32","name":"ì˜¤ì±„í™˜","slug":"/author/chaehwan/","title":"Data Scientist","description":"ì´ì»¤ë¨¸ìŠ¤ë¥¼ ìœ„í•œ ë§ˆì¼€íŒ… ìë™í™” ì†”ë£¨ì…˜ì„ ì œê³µí•˜ëŠ” ë¹…ì¸ì‚¬ì´íŠ¸ì—ì„œ ë°ì´í„° ë¶„ì„ì„ ë§¡ê³  ìˆìŠµë‹ˆë‹¤.","skills":["Data Analysis","Development","SQL","ML/DL"],"social":[{"name":"Website","url":"https://chaehwan-oh.github.io"}],"thumbnail":null},"thumbnail":null}],"pageInfo":{"pageCount":18,"hasPreviousPage":true,"hasNextPage":true,"currentPage":11},"totalCount":107}},"pageContext":{"slug":"/tag/","limit":6,"skip":60,"collectionType":"{tags: {slug: SELECT}","paginatePostsPage":true,"basePath":"/","services":{"algolia":false,"mailchimp":false,"disqus":true,"graphComment":false,"facebookComment":false},"siteUrl":"https://playinpap.github.io","mobileMenu":{"title":"Topics","items":[{"name":"Statistics","slug":"/category/statistics/"},{"name":"Data pipeline","slug":"/category/data-pipeline/"},{"name":"AI","slug":"/category/ai/"},{"name":"Time Series","slug":"/category/time-series/"},{"name":"Notice","slug":"/category/notice/"},{"name":"Visualization","slug":"/category/visualization/"},{"name":"SQL","slug":"/category/sql/"},{"name":"RecSys","slug":"/category/recsys/"},{"name":"Product Analytics","slug":"/category/product-analytics/"},{"name":"Metric","slug":"/category/metric/"},{"name":"Machine Learning","slug":"/category/machine-learning/"},{"name":"Experiment","slug":"/category/experiment/"},{"name":"Etc","slug":"/category/etc/"},{"name":"Data Engineering","slug":"/category/data-engineering/"},{"name":"Data-Driven","slug":"/category/data-driven/"},{"name":"Causal Inference","slug":"/category/causal-inference/"},{"name":"Career","slug":"/category/career/"},{"name":"Career","slug":"/category/career/"},{"name":"Causal Inference","slug":"/category/causal-inference/"},{"name":"Data-Driven","slug":"/category/data-driven/"},{"name":"Data Engineering","slug":"/category/data-engineering/"},{"name":"Etc","slug":"/category/etc/"},{"name":"Experiment","slug":"/category/experiment/"},{"name":"Machine Learning","slug":"/category/machine-learning/"},{"name":"Metric","slug":"/category/metric/"},{"name":"Notice","slug":"/category/notice/"},{"name":"RecSys","slug":"/category/recsys/"},{"name":"Visualization","slug":"/category/visualization/"},{"name":"SQL","slug":"/category/sql/"},{"name":"Product Analytics","slug":"/category/product-analytics/"}]},"darkMode":true,"includeExcerpt":true,"includeTimeToRead":true,"includeTableOfContents":true,"imageQuality":75}},"staticQueryHashes":["1992822086","2313160350"],"slicesMap":{}}