{
    "componentChunkName": "component---packages-blog-gatsby-blog-core-src-templates-collection-tag-js",
    "path": "/tag/business/page/4/",
    "result": {"data":{"collectionInfo":{"id":"6f077534-6d28-59eb-986d-893bd0aafcdb","name":"#business","slug":"/tag/business/"},"posts":{"nodes":[{"id":"eae1acf3-a3eb-52c6-869f-a497014e6c62","title":"What Is Reactive Marketing? And Which Brands Do It Well?","slug":"/what-is-reactive-marketing-and-which-brands-do-it-well/","link":null,"excerpt":"Lorem markdownum illic venturi instructa nobis Echidnae,  cum  quid magna\nfatebor. Levat placetque…","timeToRead":1,"featured":null,"thumbnailText":null,"date":"April 16, 2020","category":{"id":"8f18affd-088a-5f45-bbf2-45c072674300","name":"Advertising","slug":"/category/advertising/","color":"#e9d8fd","icon":"/static/93c9c75517e1a6e95deaecabf3d1d050/advertising.svg"},"author":{"id":"0f0d51cf-84c2-5f2d-bd47-44344347a5d5","name":"Steve Grant","slug":"/author/steve-grant/","title":"Product Designer","description":"Sed commodo, est quis maximus fermentum, massa ipsum euismod neque, in varius risus tellus quis lacus. Sed ac bibendum odio.","skills":["Public Relation","Market Analyst","Designer"],"social":[{"name":"Instagram","url":"https://instagram.com/instagram"},{"name":"Twitter","url":"https://twitter.com/twitter"},{"name":"Website","url":"https://example.com"}],"thumbnail":{"__typename":"ImageSharp","ImageSharp_small":{"layout":"fixed","placeholder":{"fallback":"data:image/svg+xml,%3csvg%20xmlns='http://www.w3.org/2000/svg'%20width='150'%20height='150'%20viewBox='0%200%20150%20150'%20preserveAspectRatio='none'%3e%3cpath%20d='M49%204l-4%208c0%205%200%205%202%205a85%2085%200%2000-22%2024c-3%208-4%2020%200%2025s10%207%2023%207l12%201%203%203%203%204-2%205-1%2015%205%2045v4h35v-8a201%20201%200%2000-2-51c2%200%203%202%2012%2019l7%2015-5%204c-5%205-5%205-2%209%202%201%203%204%204%207%201%205%204%207%204%203%200-2%201-3%202-3l3-2-3-1h-3l-2-4-3-4%204-4c5-4%205-5-2-19-3-7-5-12-4-13l-1-1h-1l-3-4c-3-3-3-3-1-4s5-6%205-8l2-6c2-5%205-17%205-22l2-6%202-3%205-7c14-13%2013-27-4-35-2-2-8-2-38-2H51l-2%204m39%2023c-10%202-28%2012-28%2015%200%202%2016-1%2022-4%203-1%207-1%207%201%200%204%208%206%2012%204s4-2%201-3v-3c1-1%202-1%205%201%208%204%209%203%206-7l-2-5-9-1-14%202m19%2018l-2%201%202%201c3%201%205%203%204%205l-3-1c-2-2-4-1-4%202s9%206%2011%204c2-3%201-13-1-14-1%200-2%200-2%202h-1c-2-2-2-2-4%200m-28%201h-2l-1%201c-3%202-2%206%201%209s4%203%208%203c6%200%2011-11%206-14-3-2-11-1-12%201m-19%203c0%204%200%204-2%204-6-2-7-2-9%201-4%205-1%2012%205%2012%202%200%204%201%207%206l8%208c3%202%204%204%202%204l-3-1c-1-2-3%2011-2%2019%200%207%200%207%2014%208%208%201%2018%200%2020-2s2-12%201-12l-3-2c-1-2-2-3-5-3-4%200-9-2-11-5-3-3-1-3%206-2%206%201%207%201%207-4l1-5c1-1%201-1-1-2l-3-1-4-1-4-2c0-2%204-6%208-7%202%200%203-1%202-2%200-2%202-3%204-1l2%201c2%200%203-3%201-5v-5c-2-5-4-4-6%202-4%2012-20%2012-23%200l-2-4-5-2c-4-2-5-1-5%203m45%2010c-2%201-1%203%202%204%207%202%208%209%201%208-6-2-8%201-6%207s2%206%207%202c3-4%205-9%207-18v-4l-2%201h-9M56%2090c-3%202-14%2028-14%2032l4%205%203%203-3%201c-3%202-4%204-2%2012%201%205%202%207%203%207l1-4c-2-13-3-11%202-13%206-2%206-3%200-7l-5-4%205-12c5-14%207-18%209-20%202-3%200-2-3%200m-13%203c-11%203-26%2014-32%2025s-11%2032-8%2032c1%200%202-2%204-11%206-24%2018-38%2037-44%208-3%207-4-1-2m76%2011c9%209%2016%2023%2020%2040%202%207%205%209%204%202-3-19-13-38-24-45-7-5-7-4%200%203m-52%2010l1%203h33v-2c0-3%200-3-4-2-6%202-21%201-28-2-2%200-2%200-2%203m1%208v3h6l17-1%2010-1c0-3%200-3-17-3l-16-1v3m1%208v3l10-1c19%200%2022-1%2022-3s-1-2-16-2H69v3m1%208v3l14-1c16%200%2016%200%2016-3v-3H85l-15%201v3m14%205H71v6l13-1h14c1%200%202-1%202-3l-1-3-15%201'%20fill='%23d3d3d3'%20fill-rule='evenodd'/%3e%3c/svg%3e"},"images":{"fallback":{"src":"/static/05d0ac7130e48a9a86ba018fac3dbe2d/a7a66/steve-grant.png","srcSet":"/static/05d0ac7130e48a9a86ba018fac3dbe2d/a7a66/steve-grant.png 48w,\n/static/05d0ac7130e48a9a86ba018fac3dbe2d/416a0/steve-grant.png 96w","sizes":"48px"},"sources":[{"srcSet":"/static/05d0ac7130e48a9a86ba018fac3dbe2d/a3542/steve-grant.webp 48w,\n/static/05d0ac7130e48a9a86ba018fac3dbe2d/0f66d/steve-grant.webp 96w","type":"image/webp","sizes":"48px"}]},"width":48,"height":48},"ImageSharp_regular":{"layout":"fixed","placeholder":{"fallback":"data:image/svg+xml,%3csvg%20xmlns='http://www.w3.org/2000/svg'%20width='150'%20height='150'%20viewBox='0%200%20150%20150'%20preserveAspectRatio='none'%3e%3cpath%20d='M49%204l-4%208c0%205%200%205%202%205a85%2085%200%2000-22%2024c-3%208-4%2020%200%2025s10%207%2023%207l12%201%203%203%203%204-2%205-1%2015%205%2045v4h35v-8a201%20201%200%2000-2-51c2%200%203%202%2012%2019l7%2015-5%204c-5%205-5%205-2%209%202%201%203%204%204%207%201%205%204%207%204%203%200-2%201-3%202-3l3-2-3-1h-3l-2-4-3-4%204-4c5-4%205-5-2-19-3-7-5-12-4-13l-1-1h-1l-3-4c-3-3-3-3-1-4s5-6%205-8l2-6c2-5%205-17%205-22l2-6%202-3%205-7c14-13%2013-27-4-35-2-2-8-2-38-2H51l-2%204m39%2023c-10%202-28%2012-28%2015%200%202%2016-1%2022-4%203-1%207-1%207%201%200%204%208%206%2012%204s4-2%201-3v-3c1-1%202-1%205%201%208%204%209%203%206-7l-2-5-9-1-14%202m19%2018l-2%201%202%201c3%201%205%203%204%205l-3-1c-2-2-4-1-4%202s9%206%2011%204c2-3%201-13-1-14-1%200-2%200-2%202h-1c-2-2-2-2-4%200m-28%201h-2l-1%201c-3%202-2%206%201%209s4%203%208%203c6%200%2011-11%206-14-3-2-11-1-12%201m-19%203c0%204%200%204-2%204-6-2-7-2-9%201-4%205-1%2012%205%2012%202%200%204%201%207%206l8%208c3%202%204%204%202%204l-3-1c-1-2-3%2011-2%2019%200%207%200%207%2014%208%208%201%2018%200%2020-2s2-12%201-12l-3-2c-1-2-2-3-5-3-4%200-9-2-11-5-3-3-1-3%206-2%206%201%207%201%207-4l1-5c1-1%201-1-1-2l-3-1-4-1-4-2c0-2%204-6%208-7%202%200%203-1%202-2%200-2%202-3%204-1l2%201c2%200%203-3%201-5v-5c-2-5-4-4-6%202-4%2012-20%2012-23%200l-2-4-5-2c-4-2-5-1-5%203m45%2010c-2%201-1%203%202%204%207%202%208%209%201%208-6-2-8%201-6%207s2%206%207%202c3-4%205-9%207-18v-4l-2%201h-9M56%2090c-3%202-14%2028-14%2032l4%205%203%203-3%201c-3%202-4%204-2%2012%201%205%202%207%203%207l1-4c-2-13-3-11%202-13%206-2%206-3%200-7l-5-4%205-12c5-14%207-18%209-20%202-3%200-2-3%200m-13%203c-11%203-26%2014-32%2025s-11%2032-8%2032c1%200%202-2%204-11%206-24%2018-38%2037-44%208-3%207-4-1-2m76%2011c9%209%2016%2023%2020%2040%202%207%205%209%204%202-3-19-13-38-24-45-7-5-7-4%200%203m-52%2010l1%203h33v-2c0-3%200-3-4-2-6%202-21%201-28-2-2%200-2%200-2%203m1%208v3h6l17-1%2010-1c0-3%200-3-17-3l-16-1v3m1%208v3l10-1c19%200%2022-1%2022-3s-1-2-16-2H69v3m1%208v3l14-1c16%200%2016%200%2016-3v-3H85l-15%201v3m14%205H71v6l13-1h14c1%200%202-1%202-3l-1-3-15%201'%20fill='%23d3d3d3'%20fill-rule='evenodd'/%3e%3c/svg%3e"},"images":{"fallback":{"src":"/static/05d0ac7130e48a9a86ba018fac3dbe2d/46e60/steve-grant.png","srcSet":"/static/05d0ac7130e48a9a86ba018fac3dbe2d/46e60/steve-grant.png 150w,\n/static/05d0ac7130e48a9a86ba018fac3dbe2d/d612b/steve-grant.png 300w","sizes":"150px"},"sources":[{"srcSet":"/static/05d0ac7130e48a9a86ba018fac3dbe2d/ae23d/steve-grant.webp 150w,\n/static/05d0ac7130e48a9a86ba018fac3dbe2d/bd37b/steve-grant.webp 300w","type":"image/webp","sizes":"150px"}]},"width":150,"height":150}}},"thumbnail":null}],"pageInfo":{"pageCount":4,"hasPreviousPage":true,"hasNextPage":false,"currentPage":4},"totalCount":19}},"pageContext":{"slug":"/tag/business/","limit":6,"skip":18,"collectionType":"tags","paginatePostsPage":true,"basePath":"/","services":{"algolia":false,"mailchimp":false,"disqus":false,"graphComment":false,"facebookComment":false},"siteUrl":null,"mobileMenu":{"title":"Topics","items":[{"name":"Advertising","slug":"/category/advertising/"},{"name":"Case Studies","slug":"/category/case-studies/"},{"name":"Causal Inference","slug":"/category/causal-inference/"},{"name":"Experiment","slug":"/category/experiment/"},{"name":"Metric","slug":"/category/metric/"},{"name":"Visualization","slug":"/category/visualization/"}]},"darkMode":true,"includeExcerpt":true,"includeTimeToRead":true,"includeTableOfContents":true,"imageQuality":75}},
    "staticQueryHashes": ["1992822086","3117598128"]}