{"componentChunkName":"component---packages-blog-gatsby-blog-core-src-templates-collection-tag-js","path":"/tag/page/14/","result":{"data":{"collectionInfo":{"id":"453f9e8d-b63a-56ed-8023-db50795e3447","name":"ëŒ€ì‹œë³´ë“œ","slug":"/tag/"},"posts":{"nodes":[{"id":"4624e765-fe8b-5d09-9099-0989ae6fff2a","title":"ë°ì´í„°ì˜ í•¨ì •ì— ë¹ ì§€ì§€ ì•ŠëŠ” ë°©ë²•","slug":"/trap-of-data/","link":null,"excerpt":"ë“¤ì–´ê°€ê¸°ì— ì•ì„œ ì¼ì„ í•˜ë©´ì„œ ê·¸ë¦¬ê³  ìƒí™œ ì†ì—ì„œë„ ìš°ë¦¬ëŠ” ë‹¤ì–‘í•œ ìˆ«ìë“¤ì„ ë§ˆì£¼í•˜ê²Œ ë˜ëŠ”ë°ìš”. í˜¹ì‹œ ê·¸ ìˆ«ìâ€¦","timeToRead":2,"featured":null,"thumbnailText":null,"date":"2021-12-27","category":{"id":"72591dba-cc76-502b-b1a6-e70b32d12956","name":"Data-Driven","slug":"/category/data-driven/","color":"#fefcbf","icon":null},"author":{"id":"9f304968-7773-5d63-a088-568b07d21e5b","name":"ì–‘í˜„ì„","slug":"/author/johan/","title":"Product Owner","description":"ì¸ìŠˆì–´í…Œí¬ í”Œë«í¼ì„ ë§Œë“¤ê³  ìˆìŠµë‹ˆë‹¤","skills":["Product Management","Communication","Business Strategy","Python"],"social":null,"thumbnail":null},"thumbnail":null},{"id":"e27343c0-2bfe-55d6-967f-f98d84cd20da","title":"ìƒ˜í”Œ ì‚¬ì´ì¦ˆ ê³„ì‚°ê¸°ì— ìˆ¨ì–´ìˆëŠ” í†µê³„ ì´ì•¼ê¸°","slug":"/sample-size-calculator-statistics/","link":null,"excerpt":"ì› ê¸€ì€  ì‘ì„±ì ë¸”ë¡œê·¸ ì—ì„œ ë³´ì‹¤ ìˆ˜ ìˆìŠµë‹ˆë‹¤. A/B í…ŒìŠ¤íŠ¸ë¥¼ ì§„í–‰í•˜ê¸° ì•ì„œ ëŠ˜ ê³ ë¯¼ë˜ëŠ” ê²ƒì€ â€œì ì ˆí•œâ€¦","timeToRead":4,"featured":null,"thumbnailText":null,"date":"2021-12-26","category":{"id":"1c4c37b8-393e-55bb-a4bc-8261b121a85c","name":"Experiment","slug":"/category/experiment/","color":"#e9d8fd","icon":null},"author":{"id":"7a7d0f8f-6082-5dd7-aae3-d7f4803f9c32","name":"ì˜¤ì±„í™˜","slug":"/author/chaehwan/","title":"Data Scientist","description":"ì´ì»¤ë¨¸ìŠ¤ë¥¼ ìœ„í•œ ë§ˆì¼€íŒ… ìë™í™” ì†”ë£¨ì…˜ì„ ì œê³µí•˜ëŠ” ë¹…ì¸ì‚¬ì´íŠ¸ì—ì„œ ë°ì´í„° ë¶„ì„ì„ ë§¡ê³  ìˆìŠµë‹ˆë‹¤.","skills":["Data Analysis","Development","SQL","ML/DL"],"social":[{"name":"Website","url":"https://chaehwan-oh.github.io"}],"thumbnail":null},"thumbnail":null},{"id":"e8db00a1-e68c-5c4e-9811-611b9b46f1ca","title":"ì¸ê³¼ì¶”ë¡  ë‘ë²ˆì§¸ â€“ ì„ íƒí¸ì˜ë¥¼ ì œê±°í•˜ëŠ” ë°©ë²•","slug":"/casual-inference-selection-bias/","link":null,"excerpt":"ë“¤ì–´ê°€ê¸° ì•ì„œ ì§€ë‚œ ì‹œê°„ì—ëŠ” ë¬´ì‘ìœ„ ì‹œí–‰ì˜ í•„ìš”ì„±ì— ëŒ€í•´ ì´ì•¼ê¸°í–ˆë‹¤! ë°”ë¡œ ì„ íƒí¸ì˜ë¥¼ ì œê±°í•˜ê¸° ìœ„í•œ ê²ƒ!!â€¦","timeToRead":2,"featured":null,"thumbnailText":null,"date":"2021-12-20","category":{"id":"91a926e7-e227-537c-9237-db3e7379964e","name":"Causal Inference","slug":"/category/causal-inference/","color":"#c6f6d5","icon":null},"author":{"id":"c8a036a4-0cad-5963-ac2f-955ee1e03576","name":"ê²½ìœ¤ì˜","slug":"/author/yun/","title":"Job Seeker","description":"ë°ì´í„° ë¶„ì„ê°€ê°€ ë˜ê¸° ìœ„í•´ ì¤€ë¹„í•˜ê³  ìˆìŠµë‹ˆë‹¤~!","skills":["Data Analysis","R","SQL","Python"],"social":null,"thumbnail":null},"thumbnail":null},{"id":"8edd675f-c60e-5b08-9bd0-19bbf80a918d","title":"Color Blindë¥¼ ìœ„í•œ ë°ì´í„° ì‹œê°í™”","slug":"/data-visualization-for-color-blind/","link":null,"excerpt":"| ğŸ’ğŸ½â€â™‚ï¸ ë³¸ í¬ìŠ¤íŒ…ì˜ ì›ë¬¸ì€  ì´ê³³ ì—ì„œ í™•ì¸í•˜ì‹¤ ìˆ˜ ìˆìŠµë‹ˆë‹¤! ìƒ‰(Color)ì€ ë°ì´í„° ì‹œê°í™”ì˜ ê°€ì¥ í•µì‹¬â€¦","timeToRead":3,"featured":null,"thumbnailText":null,"date":"2021-12-19","category":{"id":"2a2a70d3-754e-54c4-a95d-f47857aefd20","name":"Visualization","slug":"/category/visualization/","color":"#fefcbf","icon":null},"author":{"id":"508dec7d-724c-5d76-b07a-fe296e973bd9","name":"ê¹€ìƒí˜„","slug":"/author/jsang/","title":"Data Analyst","description":"ì»¤ë¨¸ìŠ¤ì˜ ì„±ì¥ì„ ë„ìš¸ ìˆ˜ ìˆëŠ” ë°ì´í„° ë¶„ì„ì„ í•©ë‹ˆë‹¤.","skills":["Data Analysis","R","Communication"],"social":[{"name":"Website","url":"https://www.jsang.me"}],"thumbnail":null},"thumbnail":null},{"id":"1b17214b-e6bd-5b8b-b675-6ec7b75c98b4","title":"CausalImpactë¡œ COVID-19 ë°ì´í„°ë¥¼ ë¶„ì„í•´ë³´ì","slug":"/causalimpact-covid19/","link":null,"excerpt":"ì´ë²ˆ í¬ìŠ¤íŒ…ì€ Googleì´ 2015ë…„ì— ë°œí‘œí•œ  CausalImpact  ë°©ë²•ë¡ ì„ ë°”íƒ•ìœ¼ë¡œ í•œêµ­ì˜ ì½”ë¡œë‚˜â€¦","timeToRead":5,"featured":null,"thumbnailText":null,"date":"2021-12-19","category":{"id":"91a926e7-e227-537c-9237-db3e7379964e","name":"Causal Inference","slug":"/category/causal-inference/","color":"#c6f6d5","icon":null},"author":{"id":"b7895b55-4604-5d46-af41-6840def92f34","name":"ì´ì€ì§€","slug":"/author/eunji/","title":"Data Analyst","description":"ë„¥ìŠ¨ ì½”ë¦¬ì•„ì—ì„œ ì–´ë–»ê²Œ í•˜ë©´ ìœ ì €ë“¤ì´ ë” ì¦ê¸¸ ìˆ˜ ìˆëŠ” ê²Œì„ì„ ë§Œë“¤ì§€ ë¶„ì„ê°€ì˜ ê´€ì ì—ì„œ ë°”ë¼ë³´ê³ ì ë…¸ë ¥í•˜ê³  ìˆìŠµë‹ˆë‹¤.","skills":["Data Analysis","Visualization","R","Pyspark","SQL"],"social":[{"name":"Website","url":"https://assaeunji.github.io"}],"thumbnail":null},"thumbnail":null},{"id":"68972790-45d5-5385-80c6-9e02e4ca388a","title":"ì´ˆê¸° ìŠ¤íƒ€íŠ¸ì—…ì´ ì‹¤í—˜í•  ë•Œ ê³ ë ¤í•´ì•¼ í•  5ê°€ì§€","slug":"/5-things-for-early-startups-experiments/","link":null,"excerpt":"0. ì–´ë–¤ ì‚¬ëŒë“¤ì´ ì°¸ê³ í•˜ë©´ ì¢‹ì„ê¹Œìš”? ê²½ì˜ì§„ì˜ ê°•ë ¥í•œ ì§ê´€ìœ¼ë¡œ series Aë‹¨ê³„ê¹Œì§€ ë„ë‹¬í–ˆìœ¼ë‚˜, ì´ì œëŠ”â€¦","timeToRead":5,"featured":null,"thumbnailText":null,"date":"2021-12-14","category":{"id":"1c4c37b8-393e-55bb-a4bc-8261b121a85c","name":"Experiment","slug":"/category/experiment/","color":"#e9d8fd","icon":null},"author":{"id":"dee58539-51bd-563d-a944-e4f7d3c39575","name":"ìœ ë™í˜„","slug":"/author/larry/","title":"Product Manager","description":"ë³€í˜¸ì‚¬ í”Œë«í¼ ë¡œì•¤êµ¿ì„ ë§Œë“¤ê³  ìˆìŠµë‹ˆë‹¤.","skills":["Product Management","SQL"],"social":[{"name":"Website","url":"https://brunch.co.kr/@netking77"}],"thumbnail":null},"thumbnail":{"__typename":"ImageSharp","ImageSharp_vertical":{"layout":"constrained","backgroundColor":"#e8e8e8","images":{"fallback":{"src":"/static/4a82253834f773665af3e4070bbf475a/19188/cover.png","srcSet":"/static/4a82253834f773665af3e4070bbf475a/db297/cover.png 190w,\n/static/4a82253834f773665af3e4070bbf475a/19188/cover.png 380w","sizes":"(min-width: 380px) 380px, 100vw"},"sources":[{"srcSet":"/static/4a82253834f773665af3e4070bbf475a/228d6/cover.webp 190w,\n/static/4a82253834f773665af3e4070bbf475a/6b99c/cover.webp 380w","type":"image/webp","sizes":"(min-width: 380px) 380px, 100vw"}]},"width":380,"height":290},"ImageSharp_hero":{"layout":"constrained","backgroundColor":"#e8e8e8","images":{"fallback":{"src":"/static/4a82253834f773665af3e4070bbf475a/83483/cover.png","srcSet":"/static/4a82253834f773665af3e4070bbf475a/ee5d8/cover.png 727w,\n/static/4a82253834f773665af3e4070bbf475a/83483/cover.png 1454w","sizes":"(min-width: 1454px) 1454px, 100vw"},"sources":[{"srcSet":"/static/4a82253834f773665af3e4070bbf475a/e5fb2/cover.webp 727w,\n/static/4a82253834f773665af3e4070bbf475a/9e5ea/cover.webp 1454w","type":"image/webp","sizes":"(min-width: 1454px) 1454px, 100vw"}]},"width":1600,"height":650.3438789546079}}}],"pageInfo":{"pageCount":18,"hasPreviousPage":true,"hasNextPage":true,"currentPage":14},"totalCount":107}},"pageContext":{"slug":"/tag/","limit":6,"skip":78,"collectionType":"{tags: {slug: SELECT}","paginatePostsPage":true,"basePath":"/","services":{"algolia":false,"mailchimp":false,"disqus":true,"graphComment":false,"facebookComment":false},"siteUrl":"https://playinpap.github.io","mobileMenu":{"title":"Topics","items":[{"name":"Statistics","slug":"/category/statistics/"},{"name":"Data pipeline","slug":"/category/data-pipeline/"},{"name":"AI","slug":"/category/ai/"},{"name":"Time Series","slug":"/category/time-series/"},{"name":"Notice","slug":"/category/notice/"},{"name":"Visualization","slug":"/category/visualization/"},{"name":"SQL","slug":"/category/sql/"},{"name":"RecSys","slug":"/category/recsys/"},{"name":"Product Analytics","slug":"/category/product-analytics/"},{"name":"Metric","slug":"/category/metric/"},{"name":"Machine Learning","slug":"/category/machine-learning/"},{"name":"Experiment","slug":"/category/experiment/"},{"name":"Etc","slug":"/category/etc/"},{"name":"Data Engineering","slug":"/category/data-engineering/"},{"name":"Data-Driven","slug":"/category/data-driven/"},{"name":"Causal Inference","slug":"/category/causal-inference/"},{"name":"Career","slug":"/category/career/"},{"name":"Career","slug":"/category/career/"},{"name":"Causal Inference","slug":"/category/causal-inference/"},{"name":"Data-Driven","slug":"/category/data-driven/"},{"name":"Data Engineering","slug":"/category/data-engineering/"},{"name":"Etc","slug":"/category/etc/"},{"name":"Experiment","slug":"/category/experiment/"},{"name":"Machine Learning","slug":"/category/machine-learning/"},{"name":"Metric","slug":"/category/metric/"},{"name":"Notice","slug":"/category/notice/"},{"name":"RecSys","slug":"/category/recsys/"},{"name":"Visualization","slug":"/category/visualization/"},{"name":"SQL","slug":"/category/sql/"},{"name":"Product Analytics","slug":"/category/product-analytics/"}]},"darkMode":true,"includeExcerpt":true,"includeTimeToRead":true,"includeTableOfContents":true,"imageQuality":75}},"staticQueryHashes":["1992822086","2313160350"],"slicesMap":{}}