{"componentChunkName":"component---packages-blog-gatsby-blog-core-src-templates-collection-tag-js","path":"/tag/page/6/","result":{"data":{"collectionInfo":{"id":"453f9e8d-b63a-56ed-8023-db50795e3447","name":"ëŒ€ì‹œë³´ë“œ","slug":"/tag/"},"posts":{"nodes":[{"id":"5bd649f2-4df4-5f66-97b9-c7749c47da8d","title":"ë°ì´í„°ì¡ë¶€, ê·¼ë° ì´ì œ Analytics Engineeringì„ ê³ë“¤ì¸","slug":"/what-is-analytics-engineering/","link":null,"excerpt":"ğŸ™†ğŸ»â€â™‚ï¸ ë³¸ ê¸€ì€  ê°œì¸ë¸”ë¡œê·¸ ì—ì„œë„ í™•ì¸ ê°€ëŠ¥í•©ë‹ˆë‹¤. ì‹œì‘í•˜ë©°, \në¨¼ì € ì‘ì„±í–ˆë˜ ê¸€ì¸  í¬ì§€ì…˜ì´ë¼ëŠ” í‹€ì—ì„œ ë²—â€¦","timeToRead":3,"featured":null,"thumbnailText":null,"date":"2022-06-27","category":{"id":"03fd41aa-5b9b-5e34-a9c9-fcfe159c2c98","name":"Career","slug":"/category/career/","color":"#bee3f8","icon":null},"author":{"id":"e50bc042-c8e7-52a2-acb4-70d16dfbc10e","name":"ë°•ì¢…ìµ","slug":"/author/chris/","title":"Analytics Engineer","description":"ë„ë¦¬ ë°ì´í„° ì†Œë¹„ìë“¤ì—ê²Œ ì´ë¡œìš´ í™˜ê²½ì„ ì œê³µí•  ìˆ˜ ìˆê¸°ë¥¼ í¬ë§í•©ë‹ˆë‹¤.","skills":["Analytics Governance","Data Analysis","ML/DL","Statistics","Python","SQL","Visualization","Communication","Product Strategy"],"social":[{"name":"LinkedIn","url":"https://www.linkedin.com/in/jongikpark/"}],"thumbnail":null},"thumbnail":null},{"id":"fa9c7a79-17f9-5484-8730-97ec68c6d5d5","title":"ë¹µìœ¼ë¡œ ì„¤ëª…í•˜ëŠ” ì§€í‘œ ê°œë… ì •ë¦¬(OEC, KPI, Goal, Driver, Guardrail)","slug":"/summary-of-indicator-concepts-explained-by-bread/","link":null,"excerpt":"ì´ ê¸€ì„ ì“°ê²Œ ëœ ì´ìœ  a/b í…ŒìŠ¤íŠ¸ ìŠ¤í„°ë””ë¥¼ ë‘ ë‹¬ ê°€ê¹Œì´ í•´ì˜¤ë©´ì„œ ì—¬ëŸ¬ ì§€í‘œ ê°œë…ì— ëŒ€í•´ ì•Œê²Œ ë˜ì—ˆë‹¤.â€¦","timeToRead":5,"featured":null,"thumbnailText":null,"date":"2022-06-20","category":{"id":"fdc6088f-100f-5e34-b5c5-72c641ed1c6a","name":"Etc","slug":"/category/etc/","color":"#bee3f8","icon":null},"author":{"id":"02bcdbb4-b89e-5b5b-9738-3c8b6c209b30","name":"ê¹€í¬ì˜","slug":"/author/heeyoung/","title":"Data Analyst","description":"ì‚¬ëŒì˜ ì‹¬ë¦¬ì™€ í–‰ë™ì„ ì¤‘ì‹¬ìœ¼ë¡œ ë¶„ì„ì„í•˜ëŠ” ë°ì´í„° ë¶„ì„ê°€ì…ë‹ˆë‹¤.","skills":["Data Analysis","Python","Communication"],"social":null,"thumbnail":null},"thumbnail":{"__typename":"ImageSharp","ImageSharp_vertical":{"layout":"constrained","backgroundColor":"#d85858","images":{"fallback":{"src":"/static/0aebbfc3b3c5d42ff832f21a176991cb/19188/season2_thumbnail.png","srcSet":"/static/0aebbfc3b3c5d42ff832f21a176991cb/db297/season2_thumbnail.png 190w,\n/static/0aebbfc3b3c5d42ff832f21a176991cb/19188/season2_thumbnail.png 380w","sizes":"(min-width: 380px) 380px, 100vw"},"sources":[{"srcSet":"/static/0aebbfc3b3c5d42ff832f21a176991cb/228d6/season2_thumbnail.webp 190w,\n/static/0aebbfc3b3c5d42ff832f21a176991cb/6b99c/season2_thumbnail.webp 380w","type":"image/webp","sizes":"(min-width: 380px) 380px, 100vw"}]},"width":380,"height":290},"ImageSharp_hero":{"layout":"constrained","backgroundColor":"#d85858","images":{"fallback":{"src":"/static/0aebbfc3b3c5d42ff832f21a176991cb/5fb32/season2_thumbnail.png","srcSet":"/static/0aebbfc3b3c5d42ff832f21a176991cb/739fd/season2_thumbnail.png 600w,\n/static/0aebbfc3b3c5d42ff832f21a176991cb/5fb32/season2_thumbnail.png 1200w","sizes":"(min-width: 1200px) 1200px, 100vw"},"sources":[{"srcSet":"/static/0aebbfc3b3c5d42ff832f21a176991cb/288e3/season2_thumbnail.webp 600w,\n/static/0aebbfc3b3c5d42ff832f21a176991cb/5b893/season2_thumbnail.webp 1200w","type":"image/webp","sizes":"(min-width: 1200px) 1200px, 100vw"}]},"width":1600,"height":650.6666666666666}}},{"id":"bc42c965-a018-5ab6-97ce-70fa0ae24802","title":"ì¿ íŒ¡ ë¡œì¼“ë°°ì†¡ì˜ ê°€ì¹˜ëŠ” ì–´ë–»ê²Œ ì¸¡ì •í•  ìˆ˜ ìˆì„ê¹Œ?","slug":"/measure-rocket-delivery-value/","link":null,"excerpt":"ğŸ™†ğŸ»â€â™‚ï¸ ë³¸ ê¸€ì€  ê°œì¸ë¸”ë¡œê·¸ ì—ì„œë„ í™•ì¸ ê°€ëŠ¥í•©ë‹ˆë‹¤. ì¿ íŒ¡ì˜ ë¡œì¼“ë°°ì†¡ì€ ì¿ íŒ¡ì˜ ìƒì§•ê³¼ë„ ê°™ì€ ì„œë¹„ìŠ¤ì£ . ì¿ íŒ¡ì—â€¦","timeToRead":3,"featured":null,"thumbnailText":null,"date":"2022-06-20","category":{"id":"91a926e7-e227-537c-9237-db3e7379964e","name":"Causal Inference","slug":"/category/causal-inference/","color":"#c6f6d5","icon":null},"author":{"id":"a3d9a776-8230-5988-bc8e-25ddd6ae64b6","name":"í—ˆí˜„","slug":"/author/ben/","title":"Data Analyst","description":"NCSOFTì—ì„œ ìœ ì €ì™€ ê²Œì„ ìƒí™©ì„ ë¶„ì„í•˜ëŠ” ì¼ì„ í•˜ê³  ìˆìŠµë‹ˆë‹¤.","skills":["Data Analysis","SQL","Communication","Visualization"],"social":[{"name":"Website","url":"https://benheo.github.io"}],"thumbnail":null},"thumbnail":null},{"id":"ca3b40c2-9c29-5973-8884-0e9fb73d01bc","title":"ë² ì´ì§€ì•ˆ A/B í…ŒìŠ¤íŠ¸ - Bayes theorem","slug":"/bayesian_ab_test_bayes_theroem/","link":null,"excerpt":"ì´ ê¸€ì€  ì‘ì„±ì ë¸”ë¡œê·¸ ì—ì„œë„ ë³´ì‹¤ ìˆ˜ ìˆìŠµë‹ˆë‹¤. ë¹ˆë„ì£¼ì˜(Frequentist) vs ë² ì´ì§€ì•ˆ(Bayeâ€¦","timeToRead":3,"featured":null,"thumbnailText":null,"date":"2022-06-06","category":{"id":"1c4c37b8-393e-55bb-a4bc-8261b121a85c","name":"Experiment","slug":"/category/experiment/","color":"#e9d8fd","icon":null},"author":{"id":"2a572c4e-eef7-50d6-92bd-328b31b5fade","name":"ì˜¤ì—°ì£¼","slug":"/author/yeonjuoh/","title":"Data Scientist","description":"ì„¸ìƒì— ê´€ì‹¬ì´ ë§ìŠµë‹ˆë‹¤.","skills":["Data Analysis","Machine Learning","Visualization"],"social":null,"thumbnail":null},"thumbnail":{"__typename":"ImageSharp","ImageSharp_vertical":{"layout":"constrained","backgroundColor":"#d85858","images":{"fallback":{"src":"/static/0aebbfc3b3c5d42ff832f21a176991cb/19188/season2_thumbnail.png","srcSet":"/static/0aebbfc3b3c5d42ff832f21a176991cb/db297/season2_thumbnail.png 190w,\n/static/0aebbfc3b3c5d42ff832f21a176991cb/19188/season2_thumbnail.png 380w","sizes":"(min-width: 380px) 380px, 100vw"},"sources":[{"srcSet":"/static/0aebbfc3b3c5d42ff832f21a176991cb/228d6/season2_thumbnail.webp 190w,\n/static/0aebbfc3b3c5d42ff832f21a176991cb/6b99c/season2_thumbnail.webp 380w","type":"image/webp","sizes":"(min-width: 380px) 380px, 100vw"}]},"width":380,"height":290},"ImageSharp_hero":{"layout":"constrained","backgroundColor":"#d85858","images":{"fallback":{"src":"/static/0aebbfc3b3c5d42ff832f21a176991cb/5fb32/season2_thumbnail.png","srcSet":"/static/0aebbfc3b3c5d42ff832f21a176991cb/739fd/season2_thumbnail.png 600w,\n/static/0aebbfc3b3c5d42ff832f21a176991cb/5fb32/season2_thumbnail.png 1200w","sizes":"(min-width: 1200px) 1200px, 100vw"},"sources":[{"srcSet":"/static/0aebbfc3b3c5d42ff832f21a176991cb/288e3/season2_thumbnail.webp 600w,\n/static/0aebbfc3b3c5d42ff832f21a176991cb/5b893/season2_thumbnail.webp 1200w","type":"image/webp","sizes":"(min-width: 1200px) 1200px, 100vw"}]},"width":1600,"height":650.6666666666666}}},{"id":"b9c17005-0980-5a2f-8e91-5a10db3be752","title":"Spotifyì˜ ìŒì•… ì¶”ì²œì´ ë§¤ë ¥ì ì¸ ì´ìœ ","slug":"/recsys-spotify/","link":null,"excerpt":"Intro ì´ë²ˆ ê¸€ì€ ì¶”ì²œ ë§›ì§‘ìœ¼ë¡œ ì•Œë ¤ì§„ ìŠ¤í¬í‹°íŒŒì´ì—ì„œ ì‚¬ìš© ë˜ê³  ìˆëŠ” ì¶”ì²œ ì•Œê³ ë¦¬ì¦˜ì— ëŒ€í•´ ì •ë¦¬í•´ë³´ê³ ìâ€¦","timeToRead":2,"featured":null,"thumbnailText":null,"date":"2022-06-06","category":{"id":"fdc6088f-100f-5e34-b5c5-72c641ed1c6a","name":"Etc","slug":"/category/etc/","color":"#bee3f8","icon":null},"author":{"id":"7794027c-71aa-588f-8ad6-a109b3ddac03","name":"ì£¼ì •ë¯¼","slug":"/author/jmin/","title":"Data Analyst","description":"ê¸€ë¡œë²Œ ì»¤ë¨¸ìŠ¤, ë°°ë‹¬ í”Œë«í¼ ë“± ë‹¤ì–‘í•œ ì‚°ì—…ì—ì„œ ë°ì´í„° ë¶„ì„ê°€ë¡œ í™œë™í•˜ê³  ìˆìŠµë‹ˆë‹¤.","skills":["data analysis","data visualization","experiment"],"social":[{"name":null,"url":"https://www.linkedin.com/in/jeongmin-ju/"},{"name":null,"url":"https://medium.com/@jeongmin-ju"}],"thumbnail":null},"thumbnail":{"__typename":"ImageSharp","ImageSharp_vertical":{"layout":"constrained","backgroundColor":"#d85858","images":{"fallback":{"src":"/static/0aebbfc3b3c5d42ff832f21a176991cb/19188/season2_thumbnail.png","srcSet":"/static/0aebbfc3b3c5d42ff832f21a176991cb/db297/season2_thumbnail.png 190w,\n/static/0aebbfc3b3c5d42ff832f21a176991cb/19188/season2_thumbnail.png 380w","sizes":"(min-width: 380px) 380px, 100vw"},"sources":[{"srcSet":"/static/0aebbfc3b3c5d42ff832f21a176991cb/228d6/season2_thumbnail.webp 190w,\n/static/0aebbfc3b3c5d42ff832f21a176991cb/6b99c/season2_thumbnail.webp 380w","type":"image/webp","sizes":"(min-width: 380px) 380px, 100vw"}]},"width":380,"height":290},"ImageSharp_hero":{"layout":"constrained","backgroundColor":"#d85858","images":{"fallback":{"src":"/static/0aebbfc3b3c5d42ff832f21a176991cb/5fb32/season2_thumbnail.png","srcSet":"/static/0aebbfc3b3c5d42ff832f21a176991cb/739fd/season2_thumbnail.png 600w,\n/static/0aebbfc3b3c5d42ff832f21a176991cb/5fb32/season2_thumbnail.png 1200w","sizes":"(min-width: 1200px) 1200px, 100vw"},"sources":[{"srcSet":"/static/0aebbfc3b3c5d42ff832f21a176991cb/288e3/season2_thumbnail.webp 600w,\n/static/0aebbfc3b3c5d42ff832f21a176991cb/5b893/season2_thumbnail.webp 1200w","type":"image/webp","sizes":"(min-width: 1200px) 1200px, 100vw"}]},"width":1600,"height":650.6666666666666}}},{"id":"73e5adae-bcf8-52a2-b440-ed8f22f325b7","title":"ì„ ì¶”ì²œí›„ê°ìƒ- Learning Recommendation","slug":"/reco-first-enjoy-after-learning-recommendation/","link":null,"excerpt":"| ğŸ’ğŸ½â€â™‚ï¸ ë³¸ í¬ìŠ¤íŒ…ì˜ ì›ë¬¸ì€  ì´ê³³ ì—ì„œ í™•ì¸í•˜ì‹¤ ìˆ˜ ìˆìŠµë‹ˆë‹¤! ì†Œê°œ  ì•ˆë…•í•˜ì„¸ìš”! ë°ì´í„° ê³¼í•™ì Daneì…â€¦","timeToRead":7,"featured":null,"thumbnailText":null,"date":"2022-06-06","category":{"id":"8d143366-e046-552d-be25-4380e8516613","name":"Machine Learning","slug":"/category/machine-learning/","color":"#F29B9B","icon":null},"author":{"id":"09f29a42-ab7f-57ab-8f12-e29d0e46ce49","name":"ì•ˆì°½ë°°","slug":"/author/dane/","title":"Data Scientist","description":"í†µê³„ì™€ ë¨¸ì‹ ëŸ¬ë‹ì„ ì˜ ì¨ë¨¹ê³  ì‹¶ì€ DS. ê°œì¸í™”ì— ê´€ì‹¬ ë§ì•„ìš”!","skills":["ML/DL","Python","Statistics"],"social":null,"thumbnail":null},"thumbnail":{"__typename":"ImageSharp","ImageSharp_vertical":{"layout":"constrained","backgroundColor":"#d85858","images":{"fallback":{"src":"/static/0aebbfc3b3c5d42ff832f21a176991cb/19188/season2_thumbnail.png","srcSet":"/static/0aebbfc3b3c5d42ff832f21a176991cb/db297/season2_thumbnail.png 190w,\n/static/0aebbfc3b3c5d42ff832f21a176991cb/19188/season2_thumbnail.png 380w","sizes":"(min-width: 380px) 380px, 100vw"},"sources":[{"srcSet":"/static/0aebbfc3b3c5d42ff832f21a176991cb/228d6/season2_thumbnail.webp 190w,\n/static/0aebbfc3b3c5d42ff832f21a176991cb/6b99c/season2_thumbnail.webp 380w","type":"image/webp","sizes":"(min-width: 380px) 380px, 100vw"}]},"width":380,"height":290},"ImageSharp_hero":{"layout":"constrained","backgroundColor":"#d85858","images":{"fallback":{"src":"/static/0aebbfc3b3c5d42ff832f21a176991cb/5fb32/season2_thumbnail.png","srcSet":"/static/0aebbfc3b3c5d42ff832f21a176991cb/739fd/season2_thumbnail.png 600w,\n/static/0aebbfc3b3c5d42ff832f21a176991cb/5fb32/season2_thumbnail.png 1200w","sizes":"(min-width: 1200px) 1200px, 100vw"},"sources":[{"srcSet":"/static/0aebbfc3b3c5d42ff832f21a176991cb/288e3/season2_thumbnail.webp 600w,\n/static/0aebbfc3b3c5d42ff832f21a176991cb/5b893/season2_thumbnail.webp 1200w","type":"image/webp","sizes":"(min-width: 1200px) 1200px, 100vw"}]},"width":1600,"height":650.6666666666666}}}],"pageInfo":{"pageCount":18,"hasPreviousPage":true,"hasNextPage":true,"currentPage":6},"totalCount":107}},"pageContext":{"slug":"/tag/","limit":6,"skip":30,"collectionType":"{tags: {slug: SELECT}","paginatePostsPage":true,"basePath":"/","services":{"algolia":false,"mailchimp":false,"disqus":true,"graphComment":false,"facebookComment":false},"siteUrl":"https://playinpap.github.io","mobileMenu":{"title":"Topics","items":[{"name":"Statistics","slug":"/category/statistics/"},{"name":"Data pipeline","slug":"/category/data-pipeline/"},{"name":"AI","slug":"/category/ai/"},{"name":"Time Series","slug":"/category/time-series/"},{"name":"Notice","slug":"/category/notice/"},{"name":"Visualization","slug":"/category/visualization/"},{"name":"SQL","slug":"/category/sql/"},{"name":"RecSys","slug":"/category/recsys/"},{"name":"Product Analytics","slug":"/category/product-analytics/"},{"name":"Metric","slug":"/category/metric/"},{"name":"Machine Learning","slug":"/category/machine-learning/"},{"name":"Experiment","slug":"/category/experiment/"},{"name":"Etc","slug":"/category/etc/"},{"name":"Data Engineering","slug":"/category/data-engineering/"},{"name":"Data-Driven","slug":"/category/data-driven/"},{"name":"Causal Inference","slug":"/category/causal-inference/"},{"name":"Career","slug":"/category/career/"},{"name":"Career","slug":"/category/career/"},{"name":"Causal Inference","slug":"/category/causal-inference/"},{"name":"Data-Driven","slug":"/category/data-driven/"},{"name":"Data Engineering","slug":"/category/data-engineering/"},{"name":"Etc","slug":"/category/etc/"},{"name":"Experiment","slug":"/category/experiment/"},{"name":"Machine Learning","slug":"/category/machine-learning/"},{"name":"Metric","slug":"/category/metric/"},{"name":"Notice","slug":"/category/notice/"},{"name":"RecSys","slug":"/category/recsys/"},{"name":"Visualization","slug":"/category/visualization/"},{"name":"SQL","slug":"/category/sql/"},{"name":"Product Analytics","slug":"/category/product-analytics/"}]},"darkMode":true,"includeExcerpt":true,"includeTimeToRead":true,"includeTableOfContents":true,"imageQuality":75}},"staticQueryHashes":["1992822086","2313160350"],"slicesMap":{}}