{
    "componentChunkName": "component---packages-blog-gatsby-blog-core-src-templates-collection-category-js",
    "path": "/category/case-studies/",
    "result": {"data":{"collectionInfo":{"id":"f15113ef-3cca-5075-9739-7e5dc2a5e890","name":"Case Studies","slug":"/category/case-studies/","description":"Lorem ipsum dolor sit amet, consectetur adipiscing elit, sed do eiusmod tempor incididunt ut labore."},"posts":{"nodes":[{"id":"944f9063-feb7-5eaa-974e-ed8c3732ed90","title":"Broadcaster Saves Hours of Admin with Innovative Digital Audio Solution","slug":"/broadcaster-saves-hours-of-admin-with-innovative-digital-audio-solution/","link":null,"excerpt":"Lorem markdownum illic venturi instructa nobis Echidnae,  cum  quid magna\nfatebor. Levat placetque…","timeToRead":1,"featured":null,"thumbnailText":null,"date":"May 08, 2020","category":{"id":"f15113ef-3cca-5075-9739-7e5dc2a5e890","name":"Case Studies","slug":"/category/case-studies/","color":"#c6f6d5","icon":"/static/1de85bbd781531b61bf5a25b83d72d32/case-studies.svg"},"author":{"id":"0f0d51cf-84c2-5f2d-bd47-44344347a5d5","name":"Steve Grant","slug":"/author/steve-grant/","title":"Product Designer","description":"Sed commodo, est quis maximus fermentum, massa ipsum euismod neque, in varius risus tellus quis lacus. Sed ac bibendum odio.","skills":["Public Relation","Market Analyst","Designer"],"social":[{"name":"Instagram","url":"https://instagram.com/instagram"},{"name":"Twitter","url":"https://twitter.com/twitter"},{"name":"Website","url":"https://example.com"}],"thumbnail":{"__typename":"ImageSharp","ImageSharp_small":{"layout":"fixed","placeholder":{"fallback":"data:image/svg+xml,%3csvg%20xmlns='http://www.w3.org/2000/svg'%20width='150'%20height='150'%20viewBox='0%200%20150%20150'%20preserveAspectRatio='none'%3e%3cpath%20d='M49%204l-4%208c0%205%200%205%202%205a85%2085%200%2000-22%2024c-3%208-4%2020%200%2025s10%207%2023%207l12%201%203%203%203%204-2%205-1%2015%205%2045v4h35v-8a201%20201%200%2000-2-51c2%200%203%202%2012%2019l7%2015-5%204c-5%205-5%205-2%209%202%201%203%204%204%207%201%205%204%207%204%203%200-2%201-3%202-3l3-2-3-1h-3l-2-4-3-4%204-4c5-4%205-5-2-19-3-7-5-12-4-13l-1-1h-1l-3-4c-3-3-3-3-1-4s5-6%205-8l2-6c2-5%205-17%205-22l2-6%202-3%205-7c14-13%2013-27-4-35-2-2-8-2-38-2H51l-2%204m39%2023c-10%202-28%2012-28%2015%200%202%2016-1%2022-4%203-1%207-1%207%201%200%204%208%206%2012%204s4-2%201-3v-3c1-1%202-1%205%201%208%204%209%203%206-7l-2-5-9-1-14%202m19%2018l-2%201%202%201c3%201%205%203%204%205l-3-1c-2-2-4-1-4%202s9%206%2011%204c2-3%201-13-1-14-1%200-2%200-2%202h-1c-2-2-2-2-4%200m-28%201h-2l-1%201c-3%202-2%206%201%209s4%203%208%203c6%200%2011-11%206-14-3-2-11-1-12%201m-19%203c0%204%200%204-2%204-6-2-7-2-9%201-4%205-1%2012%205%2012%202%200%204%201%207%206l8%208c3%202%204%204%202%204l-3-1c-1-2-3%2011-2%2019%200%207%200%207%2014%208%208%201%2018%200%2020-2s2-12%201-12l-3-2c-1-2-2-3-5-3-4%200-9-2-11-5-3-3-1-3%206-2%206%201%207%201%207-4l1-5c1-1%201-1-1-2l-3-1-4-1-4-2c0-2%204-6%208-7%202%200%203-1%202-2%200-2%202-3%204-1l2%201c2%200%203-3%201-5v-5c-2-5-4-4-6%202-4%2012-20%2012-23%200l-2-4-5-2c-4-2-5-1-5%203m45%2010c-2%201-1%203%202%204%207%202%208%209%201%208-6-2-8%201-6%207s2%206%207%202c3-4%205-9%207-18v-4l-2%201h-9M56%2090c-3%202-14%2028-14%2032l4%205%203%203-3%201c-3%202-4%204-2%2012%201%205%202%207%203%207l1-4c-2-13-3-11%202-13%206-2%206-3%200-7l-5-4%205-12c5-14%207-18%209-20%202-3%200-2-3%200m-13%203c-11%203-26%2014-32%2025s-11%2032-8%2032c1%200%202-2%204-11%206-24%2018-38%2037-44%208-3%207-4-1-2m76%2011c9%209%2016%2023%2020%2040%202%207%205%209%204%202-3-19-13-38-24-45-7-5-7-4%200%203m-52%2010l1%203h33v-2c0-3%200-3-4-2-6%202-21%201-28-2-2%200-2%200-2%203m1%208v3h6l17-1%2010-1c0-3%200-3-17-3l-16-1v3m1%208v3l10-1c19%200%2022-1%2022-3s-1-2-16-2H69v3m1%208v3l14-1c16%200%2016%200%2016-3v-3H85l-15%201v3m14%205H71v6l13-1h14c1%200%202-1%202-3l-1-3-15%201'%20fill='%23d3d3d3'%20fill-rule='evenodd'/%3e%3c/svg%3e"},"images":{"fallback":{"src":"/static/05d0ac7130e48a9a86ba018fac3dbe2d/a7a66/steve-grant.png","srcSet":"/static/05d0ac7130e48a9a86ba018fac3dbe2d/a7a66/steve-grant.png 48w,\n/static/05d0ac7130e48a9a86ba018fac3dbe2d/416a0/steve-grant.png 96w","sizes":"48px"},"sources":[{"srcSet":"/static/05d0ac7130e48a9a86ba018fac3dbe2d/a3542/steve-grant.webp 48w,\n/static/05d0ac7130e48a9a86ba018fac3dbe2d/0f66d/steve-grant.webp 96w","type":"image/webp","sizes":"48px"}]},"width":48,"height":48},"ImageSharp_regular":{"layout":"fixed","placeholder":{"fallback":"data:image/svg+xml,%3csvg%20xmlns='http://www.w3.org/2000/svg'%20width='150'%20height='150'%20viewBox='0%200%20150%20150'%20preserveAspectRatio='none'%3e%3cpath%20d='M49%204l-4%208c0%205%200%205%202%205a85%2085%200%2000-22%2024c-3%208-4%2020%200%2025s10%207%2023%207l12%201%203%203%203%204-2%205-1%2015%205%2045v4h35v-8a201%20201%200%2000-2-51c2%200%203%202%2012%2019l7%2015-5%204c-5%205-5%205-2%209%202%201%203%204%204%207%201%205%204%207%204%203%200-2%201-3%202-3l3-2-3-1h-3l-2-4-3-4%204-4c5-4%205-5-2-19-3-7-5-12-4-13l-1-1h-1l-3-4c-3-3-3-3-1-4s5-6%205-8l2-6c2-5%205-17%205-22l2-6%202-3%205-7c14-13%2013-27-4-35-2-2-8-2-38-2H51l-2%204m39%2023c-10%202-28%2012-28%2015%200%202%2016-1%2022-4%203-1%207-1%207%201%200%204%208%206%2012%204s4-2%201-3v-3c1-1%202-1%205%201%208%204%209%203%206-7l-2-5-9-1-14%202m19%2018l-2%201%202%201c3%201%205%203%204%205l-3-1c-2-2-4-1-4%202s9%206%2011%204c2-3%201-13-1-14-1%200-2%200-2%202h-1c-2-2-2-2-4%200m-28%201h-2l-1%201c-3%202-2%206%201%209s4%203%208%203c6%200%2011-11%206-14-3-2-11-1-12%201m-19%203c0%204%200%204-2%204-6-2-7-2-9%201-4%205-1%2012%205%2012%202%200%204%201%207%206l8%208c3%202%204%204%202%204l-3-1c-1-2-3%2011-2%2019%200%207%200%207%2014%208%208%201%2018%200%2020-2s2-12%201-12l-3-2c-1-2-2-3-5-3-4%200-9-2-11-5-3-3-1-3%206-2%206%201%207%201%207-4l1-5c1-1%201-1-1-2l-3-1-4-1-4-2c0-2%204-6%208-7%202%200%203-1%202-2%200-2%202-3%204-1l2%201c2%200%203-3%201-5v-5c-2-5-4-4-6%202-4%2012-20%2012-23%200l-2-4-5-2c-4-2-5-1-5%203m45%2010c-2%201-1%203%202%204%207%202%208%209%201%208-6-2-8%201-6%207s2%206%207%202c3-4%205-9%207-18v-4l-2%201h-9M56%2090c-3%202-14%2028-14%2032l4%205%203%203-3%201c-3%202-4%204-2%2012%201%205%202%207%203%207l1-4c-2-13-3-11%202-13%206-2%206-3%200-7l-5-4%205-12c5-14%207-18%209-20%202-3%200-2-3%200m-13%203c-11%203-26%2014-32%2025s-11%2032-8%2032c1%200%202-2%204-11%206-24%2018-38%2037-44%208-3%207-4-1-2m76%2011c9%209%2016%2023%2020%2040%202%207%205%209%204%202-3-19-13-38-24-45-7-5-7-4%200%203m-52%2010l1%203h33v-2c0-3%200-3-4-2-6%202-21%201-28-2-2%200-2%200-2%203m1%208v3h6l17-1%2010-1c0-3%200-3-17-3l-16-1v3m1%208v3l10-1c19%200%2022-1%2022-3s-1-2-16-2H69v3m1%208v3l14-1c16%200%2016%200%2016-3v-3H85l-15%201v3m14%205H71v6l13-1h14c1%200%202-1%202-3l-1-3-15%201'%20fill='%23d3d3d3'%20fill-rule='evenodd'/%3e%3c/svg%3e"},"images":{"fallback":{"src":"/static/05d0ac7130e48a9a86ba018fac3dbe2d/46e60/steve-grant.png","srcSet":"/static/05d0ac7130e48a9a86ba018fac3dbe2d/46e60/steve-grant.png 150w,\n/static/05d0ac7130e48a9a86ba018fac3dbe2d/d612b/steve-grant.png 300w","sizes":"150px"},"sources":[{"srcSet":"/static/05d0ac7130e48a9a86ba018fac3dbe2d/ae23d/steve-grant.webp 150w,\n/static/05d0ac7130e48a9a86ba018fac3dbe2d/bd37b/steve-grant.webp 300w","type":"image/webp","sizes":"150px"}]},"width":150,"height":150}}},"thumbnail":null},{"id":"2f0df106-9aa6-51bb-aa18-fc8d87cbf529","title":"Branding Agency Replaced Ten Tools With Just One","slug":"/branding-agency-replaced-ten-tools-with-just-one/","link":null,"excerpt":"Me clausere Erigonen ego Lorem markdownum sustineant oscula caespite ad gratia motus silvis…","timeToRead":1,"featured":true,"thumbnailText":null,"date":"May 06, 2020","category":{"id":"f15113ef-3cca-5075-9739-7e5dc2a5e890","name":"Case Studies","slug":"/category/case-studies/","color":"#c6f6d5","icon":"/static/1de85bbd781531b61bf5a25b83d72d32/case-studies.svg"},"author":null,"thumbnail":null},{"id":"f2100e28-fcdc-568d-9646-1a323ac6f359","title":"Consultancy Saves 30% Time on Managing Daily Work","slug":"/consultancy-saves-30percent-time-on-managing-daily-work/","link":null,"excerpt":"Dona curvo sub evertere quam ultimus aridus Lorem markdownum , sub tecumque, posceret revertar…","timeToRead":1,"featured":null,"thumbnailText":null,"date":"April 29, 2020","category":{"id":"f15113ef-3cca-5075-9739-7e5dc2a5e890","name":"Case Studies","slug":"/category/case-studies/","color":"#c6f6d5","icon":"/static/1de85bbd781531b61bf5a25b83d72d32/case-studies.svg"},"author":{"id":"02228809-8fab-5ee2-aea3-f92fc096e889","name":"John Doe","slug":"/author/john-doe/","title":"Web Developer","description":"Sed commodo, est quis maximus fermentum, massa ipsum euismod neque, in varius risus tellus quis lacus. Sed ac bibendum odio.","skills":["ASP.NET","Assembly","JavaScript"],"social":[{"name":"Instagram","url":"https://instagram.com/instagram"},{"name":"Twitter","url":"https://twitter.com/twitter"},{"name":"Website","url":"https://example.com"}],"thumbnail":{"__typename":"ImageSharp","ImageSharp_small":{"layout":"fixed","placeholder":{"fallback":"data:image/svg+xml,%3csvg%20xmlns='http://www.w3.org/2000/svg'%20width='150'%20height='150'%20viewBox='0%200%20150%20150'%20preserveAspectRatio='none'%3e%3cpath%20d='M48%202c-5%203-12%2014-15%2024-1%205%200%2011%204%2015l2%205%202%208%202%207c1%206%207%2010%2015%2010%205%200%2011%206%209%208l-1%204c0%202%202%201%203-1l3-3c2%200%201-2-3-5l-7-7c-2-3-3-4-5-4-5%200-9-8-6-13%202-3%206-4%209-3%203%203%205%200%205-5-1-4%200-10%203-13l5-7c4-7%207-8%2022-9%2016-1%2017-1%2020%205%205%2011%206%2037%203%2048-6%2017-22%2024-33%2015-4-3-6-3-3%200s9%206%2014%206l4%201-10%2019-3%204-6-6a179%20179%200%2001-19-21l-1%202v7l-2%2031v26h56l-1-5a1097%201097%200%2000-6-59l3-4c12-10%2016-44%207-64l-3-10c0-8%200-8-14-8-20%200-30%204-37%2013-4%207-8%2017-9%2025l-1%206c-3%200-6%205-7%209v4l-3-5c-2-5-2-7-2-15%200-9-1-10-3-2l-1%204-1-3c-2-4-2-10%202-18%205-9%209-13%2016-16l5-2h-4l-8%202m10%2085l-6%201c-19%203-36%2023-45%2054-2%208-2%208%200%208%201%200%202-1%203-6%208-28%2024-49%2042-54l3-1-3%202c-6%208-7%2013-4%2025l2%207-2%204-4%207c-2%204-1%2016%201%2016l1-6c0-5%201-8%204-14l3-7-2-9c-4-10-3-15%204-23l4-5-1%201m51%202l3%206c4%206%204%2010%203%2016-1%205-1%206%201%2011%203%207%206%2019%206%2024%200%203%200%204%202%204%204%200%202-17-3-29-2-4-3-6-2-11%200-6%200-8-4-15-1-3%207%203%2011%207%207%208%2011%2020%2015%2041%201%206%202%207%203%207%203%200%203-1-1-16-6-25-13-36-25-40-2-1-5-2-6-4l-3-1'%20fill='%23d3d3d3'%20fill-rule='evenodd'/%3e%3c/svg%3e"},"images":{"fallback":{"src":"/static/011b3215b6b7e782f02d67aebfa4c319/a7a66/john-doe.png","srcSet":"/static/011b3215b6b7e782f02d67aebfa4c319/a7a66/john-doe.png 48w,\n/static/011b3215b6b7e782f02d67aebfa4c319/416a0/john-doe.png 96w","sizes":"48px"},"sources":[{"srcSet":"/static/011b3215b6b7e782f02d67aebfa4c319/a3542/john-doe.webp 48w,\n/static/011b3215b6b7e782f02d67aebfa4c319/0f66d/john-doe.webp 96w","type":"image/webp","sizes":"48px"}]},"width":48,"height":48},"ImageSharp_regular":{"layout":"fixed","placeholder":{"fallback":"data:image/svg+xml,%3csvg%20xmlns='http://www.w3.org/2000/svg'%20width='150'%20height='150'%20viewBox='0%200%20150%20150'%20preserveAspectRatio='none'%3e%3cpath%20d='M48%202c-5%203-12%2014-15%2024-1%205%200%2011%204%2015l2%205%202%208%202%207c1%206%207%2010%2015%2010%205%200%2011%206%209%208l-1%204c0%202%202%201%203-1l3-3c2%200%201-2-3-5l-7-7c-2-3-3-4-5-4-5%200-9-8-6-13%202-3%206-4%209-3%203%203%205%200%205-5-1-4%200-10%203-13l5-7c4-7%207-8%2022-9%2016-1%2017-1%2020%205%205%2011%206%2037%203%2048-6%2017-22%2024-33%2015-4-3-6-3-3%200s9%206%2014%206l4%201-10%2019-3%204-6-6a179%20179%200%2001-19-21l-1%202v7l-2%2031v26h56l-1-5a1097%201097%200%2000-6-59l3-4c12-10%2016-44%207-64l-3-10c0-8%200-8-14-8-20%200-30%204-37%2013-4%207-8%2017-9%2025l-1%206c-3%200-6%205-7%209v4l-3-5c-2-5-2-7-2-15%200-9-1-10-3-2l-1%204-1-3c-2-4-2-10%202-18%205-9%209-13%2016-16l5-2h-4l-8%202m10%2085l-6%201c-19%203-36%2023-45%2054-2%208-2%208%200%208%201%200%202-1%203-6%208-28%2024-49%2042-54l3-1-3%202c-6%208-7%2013-4%2025l2%207-2%204-4%207c-2%204-1%2016%201%2016l1-6c0-5%201-8%204-14l3-7-2-9c-4-10-3-15%204-23l4-5-1%201m51%202l3%206c4%206%204%2010%203%2016-1%205-1%206%201%2011%203%207%206%2019%206%2024%200%203%200%204%202%204%204%200%202-17-3-29-2-4-3-6-2-11%200-6%200-8-4-15-1-3%207%203%2011%207%207%208%2011%2020%2015%2041%201%206%202%207%203%207%203%200%203-1-1-16-6-25-13-36-25-40-2-1-5-2-6-4l-3-1'%20fill='%23d3d3d3'%20fill-rule='evenodd'/%3e%3c/svg%3e"},"images":{"fallback":{"src":"/static/011b3215b6b7e782f02d67aebfa4c319/46e60/john-doe.png","srcSet":"/static/011b3215b6b7e782f02d67aebfa4c319/46e60/john-doe.png 150w,\n/static/011b3215b6b7e782f02d67aebfa4c319/d612b/john-doe.png 300w","sizes":"150px"},"sources":[{"srcSet":"/static/011b3215b6b7e782f02d67aebfa4c319/ae23d/john-doe.webp 150w,\n/static/011b3215b6b7e782f02d67aebfa4c319/bd37b/john-doe.webp 300w","type":"image/webp","sizes":"150px"}]},"width":150,"height":150}}},"thumbnail":null},{"id":"6e2fad53-6e6a-5bd1-aba8-1f1d740117db","title":"Online shopping data drives offline revenue growth of 410%","slug":"/online-shopping-data-drives-offline-revenue-growth-of-410percent/","link":null,"excerpt":"Nec ego a vidit Lorem  markdownum Ilion. Naides ferox vocantem, Iuno artes patrios tamen,\nspicea…","timeToRead":1,"featured":true,"thumbnailText":null,"date":"April 27, 2020","category":{"id":"f15113ef-3cca-5075-9739-7e5dc2a5e890","name":"Case Studies","slug":"/category/case-studies/","color":"#c6f6d5","icon":"/static/1de85bbd781531b61bf5a25b83d72d32/case-studies.svg"},"author":null,"thumbnail":null},{"id":"e0d07a34-78fd-5f50-969f-166742e8ca4d","title":"SEO and content campaign delivers 2,190% ROI","slug":"/seo-and-content-campaign-delivers-2190percent-roi/","link":null,"excerpt":"Dona curvo sub evertere quam ultimus aridus Lorem markdownum , sub tecumque, posceret revertar…","timeToRead":1,"featured":null,"thumbnailText":null,"date":"April 24, 2020","category":{"id":"f15113ef-3cca-5075-9739-7e5dc2a5e890","name":"Case Studies","slug":"/category/case-studies/","color":"#c6f6d5","icon":"/static/1de85bbd781531b61bf5a25b83d72d32/case-studies.svg"},"author":{"id":"02228809-8fab-5ee2-aea3-f92fc096e889","name":"John Doe","slug":"/author/john-doe/","title":"Web Developer","description":"Sed commodo, est quis maximus fermentum, massa ipsum euismod neque, in varius risus tellus quis lacus. Sed ac bibendum odio.","skills":["ASP.NET","Assembly","JavaScript"],"social":[{"name":"Instagram","url":"https://instagram.com/instagram"},{"name":"Twitter","url":"https://twitter.com/twitter"},{"name":"Website","url":"https://example.com"}],"thumbnail":{"__typename":"ImageSharp","ImageSharp_small":{"layout":"fixed","placeholder":{"fallback":"data:image/svg+xml,%3csvg%20xmlns='http://www.w3.org/2000/svg'%20width='150'%20height='150'%20viewBox='0%200%20150%20150'%20preserveAspectRatio='none'%3e%3cpath%20d='M48%202c-5%203-12%2014-15%2024-1%205%200%2011%204%2015l2%205%202%208%202%207c1%206%207%2010%2015%2010%205%200%2011%206%209%208l-1%204c0%202%202%201%203-1l3-3c2%200%201-2-3-5l-7-7c-2-3-3-4-5-4-5%200-9-8-6-13%202-3%206-4%209-3%203%203%205%200%205-5-1-4%200-10%203-13l5-7c4-7%207-8%2022-9%2016-1%2017-1%2020%205%205%2011%206%2037%203%2048-6%2017-22%2024-33%2015-4-3-6-3-3%200s9%206%2014%206l4%201-10%2019-3%204-6-6a179%20179%200%2001-19-21l-1%202v7l-2%2031v26h56l-1-5a1097%201097%200%2000-6-59l3-4c12-10%2016-44%207-64l-3-10c0-8%200-8-14-8-20%200-30%204-37%2013-4%207-8%2017-9%2025l-1%206c-3%200-6%205-7%209v4l-3-5c-2-5-2-7-2-15%200-9-1-10-3-2l-1%204-1-3c-2-4-2-10%202-18%205-9%209-13%2016-16l5-2h-4l-8%202m10%2085l-6%201c-19%203-36%2023-45%2054-2%208-2%208%200%208%201%200%202-1%203-6%208-28%2024-49%2042-54l3-1-3%202c-6%208-7%2013-4%2025l2%207-2%204-4%207c-2%204-1%2016%201%2016l1-6c0-5%201-8%204-14l3-7-2-9c-4-10-3-15%204-23l4-5-1%201m51%202l3%206c4%206%204%2010%203%2016-1%205-1%206%201%2011%203%207%206%2019%206%2024%200%203%200%204%202%204%204%200%202-17-3-29-2-4-3-6-2-11%200-6%200-8-4-15-1-3%207%203%2011%207%207%208%2011%2020%2015%2041%201%206%202%207%203%207%203%200%203-1-1-16-6-25-13-36-25-40-2-1-5-2-6-4l-3-1'%20fill='%23d3d3d3'%20fill-rule='evenodd'/%3e%3c/svg%3e"},"images":{"fallback":{"src":"/static/011b3215b6b7e782f02d67aebfa4c319/a7a66/john-doe.png","srcSet":"/static/011b3215b6b7e782f02d67aebfa4c319/a7a66/john-doe.png 48w,\n/static/011b3215b6b7e782f02d67aebfa4c319/416a0/john-doe.png 96w","sizes":"48px"},"sources":[{"srcSet":"/static/011b3215b6b7e782f02d67aebfa4c319/a3542/john-doe.webp 48w,\n/static/011b3215b6b7e782f02d67aebfa4c319/0f66d/john-doe.webp 96w","type":"image/webp","sizes":"48px"}]},"width":48,"height":48},"ImageSharp_regular":{"layout":"fixed","placeholder":{"fallback":"data:image/svg+xml,%3csvg%20xmlns='http://www.w3.org/2000/svg'%20width='150'%20height='150'%20viewBox='0%200%20150%20150'%20preserveAspectRatio='none'%3e%3cpath%20d='M48%202c-5%203-12%2014-15%2024-1%205%200%2011%204%2015l2%205%202%208%202%207c1%206%207%2010%2015%2010%205%200%2011%206%209%208l-1%204c0%202%202%201%203-1l3-3c2%200%201-2-3-5l-7-7c-2-3-3-4-5-4-5%200-9-8-6-13%202-3%206-4%209-3%203%203%205%200%205-5-1-4%200-10%203-13l5-7c4-7%207-8%2022-9%2016-1%2017-1%2020%205%205%2011%206%2037%203%2048-6%2017-22%2024-33%2015-4-3-6-3-3%200s9%206%2014%206l4%201-10%2019-3%204-6-6a179%20179%200%2001-19-21l-1%202v7l-2%2031v26h56l-1-5a1097%201097%200%2000-6-59l3-4c12-10%2016-44%207-64l-3-10c0-8%200-8-14-8-20%200-30%204-37%2013-4%207-8%2017-9%2025l-1%206c-3%200-6%205-7%209v4l-3-5c-2-5-2-7-2-15%200-9-1-10-3-2l-1%204-1-3c-2-4-2-10%202-18%205-9%209-13%2016-16l5-2h-4l-8%202m10%2085l-6%201c-19%203-36%2023-45%2054-2%208-2%208%200%208%201%200%202-1%203-6%208-28%2024-49%2042-54l3-1-3%202c-6%208-7%2013-4%2025l2%207-2%204-4%207c-2%204-1%2016%201%2016l1-6c0-5%201-8%204-14l3-7-2-9c-4-10-3-15%204-23l4-5-1%201m51%202l3%206c4%206%204%2010%203%2016-1%205-1%206%201%2011%203%207%206%2019%206%2024%200%203%200%204%202%204%204%200%202-17-3-29-2-4-3-6-2-11%200-6%200-8-4-15-1-3%207%203%2011%207%207%208%2011%2020%2015%2041%201%206%202%207%203%207%203%200%203-1-1-16-6-25-13-36-25-40-2-1-5-2-6-4l-3-1'%20fill='%23d3d3d3'%20fill-rule='evenodd'/%3e%3c/svg%3e"},"images":{"fallback":{"src":"/static/011b3215b6b7e782f02d67aebfa4c319/46e60/john-doe.png","srcSet":"/static/011b3215b6b7e782f02d67aebfa4c319/46e60/john-doe.png 150w,\n/static/011b3215b6b7e782f02d67aebfa4c319/d612b/john-doe.png 300w","sizes":"150px"},"sources":[{"srcSet":"/static/011b3215b6b7e782f02d67aebfa4c319/ae23d/john-doe.webp 150w,\n/static/011b3215b6b7e782f02d67aebfa4c319/bd37b/john-doe.webp 300w","type":"image/webp","sizes":"150px"}]},"width":150,"height":150}}},"thumbnail":null},{"id":"7683849f-b9c4-56cb-968f-b6aad991316b","title":"Supermarket Chain’s Site Redesign Boosts Online Sales And Market Share","slug":"/supermarket-chains-site-redesign-boosts-online-sales-and-market-share/","link":null,"excerpt":"Dona curvo sub evertere quam ultimus aridus Lorem markdownum , sub tecumque, posceret revertar…","timeToRead":1,"featured":null,"thumbnailText":null,"date":"April 22, 2020","category":{"id":"f15113ef-3cca-5075-9739-7e5dc2a5e890","name":"Case Studies","slug":"/category/case-studies/","color":"#c6f6d5","icon":"/static/1de85bbd781531b61bf5a25b83d72d32/case-studies.svg"},"author":{"id":"02228809-8fab-5ee2-aea3-f92fc096e889","name":"John Doe","slug":"/author/john-doe/","title":"Web Developer","description":"Sed commodo, est quis maximus fermentum, massa ipsum euismod neque, in varius risus tellus quis lacus. Sed ac bibendum odio.","skills":["ASP.NET","Assembly","JavaScript"],"social":[{"name":"Instagram","url":"https://instagram.com/instagram"},{"name":"Twitter","url":"https://twitter.com/twitter"},{"name":"Website","url":"https://example.com"}],"thumbnail":{"__typename":"ImageSharp","ImageSharp_small":{"layout":"fixed","placeholder":{"fallback":"data:image/svg+xml,%3csvg%20xmlns='http://www.w3.org/2000/svg'%20width='150'%20height='150'%20viewBox='0%200%20150%20150'%20preserveAspectRatio='none'%3e%3cpath%20d='M48%202c-5%203-12%2014-15%2024-1%205%200%2011%204%2015l2%205%202%208%202%207c1%206%207%2010%2015%2010%205%200%2011%206%209%208l-1%204c0%202%202%201%203-1l3-3c2%200%201-2-3-5l-7-7c-2-3-3-4-5-4-5%200-9-8-6-13%202-3%206-4%209-3%203%203%205%200%205-5-1-4%200-10%203-13l5-7c4-7%207-8%2022-9%2016-1%2017-1%2020%205%205%2011%206%2037%203%2048-6%2017-22%2024-33%2015-4-3-6-3-3%200s9%206%2014%206l4%201-10%2019-3%204-6-6a179%20179%200%2001-19-21l-1%202v7l-2%2031v26h56l-1-5a1097%201097%200%2000-6-59l3-4c12-10%2016-44%207-64l-3-10c0-8%200-8-14-8-20%200-30%204-37%2013-4%207-8%2017-9%2025l-1%206c-3%200-6%205-7%209v4l-3-5c-2-5-2-7-2-15%200-9-1-10-3-2l-1%204-1-3c-2-4-2-10%202-18%205-9%209-13%2016-16l5-2h-4l-8%202m10%2085l-6%201c-19%203-36%2023-45%2054-2%208-2%208%200%208%201%200%202-1%203-6%208-28%2024-49%2042-54l3-1-3%202c-6%208-7%2013-4%2025l2%207-2%204-4%207c-2%204-1%2016%201%2016l1-6c0-5%201-8%204-14l3-7-2-9c-4-10-3-15%204-23l4-5-1%201m51%202l3%206c4%206%204%2010%203%2016-1%205-1%206%201%2011%203%207%206%2019%206%2024%200%203%200%204%202%204%204%200%202-17-3-29-2-4-3-6-2-11%200-6%200-8-4-15-1-3%207%203%2011%207%207%208%2011%2020%2015%2041%201%206%202%207%203%207%203%200%203-1-1-16-6-25-13-36-25-40-2-1-5-2-6-4l-3-1'%20fill='%23d3d3d3'%20fill-rule='evenodd'/%3e%3c/svg%3e"},"images":{"fallback":{"src":"/static/011b3215b6b7e782f02d67aebfa4c319/a7a66/john-doe.png","srcSet":"/static/011b3215b6b7e782f02d67aebfa4c319/a7a66/john-doe.png 48w,\n/static/011b3215b6b7e782f02d67aebfa4c319/416a0/john-doe.png 96w","sizes":"48px"},"sources":[{"srcSet":"/static/011b3215b6b7e782f02d67aebfa4c319/a3542/john-doe.webp 48w,\n/static/011b3215b6b7e782f02d67aebfa4c319/0f66d/john-doe.webp 96w","type":"image/webp","sizes":"48px"}]},"width":48,"height":48},"ImageSharp_regular":{"layout":"fixed","placeholder":{"fallback":"data:image/svg+xml,%3csvg%20xmlns='http://www.w3.org/2000/svg'%20width='150'%20height='150'%20viewBox='0%200%20150%20150'%20preserveAspectRatio='none'%3e%3cpath%20d='M48%202c-5%203-12%2014-15%2024-1%205%200%2011%204%2015l2%205%202%208%202%207c1%206%207%2010%2015%2010%205%200%2011%206%209%208l-1%204c0%202%202%201%203-1l3-3c2%200%201-2-3-5l-7-7c-2-3-3-4-5-4-5%200-9-8-6-13%202-3%206-4%209-3%203%203%205%200%205-5-1-4%200-10%203-13l5-7c4-7%207-8%2022-9%2016-1%2017-1%2020%205%205%2011%206%2037%203%2048-6%2017-22%2024-33%2015-4-3-6-3-3%200s9%206%2014%206l4%201-10%2019-3%204-6-6a179%20179%200%2001-19-21l-1%202v7l-2%2031v26h56l-1-5a1097%201097%200%2000-6-59l3-4c12-10%2016-44%207-64l-3-10c0-8%200-8-14-8-20%200-30%204-37%2013-4%207-8%2017-9%2025l-1%206c-3%200-6%205-7%209v4l-3-5c-2-5-2-7-2-15%200-9-1-10-3-2l-1%204-1-3c-2-4-2-10%202-18%205-9%209-13%2016-16l5-2h-4l-8%202m10%2085l-6%201c-19%203-36%2023-45%2054-2%208-2%208%200%208%201%200%202-1%203-6%208-28%2024-49%2042-54l3-1-3%202c-6%208-7%2013-4%2025l2%207-2%204-4%207c-2%204-1%2016%201%2016l1-6c0-5%201-8%204-14l3-7-2-9c-4-10-3-15%204-23l4-5-1%201m51%202l3%206c4%206%204%2010%203%2016-1%205-1%206%201%2011%203%207%206%2019%206%2024%200%203%200%204%202%204%204%200%202-17-3-29-2-4-3-6-2-11%200-6%200-8-4-15-1-3%207%203%2011%207%207%208%2011%2020%2015%2041%201%206%202%207%203%207%203%200%203-1-1-16-6-25-13-36-25-40-2-1-5-2-6-4l-3-1'%20fill='%23d3d3d3'%20fill-rule='evenodd'/%3e%3c/svg%3e"},"images":{"fallback":{"src":"/static/011b3215b6b7e782f02d67aebfa4c319/46e60/john-doe.png","srcSet":"/static/011b3215b6b7e782f02d67aebfa4c319/46e60/john-doe.png 150w,\n/static/011b3215b6b7e782f02d67aebfa4c319/d612b/john-doe.png 300w","sizes":"150px"},"sources":[{"srcSet":"/static/011b3215b6b7e782f02d67aebfa4c319/ae23d/john-doe.webp 150w,\n/static/011b3215b6b7e782f02d67aebfa4c319/bd37b/john-doe.webp 300w","type":"image/webp","sizes":"150px"}]},"width":150,"height":150}}},"thumbnail":null}],"pageInfo":{"pageCount":2,"hasPreviousPage":false,"hasNextPage":true,"currentPage":1},"totalCount":9}},"pageContext":{"slug":"/category/case-studies/","limit":6,"skip":0,"collectionType":"category","paginatePostsPage":true,"basePath":"/","services":{"algolia":false,"mailchimp":false,"disqus":false,"graphComment":false,"facebookComment":false},"siteUrl":null,"mobileMenu":{"title":"Topics","items":[{"name":"Advertising","slug":"/category/advertising/"},{"name":"Case Studies","slug":"/category/case-studies/"},{"name":"Causal Inference","slug":"/category/causal-inference/"},{"name":"Experiment","slug":"/category/experiment/"},{"name":"Metric","slug":"/category/metric/"},{"name":"Visualization","slug":"/category/visualization/"}]},"darkMode":true,"includeExcerpt":true,"includeTimeToRead":true,"includeTableOfContents":true,"imageQuality":75}},
    "staticQueryHashes": ["1992822086","3117598128"]}