{"componentChunkName":"component---packages-blog-gatsby-blog-core-src-templates-collection-tag-js","path":"/tag/page/7/","result":{"data":{"collectionInfo":{"id":"5d632e66-67c0-572b-b021-b390ea561caa","name":"íšŒì‚¬","slug":"/tag/"},"posts":{"nodes":[{"id":"590e6c4c-f8a6-55ff-876a-3548d17b6b7a","title":"Carrying Capacity ê°œë…ì„ í†µí•´ ê³ ê° ì •ì˜í•˜ê¸°","slug":"/understanding-carrying-capacity/","link":null,"excerpt":"ì–´ë– í•œ ë¹„ì¦ˆë‹ˆìŠ¤ì´ë“ ì§€ ë§ì€ ì‚¬ëŒì„ ê³ ê°ìœ¼ë¡œ ë§Œë“¤ê³  ê·¸ë“¤ì´ ì œí’ˆ/ì„œë¹„ìŠ¤ì— ë§Œì¡±í•˜ì—¬ ì§€ì†ì ìœ¼ë¡œ ì´ìš© í˜¹ì€ êµ¬ë§¤â€¦","timeToRead":7,"featured":null,"thumbnailText":null,"date":"2022-05-31","category":{"id":"548e726d-f106-558f-8ae7-d58a9f70d36e","name":"Metric","slug":"/category/metric/","color":"#e9d8fd","icon":null},"author":{"id":"d67d61fc-3c70-50a5-9c08-4698ca06b0b3","name":"ì¥ìœ ì •","slug":"/author/allison/","title":"Product Manager","description":"ì„¸ìƒì— ê¸ì •ì ì¸ ì˜í–¥ë ¥ì„ ë¼ì¹  ìˆ˜ ìˆëŠ” ì œí’ˆê³¼ ì„œë¹„ìŠ¤ë¥¼ ë§Œë“¤ê³  ì‹¶ìŠµë‹ˆë‹¤ :D","skills":["Product Management","Communication"],"social":[{"name":"Linkedin","url":"https://www.linkedin.com/in/allison-youjeong-chang-7bb68b114/"}],"thumbnail":null},"thumbnail":{"__typename":"ImageSharp","ImageSharp_vertical":{"layout":"constrained","backgroundColor":"#d85858","images":{"fallback":{"src":"/static/0aebbfc3b3c5d42ff832f21a176991cb/19188/season2_thumbnail.png","srcSet":"/static/0aebbfc3b3c5d42ff832f21a176991cb/db297/season2_thumbnail.png 190w,\n/static/0aebbfc3b3c5d42ff832f21a176991cb/19188/season2_thumbnail.png 380w","sizes":"(min-width: 380px) 380px, 100vw"},"sources":[{"srcSet":"/static/0aebbfc3b3c5d42ff832f21a176991cb/228d6/season2_thumbnail.webp 190w,\n/static/0aebbfc3b3c5d42ff832f21a176991cb/6b99c/season2_thumbnail.webp 380w","type":"image/webp","sizes":"(min-width: 380px) 380px, 100vw"}]},"width":380,"height":290},"ImageSharp_hero":{"layout":"constrained","backgroundColor":"#d85858","images":{"fallback":{"src":"/static/0aebbfc3b3c5d42ff832f21a176991cb/5fb32/season2_thumbnail.png","srcSet":"/static/0aebbfc3b3c5d42ff832f21a176991cb/739fd/season2_thumbnail.png 600w,\n/static/0aebbfc3b3c5d42ff832f21a176991cb/5fb32/season2_thumbnail.png 1200w","sizes":"(min-width: 1200px) 1200px, 100vw"},"sources":[{"srcSet":"/static/0aebbfc3b3c5d42ff832f21a176991cb/288e3/season2_thumbnail.webp 600w,\n/static/0aebbfc3b3c5d42ff832f21a176991cb/5b893/season2_thumbnail.webp 1200w","type":"image/webp","sizes":"(min-width: 1200px) 1200px, 100vw"}]},"width":1600,"height":650.6666666666666}}},{"id":"095a5569-372e-5b26-9588-5b0228bc9ca1","title":"ì¸ê³¼ì¶”ë¡  ë„¤ë²ˆì§¸ - ë„êµ¬ë³€ìˆ˜","slug":"/casual-inference-instrument-variable/","link":null,"excerpt":"ë“¤ì–´ê°€ê¸° ì•ì„œ ì§€ë‚œ ê¸€ì— ì´ì–´ì„œ ì¸ê³¼ íš¨ê³¼ë¥¼ ì¶”ì •í•˜ëŠ” ë°©ë²•ì— ëŒ€í•´ ì†Œê°œí•˜ê³ ì í•©ë‹ˆë‹¤. \nì´ë²ˆì—ëŠ” ë„êµ¬ë³€ìˆ˜ì—â€¦","timeToRead":2,"featured":null,"thumbnailText":null,"date":"2022-05-23","category":{"id":"91a926e7-e227-537c-9237-db3e7379964e","name":"Causal Inference","slug":"/category/causal-inference/","color":"#c6f6d5","icon":null},"author":{"id":"c8a036a4-0cad-5963-ac2f-955ee1e03576","name":"ê²½ìœ¤ì˜","slug":"/author/yun/","title":"Job Seeker","description":"ë°ì´í„° ë¶„ì„ê°€ê°€ ë˜ê¸° ìœ„í•´ ì¤€ë¹„í•˜ê³  ìˆìŠµë‹ˆë‹¤~!","skills":["Data Analysis","R","SQL","Python"],"social":null,"thumbnail":null},"thumbnail":null},{"id":"47287e60-43a3-5bd4-ad7a-5d9965a5777e","title":"ìƒ˜í”Œì‚¬ì´ì¦ˆ ê³„ì‚°ê¸°ì˜ ê³µì‹ ì´í•´ì™€ ì‘ìš©","slug":"/sample-size-formula/","link":null,"excerpt":"ì‹œì‘í•˜ë©° PAP ë‚´ë¶€ì—ì„œ AB í…ŒìŠ¤íŒ… ìŠ¤í„°ë”” ë¦¬ë“œë¥¼ ì¤€ë¹„ë˜ ì¤‘ sample size ê³„ì‚°ì— ëŒ€í•œ ìˆ˜ì‹ì ì¸ â€¦","timeToRead":2,"featured":null,"thumbnailText":null,"date":"2022-05-23","category":{"id":"1c4c37b8-393e-55bb-a4bc-8261b121a85c","name":"Experiment","slug":"/category/experiment/","color":"#e9d8fd","icon":null},"author":{"id":"46ce463b-3ca7-54f9-b756-363a4434532e","name":"ì •ì›í˜","slug":"/author/marvin/","title":"Economist","description":"ë„¤íŠ¸ì›Œí¬, ì–‘ë©´ì‹œì¥ì—ì„œì˜ ì¸ê³¼ì¶”ë¡  ë° ì‹¤í—˜ê³¼ (ë¦°)ìŠ¤íƒ€íŠ¸ì—…ì— ê´€ì‹¬ì´ ìˆìŠµë‹ˆë‹¤. ì‚¬íšŒì  ë¬¸ì œë¥¼ í”„ë¡œë•íŠ¸ë¥¼ í†µí•´ì„œ í’€ê³ ì í•©ë‹ˆë‹¤. ","skills":null,"social":null,"thumbnail":null},"thumbnail":null},{"id":"6cab50e5-dccc-53b0-bdf5-d01673acdf05","title":"2022ë…„ ì§€ì¼œë´ì•¼í•  ë°ì´í„° ì—…ê³„ íŠ¸ë Œë“œ","slug":"/data-analytics-trends-to-watch-in-2022-ko/","link":null,"excerpt":"ì´ ê¸€ì€ ë¯¸ë””ì—„ì— ê²Œì¬ëœ Taylor Brownlowì˜ ì•„í‹°í´( Data & Analytics Trendsâ€¦","timeToRead":6,"featured":null,"thumbnailText":null,"date":"2022-05-23","category":{"id":"72591dba-cc76-502b-b1a6-e70b32d12956","name":"Data-Driven","slug":"/category/data-driven/","color":"#fefcbf","icon":null},"author":{"id":"b722c0f5-7a12-5c55-a8b6-ab988ad675de","name":"ê¹€ë¯¼ì£¼","slug":"/author/minju/","title":"Data Analyst","description":"ëª¨ë“  ì˜ì‚¬ê²°ì •ì˜ ìˆœê°„ì— ë°ì´í„°ê°€ í•¨ê»˜í•˜ë„ë¡ êµìœ¡ê³¼ ì»¨ì„¤íŒ… ì„œë¹„ìŠ¤ë¥¼ ì œê³µí•˜ëŠ” ë°ì´í„°ë¦¬ì•ˆì—ì„œ ì¼í•˜ê³  ìˆìŠµë‹ˆë‹¤.","skills":["Data Analysis","Business Strategy","Growth Hacking"],"social":[{"name":"Linkedin","url":"https://www.linkedin.com/in/minjukim-analyst/"}],"thumbnail":null},"thumbnail":{"__typename":"ImageSharp","ImageSharp_vertical":{"layout":"constrained","backgroundColor":"#9848f8","images":{"fallback":{"src":"/static/8bba7cde5f41f91f0f72112b2e8ee4b2/144fe/the-future-dude-by-joshua-coleman.jpg","srcSet":"/static/8bba7cde5f41f91f0f72112b2e8ee4b2/9d7b9/the-future-dude-by-joshua-coleman.jpg 190w,\n/static/8bba7cde5f41f91f0f72112b2e8ee4b2/144fe/the-future-dude-by-joshua-coleman.jpg 380w","sizes":"(min-width: 380px) 380px, 100vw"},"sources":[{"srcSet":"/static/8bba7cde5f41f91f0f72112b2e8ee4b2/228d6/the-future-dude-by-joshua-coleman.webp 190w,\n/static/8bba7cde5f41f91f0f72112b2e8ee4b2/6b99c/the-future-dude-by-joshua-coleman.webp 380w","type":"image/webp","sizes":"(min-width: 380px) 380px, 100vw"}]},"width":380,"height":290},"ImageSharp_hero":{"layout":"constrained","backgroundColor":"#9848f8","images":{"fallback":{"src":"/static/8bba7cde5f41f91f0f72112b2e8ee4b2/fab0a/the-future-dude-by-joshua-coleman.jpg","srcSet":"/static/8bba7cde5f41f91f0f72112b2e8ee4b2/86168/the-future-dude-by-joshua-coleman.jpg 700w,\n/static/8bba7cde5f41f91f0f72112b2e8ee4b2/fab0a/the-future-dude-by-joshua-coleman.jpg 1400w","sizes":"(min-width: 1400px) 1400px, 100vw"},"sources":[{"srcSet":"/static/8bba7cde5f41f91f0f72112b2e8ee4b2/aca1f/the-future-dude-by-joshua-coleman.webp 700w,\n/static/8bba7cde5f41f91f0f72112b2e8ee4b2/dd088/the-future-dude-by-joshua-coleman.webp 1400w","type":"image/webp","sizes":"(min-width: 1400px) 1400px, 100vw"}]},"width":1600,"height":650.2857142857143}}},{"id":"c96777f5-0e8b-5a29-b16b-a331bd1cbc65","title":"ì°ë¨¹í•´ë³´ëŠ” Data & Analytics Governance","slug":"/data-and-analytics-governance/","link":null,"excerpt":"ğŸ™†ğŸ»â€â™‚ï¸ ë³¸ ê¸€ì€  ê°œì¸ë¸”ë¡œê·¸ ì—ì„œë„ í™•ì¸ ê°€ëŠ¥í•©ë‹ˆë‹¤. ë¶€ì œ : ì‚¬ë§‰ì— ìš©ìˆ˜ë¡œ ë§Œë“¤ê¸° (ì‚¬ì§„ ì¶œì²˜ :  httpâ€¦","timeToRead":4,"featured":null,"thumbnailText":null,"date":"2022-05-23","category":{"id":"72591dba-cc76-502b-b1a6-e70b32d12956","name":"Data-Driven","slug":"/category/data-driven/","color":"#fefcbf","icon":null},"author":{"id":"e50bc042-c8e7-52a2-acb4-70d16dfbc10e","name":"ë°•ì¢…ìµ","slug":"/author/chris/","title":"Analytics Engineer","description":"ë„ë¦¬ ë°ì´í„° ì†Œë¹„ìë“¤ì—ê²Œ ì´ë¡œìš´ í™˜ê²½ì„ ì œê³µí•  ìˆ˜ ìˆê¸°ë¥¼ í¬ë§í•©ë‹ˆë‹¤.","skills":["Analytics Governance","Data Analysis","ML/DL","Statistics","Python","SQL","Visualization","Communication","Product Strategy"],"social":[{"name":"LinkedIn","url":"https://www.linkedin.com/in/jongikpark/"}],"thumbnail":null},"thumbnail":null},{"id":"09b8e066-94f9-5e29-93f1-226fee21c066","title":"ì†Œë¹„ì ë°ì´í„° ê¸°ë°˜ ì†Œë¹„ ì˜ˆì¸¡ ê²½ì§„ëŒ€íšŒ ì°¸ê°€ ê¸°ë¡","slug":"/record-of-consumption-prediction-contest/","link":null,"excerpt":"ì´ ê¸€ì€  ì†Œë¹„ì ë°ì´í„° ê¸°ë°˜ ì†Œë¹„ ì˜ˆì¸¡ ê²½ì§„ëŒ€íšŒ (ë°ì´ì½˜)  ì— ì°¸ì—¬í•œ ì €ì˜ ê²½í—˜ê³¼ ì½”ë“œë¥¼ ê³µìœ í•˜ëŠ” ê¸€ì…â€¦","timeToRead":4,"featured":null,"thumbnailText":null,"date":"2022-05-15","category":{"id":"1c4c37b8-393e-55bb-a4bc-8261b121a85c","name":"Experiment","slug":"/category/experiment/","color":"#e9d8fd","icon":null},"author":{"id":"02bcdbb4-b89e-5b5b-9738-3c8b6c209b30","name":"ê¹€í¬ì˜","slug":"/author/heeyoung/","title":"Data Analyst","description":"ì‚¬ëŒì˜ ì‹¬ë¦¬ì™€ í–‰ë™ì„ ì¤‘ì‹¬ìœ¼ë¡œ ë¶„ì„ì„í•˜ëŠ” ë°ì´í„° ë¶„ì„ê°€ì…ë‹ˆë‹¤.","skills":["Data Analysis","Python","Communication"],"social":null,"thumbnail":null},"thumbnail":{"__typename":"ImageSharp","ImageSharp_vertical":{"layout":"constrained","backgroundColor":"#d85858","images":{"fallback":{"src":"/static/0aebbfc3b3c5d42ff832f21a176991cb/19188/season2_thumbnail.png","srcSet":"/static/0aebbfc3b3c5d42ff832f21a176991cb/db297/season2_thumbnail.png 190w,\n/static/0aebbfc3b3c5d42ff832f21a176991cb/19188/season2_thumbnail.png 380w","sizes":"(min-width: 380px) 380px, 100vw"},"sources":[{"srcSet":"/static/0aebbfc3b3c5d42ff832f21a176991cb/228d6/season2_thumbnail.webp 190w,\n/static/0aebbfc3b3c5d42ff832f21a176991cb/6b99c/season2_thumbnail.webp 380w","type":"image/webp","sizes":"(min-width: 380px) 380px, 100vw"}]},"width":380,"height":290},"ImageSharp_hero":{"layout":"constrained","backgroundColor":"#d85858","images":{"fallback":{"src":"/static/0aebbfc3b3c5d42ff832f21a176991cb/5fb32/season2_thumbnail.png","srcSet":"/static/0aebbfc3b3c5d42ff832f21a176991cb/739fd/season2_thumbnail.png 600w,\n/static/0aebbfc3b3c5d42ff832f21a176991cb/5fb32/season2_thumbnail.png 1200w","sizes":"(min-width: 1200px) 1200px, 100vw"},"sources":[{"srcSet":"/static/0aebbfc3b3c5d42ff832f21a176991cb/288e3/season2_thumbnail.webp 600w,\n/static/0aebbfc3b3c5d42ff832f21a176991cb/5b893/season2_thumbnail.webp 1200w","type":"image/webp","sizes":"(min-width: 1200px) 1200px, 100vw"}]},"width":1600,"height":650.6666666666666}}}],"pageInfo":{"pageCount":18,"hasPreviousPage":true,"hasNextPage":true,"currentPage":7},"totalCount":104}},"pageContext":{"slug":"/tag/","limit":6,"skip":36,"collectionType":"tags","paginatePostsPage":true,"basePath":"/","services":{"algolia":false,"mailchimp":false,"disqus":true,"graphComment":false,"facebookComment":false},"siteUrl":"https://playinpap.github.io","mobileMenu":{"title":"Topics","items":[{"name":"AI","slug":"/category/ai/"},{"name":"Time Series","slug":"/category/time-series/"},{"name":"Notice","slug":"/category/notice/"},{"name":"Visualization","slug":"/category/visualization/"},{"name":"SQL","slug":"/category/sql/"},{"name":"RecSys","slug":"/category/recsys/"},{"name":"Product Analytics","slug":"/category/product-analytics/"},{"name":"Metric","slug":"/category/metric/"},{"name":"Machine Learning","slug":"/category/machine-learning/"},{"name":"Experiment","slug":"/category/experiment/"},{"name":"Etc","slug":"/category/etc/"},{"name":"Data Engineering","slug":"/category/data-engineering/"},{"name":"Data-Driven","slug":"/category/data-driven/"},{"name":"Causal Inference","slug":"/category/causal-inference/"},{"name":"Career","slug":"/category/career/"},{"name":"Career","slug":"/category/career/"},{"name":"Causal Inference","slug":"/category/causal-inference/"},{"name":"Data-Driven","slug":"/category/data-driven/"},{"name":"Data Engineering","slug":"/category/data-engineering/"},{"name":"Etc","slug":"/category/etc/"},{"name":"Experiment","slug":"/category/experiment/"},{"name":"Machine Learning","slug":"/category/machine-learning/"},{"name":"Metric","slug":"/category/metric/"},{"name":"Notice","slug":"/category/notice/"},{"name":"Product Analytics","slug":"/category/product-analytics/"},{"name":"RecSys","slug":"/category/recsys/"},{"name":"SQL","slug":"/category/sql/"},{"name":"Visualization","slug":"/category/visualization/"}]},"darkMode":true,"includeExcerpt":true,"includeTimeToRead":true,"includeTableOfContents":true,"imageQuality":75}},"staticQueryHashes":["1992822086","2313160350"]}