{
    "componentChunkName": "component---packages-blog-gatsby-blog-core-src-templates-collection-category-js",
    "path": "/category/etc/",
    "result": {"data":{"collectionInfo":{"id":"d8f82cd3-f986-5d73-9245-ab200509c781","name":"Etc","slug":"/category/etc/","description":"기타"},"posts":{"nodes":[{"id":"aac3a970-3ef2-5c72-a040-31c2885666b1","title":"데이터 분석, SQL이 문제가 아니야!","slug":"/sql-is-not-the-problem/","link":null,"excerpt":"원 글은  작성자 블로그 에서 보실 수 있습니다. 하도 데이터, 데이터 외쳐 대는 통에 SQL을 배웠지만,…","timeToRead":3,"featured":null,"thumbnailText":null,"date":"2021-12-27","category":{"id":"d8f82cd3-f986-5d73-9245-ab200509c781","name":"Etc","slug":"/category/etc/","color":"#bee3f8","icon":"/static/93c9c75517e1a6e95deaecabf3d1d050/etc.svg"},"author":{"id":"6591f97b-c910-575e-b1ba-7e63a0779458","name":"이윤희","slug":"/author/noel/","title":"Strategy Manager","description":"논리와 데이터 기반의 탁월한 제너럴리스트를 지향합니다.","skills":["Data Analysis","Communication","SQL","Business Strategy"],"social":[{"name":"Website","url":"https://medium.com/@connect2yh"}],"thumbnail":{"__typename":"ImageSharp","ImageSharp_small":{"layout":"fixed","placeholder":{"fallback":"data:image/svg+xml,%3csvg%20xmlns='http://www.w3.org/2000/svg'%20width='150'%20height='150'%20viewBox='0%200%20150%20150'%20preserveAspectRatio='none'%3e%3cpath%20d='M49%206a49%2049%200%2000-12%2047l1%204-4%205c-9%2011-12%2021-7%2028l3%204-4%205c-7%2010-18%2040-18%2049%200%204%202%202%203-3%204-18%2010-33%2016-43%204-6%205-6%208-5%202%200%205%201%207%203l8%204c5%200%207%201%207%205%200%202%201%203%202%202h7c6%200%207-1%208-4l2-4%205%202%205%203-1%2021%201%2021c1%200%202-5%202-18%200-10%200-11%202-11l2-1-3-1c-2%200-2%200-2-6s0-7%202-8l1-1%204-9%203-9%202%203%204%205%201%202c-2%200-13%207-13%208l7-3%205-3%204%202c4%202%205%203%202%205-2%202%200%204%204%206s8%200%2011-4l2-1a12325%2012325%200%200011%2042c0%202%203%203%203%201a349%20349%200%2000-12-52c-1-5-1-7-3-10-7-12-7-13%201-22%207-8%207-11%203-25-5-17-12-34-16-38-2-2-3-2-31-2H54l-5%206m44%2010l-10%206c-11%205-17%2011-17%2018%200%205-1%205-4%202s-6-3-6%200c0%202%201%203%203%204l2%202h-3c-2-3-3-2-3%202%200%203%200%204%202%204%201%200%203%201%204%204l6%208c4%205%207%2013%207%2018%200%202%202%205%206%209%205%205%206%208%204%208l-5-5c-3-3-4-4-4-2%200%204%201%206%206%209l5%202%206-11c5-10%205-11%204-14-1-2-2-3-5-3-4-1-11-4-10-5l4%201c17%207%2028-7%2026-30%200-9-1-10-7-11l-3-2c0-2%206-1%208%202%202%201%202%201%202-2%200-10-12-19-18-14'%20fill='%23d3d3d3'%20fill-rule='evenodd'/%3e%3c/svg%3e"},"images":{"fallback":{"src":"/static/ec552a7c1f96030de0601b3b204b16cf/a7a66/sample-image-w1.png","srcSet":"/static/ec552a7c1f96030de0601b3b204b16cf/a7a66/sample-image-w1.png 48w,\n/static/ec552a7c1f96030de0601b3b204b16cf/416a0/sample-image-w1.png 96w","sizes":"48px"},"sources":[{"srcSet":"/static/ec552a7c1f96030de0601b3b204b16cf/a3542/sample-image-w1.webp 48w,\n/static/ec552a7c1f96030de0601b3b204b16cf/0f66d/sample-image-w1.webp 96w","type":"image/webp","sizes":"48px"}]},"width":48,"height":48},"ImageSharp_regular":{"layout":"fixed","placeholder":{"fallback":"data:image/svg+xml,%3csvg%20xmlns='http://www.w3.org/2000/svg'%20width='150'%20height='150'%20viewBox='0%200%20150%20150'%20preserveAspectRatio='none'%3e%3cpath%20d='M49%206a49%2049%200%2000-12%2047l1%204-4%205c-9%2011-12%2021-7%2028l3%204-4%205c-7%2010-18%2040-18%2049%200%204%202%202%203-3%204-18%2010-33%2016-43%204-6%205-6%208-5%202%200%205%201%207%203l8%204c5%200%207%201%207%205%200%202%201%203%202%202h7c6%200%207-1%208-4l2-4%205%202%205%203-1%2021%201%2021c1%200%202-5%202-18%200-10%200-11%202-11l2-1-3-1c-2%200-2%200-2-6s0-7%202-8l1-1%204-9%203-9%202%203%204%205%201%202c-2%200-13%207-13%208l7-3%205-3%204%202c4%202%205%203%202%205-2%202%200%204%204%206s8%200%2011-4l2-1a12325%2012325%200%200011%2042c0%202%203%203%203%201a349%20349%200%2000-12-52c-1-5-1-7-3-10-7-12-7-13%201-22%207-8%207-11%203-25-5-17-12-34-16-38-2-2-3-2-31-2H54l-5%206m44%2010l-10%206c-11%205-17%2011-17%2018%200%205-1%205-4%202s-6-3-6%200c0%202%201%203%203%204l2%202h-3c-2-3-3-2-3%202%200%203%200%204%202%204%201%200%203%201%204%204l6%208c4%205%207%2013%207%2018%200%202%202%205%206%209%205%205%206%208%204%208l-5-5c-3-3-4-4-4-2%200%204%201%206%206%209l5%202%206-11c5-10%205-11%204-14-1-2-2-3-5-3-4-1-11-4-10-5l4%201c17%207%2028-7%2026-30%200-9-1-10-7-11l-3-2c0-2%206-1%208%202%202%201%202%201%202-2%200-10-12-19-18-14'%20fill='%23d3d3d3'%20fill-rule='evenodd'/%3e%3c/svg%3e"},"images":{"fallback":{"src":"/static/ec552a7c1f96030de0601b3b204b16cf/46e60/sample-image-w1.png","srcSet":"/static/ec552a7c1f96030de0601b3b204b16cf/46e60/sample-image-w1.png 150w,\n/static/ec552a7c1f96030de0601b3b204b16cf/d612b/sample-image-w1.png 300w","sizes":"150px"},"sources":[{"srcSet":"/static/ec552a7c1f96030de0601b3b204b16cf/ae23d/sample-image-w1.webp 150w,\n/static/ec552a7c1f96030de0601b3b204b16cf/bd37b/sample-image-w1.webp 300w","type":"image/webp","sizes":"150px"}]},"width":150,"height":150}}},"thumbnail":null},{"id":"3acd30fe-4cca-514c-a11c-101e1302e8c0","title":"아마존이 알려주는 가격buybox","slug":"/amazon-buybox/","link":null,"excerpt":"본 포스팅의 원문은  이곳 에서 확인하실 수 있습니다! 개요 이커머스 회사를 다니고 또 개인적으로 이커머스…","timeToRead":3,"featured":null,"thumbnailText":null,"date":"2021-12-27","category":{"id":"d8f82cd3-f986-5d73-9245-ab200509c781","name":"Etc","slug":"/category/etc/","color":"#bee3f8","icon":"/static/93c9c75517e1a6e95deaecabf3d1d050/etc.svg"},"author":{"id":"f4eadba1-76f1-567a-b5d1-276d98aaea26","name":"이인영","slug":"/author/nathan/","title":"Data Analyst","description":"지구환경을 사랑하는 데이터분석가 입니다.","skills":["Data Analysis","Visualization","SQL","Business Strategy"],"social":[{"name":"Website","url":"https://medium.com/bondata"}],"thumbnail":{"__typename":"ImageSharp","ImageSharp_small":{"layout":"fixed","placeholder":{"fallback":"data:image/svg+xml,%3csvg%20xmlns='http://www.w3.org/2000/svg'%20width='150'%20height='150'%20viewBox='0%200%20150%20150'%20preserveAspectRatio='none'%3e%3cpath%20d='M48%202c-5%203-12%2014-15%2024-1%205%200%2011%204%2015l2%205%202%208%202%207c1%206%207%2010%2015%2010%205%200%2011%206%209%208l-1%204c0%202%202%201%203-1l3-3c2%200%201-2-3-5l-7-7c-2-3-3-4-5-4-5%200-9-8-6-13%202-3%206-4%209-3%203%203%205%200%205-5-1-4%200-10%203-13l5-7c4-7%207-8%2022-9%2016-1%2017-1%2020%205%205%2011%206%2037%203%2048-6%2017-22%2024-33%2015-4-3-6-3-3%200s9%206%2014%206l4%201-10%2019-3%204-6-6a179%20179%200%2001-19-21l-1%202v7l-2%2031v26h56l-1-5a1097%201097%200%2000-6-59l3-4c12-10%2016-44%207-64l-3-10c0-8%200-8-14-8-20%200-30%204-37%2013-4%207-8%2017-9%2025l-1%206c-3%200-6%205-7%209v4l-3-5c-2-5-2-7-2-15%200-9-1-10-3-2l-1%204-1-3c-2-4-2-10%202-18%205-9%209-13%2016-16l5-2h-4l-8%202m10%2085l-6%201c-19%203-36%2023-45%2054-2%208-2%208%200%208%201%200%202-1%203-6%208-28%2024-49%2042-54l3-1-3%202c-6%208-7%2013-4%2025l2%207-2%204-4%207c-2%204-1%2016%201%2016l1-6c0-5%201-8%204-14l3-7-2-9c-4-10-3-15%204-23l4-5-1%201m51%202l3%206c4%206%204%2010%203%2016-1%205-1%206%201%2011%203%207%206%2019%206%2024%200%203%200%204%202%204%204%200%202-17-3-29-2-4-3-6-2-11%200-6%200-8-4-15-1-3%207%203%2011%207%207%208%2011%2020%2015%2041%201%206%202%207%203%207%203%200%203-1-1-16-6-25-13-36-25-40-2-1-5-2-6-4l-3-1'%20fill='%23d3d3d3'%20fill-rule='evenodd'/%3e%3c/svg%3e"},"images":{"fallback":{"src":"/static/011b3215b6b7e782f02d67aebfa4c319/a7a66/sample-image-m1.png","srcSet":"/static/011b3215b6b7e782f02d67aebfa4c319/a7a66/sample-image-m1.png 48w,\n/static/011b3215b6b7e782f02d67aebfa4c319/416a0/sample-image-m1.png 96w","sizes":"48px"},"sources":[{"srcSet":"/static/011b3215b6b7e782f02d67aebfa4c319/a3542/sample-image-m1.webp 48w,\n/static/011b3215b6b7e782f02d67aebfa4c319/0f66d/sample-image-m1.webp 96w","type":"image/webp","sizes":"48px"}]},"width":48,"height":48},"ImageSharp_regular":{"layout":"fixed","placeholder":{"fallback":"data:image/svg+xml,%3csvg%20xmlns='http://www.w3.org/2000/svg'%20width='150'%20height='150'%20viewBox='0%200%20150%20150'%20preserveAspectRatio='none'%3e%3cpath%20d='M48%202c-5%203-12%2014-15%2024-1%205%200%2011%204%2015l2%205%202%208%202%207c1%206%207%2010%2015%2010%205%200%2011%206%209%208l-1%204c0%202%202%201%203-1l3-3c2%200%201-2-3-5l-7-7c-2-3-3-4-5-4-5%200-9-8-6-13%202-3%206-4%209-3%203%203%205%200%205-5-1-4%200-10%203-13l5-7c4-7%207-8%2022-9%2016-1%2017-1%2020%205%205%2011%206%2037%203%2048-6%2017-22%2024-33%2015-4-3-6-3-3%200s9%206%2014%206l4%201-10%2019-3%204-6-6a179%20179%200%2001-19-21l-1%202v7l-2%2031v26h56l-1-5a1097%201097%200%2000-6-59l3-4c12-10%2016-44%207-64l-3-10c0-8%200-8-14-8-20%200-30%204-37%2013-4%207-8%2017-9%2025l-1%206c-3%200-6%205-7%209v4l-3-5c-2-5-2-7-2-15%200-9-1-10-3-2l-1%204-1-3c-2-4-2-10%202-18%205-9%209-13%2016-16l5-2h-4l-8%202m10%2085l-6%201c-19%203-36%2023-45%2054-2%208-2%208%200%208%201%200%202-1%203-6%208-28%2024-49%2042-54l3-1-3%202c-6%208-7%2013-4%2025l2%207-2%204-4%207c-2%204-1%2016%201%2016l1-6c0-5%201-8%204-14l3-7-2-9c-4-10-3-15%204-23l4-5-1%201m51%202l3%206c4%206%204%2010%203%2016-1%205-1%206%201%2011%203%207%206%2019%206%2024%200%203%200%204%202%204%204%200%202-17-3-29-2-4-3-6-2-11%200-6%200-8-4-15-1-3%207%203%2011%207%207%208%2011%2020%2015%2041%201%206%202%207%203%207%203%200%203-1-1-16-6-25-13-36-25-40-2-1-5-2-6-4l-3-1'%20fill='%23d3d3d3'%20fill-rule='evenodd'/%3e%3c/svg%3e"},"images":{"fallback":{"src":"/static/011b3215b6b7e782f02d67aebfa4c319/46e60/sample-image-m1.png","srcSet":"/static/011b3215b6b7e782f02d67aebfa4c319/46e60/sample-image-m1.png 150w,\n/static/011b3215b6b7e782f02d67aebfa4c319/d612b/sample-image-m1.png 300w","sizes":"150px"},"sources":[{"srcSet":"/static/011b3215b6b7e782f02d67aebfa4c319/ae23d/sample-image-m1.webp 150w,\n/static/011b3215b6b7e782f02d67aebfa4c319/bd37b/sample-image-m1.webp 300w","type":"image/webp","sizes":"150px"}]},"width":150,"height":150}}},"thumbnail":null},{"id":"eb9419ea-54cf-58d8-97e2-fc91e7f9176f","title":"데이터의 함정에 빠지지 않는 방법","slug":"/trap-of-data/","link":null,"excerpt":"들어가기에 앞서 일을 하면서 그리고 생활 속에서도 우리는 다양한 숫자들을 마주하게 되는데요. 혹시 그 숫자…","timeToRead":2,"featured":null,"thumbnailText":null,"date":"2021-12-27","category":{"id":"d8f82cd3-f986-5d73-9245-ab200509c781","name":"Etc","slug":"/category/etc/","color":"#bee3f8","icon":"/static/93c9c75517e1a6e95deaecabf3d1d050/etc.svg"},"author":{"id":"ef2eb011-3d36-516e-bce0-49b300a9b08a","name":"양현석","slug":"/author/johan/","title":"Product Owner","description":"인슈어테크 플랫폼을 만들고 있습니다","skills":["Product Management","Communication","Business Strategy","Python"],"social":null,"thumbnail":{"__typename":"ImageSharp","ImageSharp_small":{"layout":"fixed","placeholder":{"fallback":"data:image/svg+xml,%3csvg%20xmlns='http://www.w3.org/2000/svg'%20width='150'%20height='150'%20viewBox='0%200%20150%20150'%20preserveAspectRatio='none'%3e%3cpath%20d='M48%202c-5%203-12%2014-15%2024-1%205%200%2011%204%2015l2%205%202%208%202%207c1%206%207%2010%2015%2010%205%200%2011%206%209%208l-1%204c0%202%202%201%203-1l3-3c2%200%201-2-3-5l-7-7c-2-3-3-4-5-4-5%200-9-8-6-13%202-3%206-4%209-3%203%203%205%200%205-5-1-4%200-10%203-13l5-7c4-7%207-8%2022-9%2016-1%2017-1%2020%205%205%2011%206%2037%203%2048-6%2017-22%2024-33%2015-4-3-6-3-3%200s9%206%2014%206l4%201-10%2019-3%204-6-6a179%20179%200%2001-19-21l-1%202v7l-2%2031v26h56l-1-5a1097%201097%200%2000-6-59l3-4c12-10%2016-44%207-64l-3-10c0-8%200-8-14-8-20%200-30%204-37%2013-4%207-8%2017-9%2025l-1%206c-3%200-6%205-7%209v4l-3-5c-2-5-2-7-2-15%200-9-1-10-3-2l-1%204-1-3c-2-4-2-10%202-18%205-9%209-13%2016-16l5-2h-4l-8%202m10%2085l-6%201c-19%203-36%2023-45%2054-2%208-2%208%200%208%201%200%202-1%203-6%208-28%2024-49%2042-54l3-1-3%202c-6%208-7%2013-4%2025l2%207-2%204-4%207c-2%204-1%2016%201%2016l1-6c0-5%201-8%204-14l3-7-2-9c-4-10-3-15%204-23l4-5-1%201m51%202l3%206c4%206%204%2010%203%2016-1%205-1%206%201%2011%203%207%206%2019%206%2024%200%203%200%204%202%204%204%200%202-17-3-29-2-4-3-6-2-11%200-6%200-8-4-15-1-3%207%203%2011%207%207%208%2011%2020%2015%2041%201%206%202%207%203%207%203%200%203-1-1-16-6-25-13-36-25-40-2-1-5-2-6-4l-3-1'%20fill='%23d3d3d3'%20fill-rule='evenodd'/%3e%3c/svg%3e"},"images":{"fallback":{"src":"/static/011b3215b6b7e782f02d67aebfa4c319/a7a66/sample-image-m1.png","srcSet":"/static/011b3215b6b7e782f02d67aebfa4c319/a7a66/sample-image-m1.png 48w,\n/static/011b3215b6b7e782f02d67aebfa4c319/416a0/sample-image-m1.png 96w","sizes":"48px"},"sources":[{"srcSet":"/static/011b3215b6b7e782f02d67aebfa4c319/a3542/sample-image-m1.webp 48w,\n/static/011b3215b6b7e782f02d67aebfa4c319/0f66d/sample-image-m1.webp 96w","type":"image/webp","sizes":"48px"}]},"width":48,"height":48},"ImageSharp_regular":{"layout":"fixed","placeholder":{"fallback":"data:image/svg+xml,%3csvg%20xmlns='http://www.w3.org/2000/svg'%20width='150'%20height='150'%20viewBox='0%200%20150%20150'%20preserveAspectRatio='none'%3e%3cpath%20d='M48%202c-5%203-12%2014-15%2024-1%205%200%2011%204%2015l2%205%202%208%202%207c1%206%207%2010%2015%2010%205%200%2011%206%209%208l-1%204c0%202%202%201%203-1l3-3c2%200%201-2-3-5l-7-7c-2-3-3-4-5-4-5%200-9-8-6-13%202-3%206-4%209-3%203%203%205%200%205-5-1-4%200-10%203-13l5-7c4-7%207-8%2022-9%2016-1%2017-1%2020%205%205%2011%206%2037%203%2048-6%2017-22%2024-33%2015-4-3-6-3-3%200s9%206%2014%206l4%201-10%2019-3%204-6-6a179%20179%200%2001-19-21l-1%202v7l-2%2031v26h56l-1-5a1097%201097%200%2000-6-59l3-4c12-10%2016-44%207-64l-3-10c0-8%200-8-14-8-20%200-30%204-37%2013-4%207-8%2017-9%2025l-1%206c-3%200-6%205-7%209v4l-3-5c-2-5-2-7-2-15%200-9-1-10-3-2l-1%204-1-3c-2-4-2-10%202-18%205-9%209-13%2016-16l5-2h-4l-8%202m10%2085l-6%201c-19%203-36%2023-45%2054-2%208-2%208%200%208%201%200%202-1%203-6%208-28%2024-49%2042-54l3-1-3%202c-6%208-7%2013-4%2025l2%207-2%204-4%207c-2%204-1%2016%201%2016l1-6c0-5%201-8%204-14l3-7-2-9c-4-10-3-15%204-23l4-5-1%201m51%202l3%206c4%206%204%2010%203%2016-1%205-1%206%201%2011%203%207%206%2019%206%2024%200%203%200%204%202%204%204%200%202-17-3-29-2-4-3-6-2-11%200-6%200-8-4-15-1-3%207%203%2011%207%207%208%2011%2020%2015%2041%201%206%202%207%203%207%203%200%203-1-1-16-6-25-13-36-25-40-2-1-5-2-6-4l-3-1'%20fill='%23d3d3d3'%20fill-rule='evenodd'/%3e%3c/svg%3e"},"images":{"fallback":{"src":"/static/011b3215b6b7e782f02d67aebfa4c319/46e60/sample-image-m1.png","srcSet":"/static/011b3215b6b7e782f02d67aebfa4c319/46e60/sample-image-m1.png 150w,\n/static/011b3215b6b7e782f02d67aebfa4c319/d612b/sample-image-m1.png 300w","sizes":"150px"},"sources":[{"srcSet":"/static/011b3215b6b7e782f02d67aebfa4c319/ae23d/sample-image-m1.webp 150w,\n/static/011b3215b6b7e782f02d67aebfa4c319/bd37b/sample-image-m1.webp 300w","type":"image/webp","sizes":"150px"}]},"width":150,"height":150}}},"thumbnail":null},{"id":"fe5aa571-ae4f-5298-915a-0f34cf740e88","title":"이것이 데이터 풀스택이다.","slug":"/data-fullstack/","link":null,"excerpt":"글을 읽기에 앞서 데이터 풀스택을 희망하는 어느 데이터 분석가의 개인적인 의견을 적었습니다. 개발자들도 풀…","timeToRead":3,"featured":null,"thumbnailText":null,"date":"2021-12-05","category":{"id":"d8f82cd3-f986-5d73-9245-ab200509c781","name":"Etc","slug":"/category/etc/","color":"#bee3f8","icon":"/static/93c9c75517e1a6e95deaecabf3d1d050/etc.svg"},"author":{"id":"f4eadba1-76f1-567a-b5d1-276d98aaea26","name":"이인영","slug":"/author/nathan/","title":"Data Analyst","description":"지구환경을 사랑하는 데이터분석가 입니다.","skills":["Data Analysis","Visualization","SQL","Business Strategy"],"social":[{"name":"Website","url":"https://medium.com/bondata"}],"thumbnail":{"__typename":"ImageSharp","ImageSharp_small":{"layout":"fixed","placeholder":{"fallback":"data:image/svg+xml,%3csvg%20xmlns='http://www.w3.org/2000/svg'%20width='150'%20height='150'%20viewBox='0%200%20150%20150'%20preserveAspectRatio='none'%3e%3cpath%20d='M48%202c-5%203-12%2014-15%2024-1%205%200%2011%204%2015l2%205%202%208%202%207c1%206%207%2010%2015%2010%205%200%2011%206%209%208l-1%204c0%202%202%201%203-1l3-3c2%200%201-2-3-5l-7-7c-2-3-3-4-5-4-5%200-9-8-6-13%202-3%206-4%209-3%203%203%205%200%205-5-1-4%200-10%203-13l5-7c4-7%207-8%2022-9%2016-1%2017-1%2020%205%205%2011%206%2037%203%2048-6%2017-22%2024-33%2015-4-3-6-3-3%200s9%206%2014%206l4%201-10%2019-3%204-6-6a179%20179%200%2001-19-21l-1%202v7l-2%2031v26h56l-1-5a1097%201097%200%2000-6-59l3-4c12-10%2016-44%207-64l-3-10c0-8%200-8-14-8-20%200-30%204-37%2013-4%207-8%2017-9%2025l-1%206c-3%200-6%205-7%209v4l-3-5c-2-5-2-7-2-15%200-9-1-10-3-2l-1%204-1-3c-2-4-2-10%202-18%205-9%209-13%2016-16l5-2h-4l-8%202m10%2085l-6%201c-19%203-36%2023-45%2054-2%208-2%208%200%208%201%200%202-1%203-6%208-28%2024-49%2042-54l3-1-3%202c-6%208-7%2013-4%2025l2%207-2%204-4%207c-2%204-1%2016%201%2016l1-6c0-5%201-8%204-14l3-7-2-9c-4-10-3-15%204-23l4-5-1%201m51%202l3%206c4%206%204%2010%203%2016-1%205-1%206%201%2011%203%207%206%2019%206%2024%200%203%200%204%202%204%204%200%202-17-3-29-2-4-3-6-2-11%200-6%200-8-4-15-1-3%207%203%2011%207%207%208%2011%2020%2015%2041%201%206%202%207%203%207%203%200%203-1-1-16-6-25-13-36-25-40-2-1-5-2-6-4l-3-1'%20fill='%23d3d3d3'%20fill-rule='evenodd'/%3e%3c/svg%3e"},"images":{"fallback":{"src":"/static/011b3215b6b7e782f02d67aebfa4c319/a7a66/sample-image-m1.png","srcSet":"/static/011b3215b6b7e782f02d67aebfa4c319/a7a66/sample-image-m1.png 48w,\n/static/011b3215b6b7e782f02d67aebfa4c319/416a0/sample-image-m1.png 96w","sizes":"48px"},"sources":[{"srcSet":"/static/011b3215b6b7e782f02d67aebfa4c319/a3542/sample-image-m1.webp 48w,\n/static/011b3215b6b7e782f02d67aebfa4c319/0f66d/sample-image-m1.webp 96w","type":"image/webp","sizes":"48px"}]},"width":48,"height":48},"ImageSharp_regular":{"layout":"fixed","placeholder":{"fallback":"data:image/svg+xml,%3csvg%20xmlns='http://www.w3.org/2000/svg'%20width='150'%20height='150'%20viewBox='0%200%20150%20150'%20preserveAspectRatio='none'%3e%3cpath%20d='M48%202c-5%203-12%2014-15%2024-1%205%200%2011%204%2015l2%205%202%208%202%207c1%206%207%2010%2015%2010%205%200%2011%206%209%208l-1%204c0%202%202%201%203-1l3-3c2%200%201-2-3-5l-7-7c-2-3-3-4-5-4-5%200-9-8-6-13%202-3%206-4%209-3%203%203%205%200%205-5-1-4%200-10%203-13l5-7c4-7%207-8%2022-9%2016-1%2017-1%2020%205%205%2011%206%2037%203%2048-6%2017-22%2024-33%2015-4-3-6-3-3%200s9%206%2014%206l4%201-10%2019-3%204-6-6a179%20179%200%2001-19-21l-1%202v7l-2%2031v26h56l-1-5a1097%201097%200%2000-6-59l3-4c12-10%2016-44%207-64l-3-10c0-8%200-8-14-8-20%200-30%204-37%2013-4%207-8%2017-9%2025l-1%206c-3%200-6%205-7%209v4l-3-5c-2-5-2-7-2-15%200-9-1-10-3-2l-1%204-1-3c-2-4-2-10%202-18%205-9%209-13%2016-16l5-2h-4l-8%202m10%2085l-6%201c-19%203-36%2023-45%2054-2%208-2%208%200%208%201%200%202-1%203-6%208-28%2024-49%2042-54l3-1-3%202c-6%208-7%2013-4%2025l2%207-2%204-4%207c-2%204-1%2016%201%2016l1-6c0-5%201-8%204-14l3-7-2-9c-4-10-3-15%204-23l4-5-1%201m51%202l3%206c4%206%204%2010%203%2016-1%205-1%206%201%2011%203%207%206%2019%206%2024%200%203%200%204%202%204%204%200%202-17-3-29-2-4-3-6-2-11%200-6%200-8-4-15-1-3%207%203%2011%207%207%208%2011%2020%2015%2041%201%206%202%207%203%207%203%200%203-1-1-16-6-25-13-36-25-40-2-1-5-2-6-4l-3-1'%20fill='%23d3d3d3'%20fill-rule='evenodd'/%3e%3c/svg%3e"},"images":{"fallback":{"src":"/static/011b3215b6b7e782f02d67aebfa4c319/46e60/sample-image-m1.png","srcSet":"/static/011b3215b6b7e782f02d67aebfa4c319/46e60/sample-image-m1.png 150w,\n/static/011b3215b6b7e782f02d67aebfa4c319/d612b/sample-image-m1.png 300w","sizes":"150px"},"sources":[{"srcSet":"/static/011b3215b6b7e782f02d67aebfa4c319/ae23d/sample-image-m1.webp 150w,\n/static/011b3215b6b7e782f02d67aebfa4c319/bd37b/sample-image-m1.webp 300w","type":"image/webp","sizes":"150px"}]},"width":150,"height":150}}},"thumbnail":null},{"id":"121dfd93-27de-52bb-aa27-6afd72c2947a","title":"데이터로 행동과 의사결정 이끌어내기","slug":"/data-analysis-to-action/","link":null,"excerpt":"이 글은 제  개인블로그 에서도 확인할 수 있습니다. 웹 데이터 분석의 대가라고 불리는 아비나쉬 카우쉭(A…","timeToRead":4,"featured":null,"thumbnailText":null,"date":"2021-12-05","category":{"id":"d8f82cd3-f986-5d73-9245-ab200509c781","name":"Etc","slug":"/category/etc/","color":"#bee3f8","icon":"/static/93c9c75517e1a6e95deaecabf3d1d050/etc.svg"},"author":{"id":"8dc75b3d-c88e-527a-8805-5ddfd9a5502e","name":"오채환","slug":"/author/chaehwan/","title":"Data Scientist","description":"이커머스를 위한 마케팅 자동화 솔루션을 제공하는 빅인사이트에서 데이터 분석을 맡고 있습니다.","skills":["Data Analysis","Development","SQL","ML/DL"],"social":[{"name":"Website","url":"https://chaehwan-oh.github.io"}],"thumbnail":{"__typename":"ImageSharp","ImageSharp_small":{"layout":"fixed","placeholder":{"fallback":"data:image/svg+xml,%3csvg%20xmlns='http://www.w3.org/2000/svg'%20width='150'%20height='150'%20viewBox='0%200%20150%20150'%20preserveAspectRatio='none'%3e%3cpath%20d='M48%202c-5%203-12%2014-15%2024-1%205%200%2011%204%2015l2%205%202%208%202%207c1%206%207%2010%2015%2010%205%200%2011%206%209%208l-1%204c0%202%202%201%203-1l3-3c2%200%201-2-3-5l-7-7c-2-3-3-4-5-4-5%200-9-8-6-13%202-3%206-4%209-3%203%203%205%200%205-5-1-4%200-10%203-13l5-7c4-7%207-8%2022-9%2016-1%2017-1%2020%205%205%2011%206%2037%203%2048-6%2017-22%2024-33%2015-4-3-6-3-3%200s9%206%2014%206l4%201-10%2019-3%204-6-6a179%20179%200%2001-19-21l-1%202v7l-2%2031v26h56l-1-5a1097%201097%200%2000-6-59l3-4c12-10%2016-44%207-64l-3-10c0-8%200-8-14-8-20%200-30%204-37%2013-4%207-8%2017-9%2025l-1%206c-3%200-6%205-7%209v4l-3-5c-2-5-2-7-2-15%200-9-1-10-3-2l-1%204-1-3c-2-4-2-10%202-18%205-9%209-13%2016-16l5-2h-4l-8%202m10%2085l-6%201c-19%203-36%2023-45%2054-2%208-2%208%200%208%201%200%202-1%203-6%208-28%2024-49%2042-54l3-1-3%202c-6%208-7%2013-4%2025l2%207-2%204-4%207c-2%204-1%2016%201%2016l1-6c0-5%201-8%204-14l3-7-2-9c-4-10-3-15%204-23l4-5-1%201m51%202l3%206c4%206%204%2010%203%2016-1%205-1%206%201%2011%203%207%206%2019%206%2024%200%203%200%204%202%204%204%200%202-17-3-29-2-4-3-6-2-11%200-6%200-8-4-15-1-3%207%203%2011%207%207%208%2011%2020%2015%2041%201%206%202%207%203%207%203%200%203-1-1-16-6-25-13-36-25-40-2-1-5-2-6-4l-3-1'%20fill='%23d3d3d3'%20fill-rule='evenodd'/%3e%3c/svg%3e"},"images":{"fallback":{"src":"/static/011b3215b6b7e782f02d67aebfa4c319/a7a66/sample-image-m1.png","srcSet":"/static/011b3215b6b7e782f02d67aebfa4c319/a7a66/sample-image-m1.png 48w,\n/static/011b3215b6b7e782f02d67aebfa4c319/416a0/sample-image-m1.png 96w","sizes":"48px"},"sources":[{"srcSet":"/static/011b3215b6b7e782f02d67aebfa4c319/a3542/sample-image-m1.webp 48w,\n/static/011b3215b6b7e782f02d67aebfa4c319/0f66d/sample-image-m1.webp 96w","type":"image/webp","sizes":"48px"}]},"width":48,"height":48},"ImageSharp_regular":{"layout":"fixed","placeholder":{"fallback":"data:image/svg+xml,%3csvg%20xmlns='http://www.w3.org/2000/svg'%20width='150'%20height='150'%20viewBox='0%200%20150%20150'%20preserveAspectRatio='none'%3e%3cpath%20d='M48%202c-5%203-12%2014-15%2024-1%205%200%2011%204%2015l2%205%202%208%202%207c1%206%207%2010%2015%2010%205%200%2011%206%209%208l-1%204c0%202%202%201%203-1l3-3c2%200%201-2-3-5l-7-7c-2-3-3-4-5-4-5%200-9-8-6-13%202-3%206-4%209-3%203%203%205%200%205-5-1-4%200-10%203-13l5-7c4-7%207-8%2022-9%2016-1%2017-1%2020%205%205%2011%206%2037%203%2048-6%2017-22%2024-33%2015-4-3-6-3-3%200s9%206%2014%206l4%201-10%2019-3%204-6-6a179%20179%200%2001-19-21l-1%202v7l-2%2031v26h56l-1-5a1097%201097%200%2000-6-59l3-4c12-10%2016-44%207-64l-3-10c0-8%200-8-14-8-20%200-30%204-37%2013-4%207-8%2017-9%2025l-1%206c-3%200-6%205-7%209v4l-3-5c-2-5-2-7-2-15%200-9-1-10-3-2l-1%204-1-3c-2-4-2-10%202-18%205-9%209-13%2016-16l5-2h-4l-8%202m10%2085l-6%201c-19%203-36%2023-45%2054-2%208-2%208%200%208%201%200%202-1%203-6%208-28%2024-49%2042-54l3-1-3%202c-6%208-7%2013-4%2025l2%207-2%204-4%207c-2%204-1%2016%201%2016l1-6c0-5%201-8%204-14l3-7-2-9c-4-10-3-15%204-23l4-5-1%201m51%202l3%206c4%206%204%2010%203%2016-1%205-1%206%201%2011%203%207%206%2019%206%2024%200%203%200%204%202%204%204%200%202-17-3-29-2-4-3-6-2-11%200-6%200-8-4-15-1-3%207%203%2011%207%207%208%2011%2020%2015%2041%201%206%202%207%203%207%203%200%203-1-1-16-6-25-13-36-25-40-2-1-5-2-6-4l-3-1'%20fill='%23d3d3d3'%20fill-rule='evenodd'/%3e%3c/svg%3e"},"images":{"fallback":{"src":"/static/011b3215b6b7e782f02d67aebfa4c319/46e60/sample-image-m1.png","srcSet":"/static/011b3215b6b7e782f02d67aebfa4c319/46e60/sample-image-m1.png 150w,\n/static/011b3215b6b7e782f02d67aebfa4c319/d612b/sample-image-m1.png 300w","sizes":"150px"},"sources":[{"srcSet":"/static/011b3215b6b7e782f02d67aebfa4c319/ae23d/sample-image-m1.webp 150w,\n/static/011b3215b6b7e782f02d67aebfa4c319/bd37b/sample-image-m1.webp 300w","type":"image/webp","sizes":"150px"}]},"width":150,"height":150}}},"thumbnail":null},{"id":"b1b77ac1-6762-54a1-ae2e-720f183444e6","title":"데이터는 어떻게 우버의 어플리케이션을 구성하는가? (Uber Engineering)","slug":"/uber-engineering/","link":null,"excerpt":"안녕하세요. 데이터 분석과 관련된 글들을 보다가 우버가 데이터를 어떻게 처리하고 다루고 있는지를 다룬 글을…","timeToRead":5,"featured":null,"thumbnailText":null,"date":"2021-12-02","category":{"id":"d8f82cd3-f986-5d73-9245-ab200509c781","name":"Etc","slug":"/category/etc/","color":"#bee3f8","icon":"/static/93c9c75517e1a6e95deaecabf3d1d050/etc.svg"},"author":{"id":"f4d2f9b7-e30a-500c-a135-7350a4c4c433","name":"유승훈","slug":"/author/seunghuni/","title":"Student","description":"데이터분석에 관심이 있습니다.","skills":["Data Analysis","Python","R","SQL","Tableau"],"social":[{"name":"Website","url":"https://seunghuni96.tistory.com"}],"thumbnail":{"__typename":"ImageSharp","ImageSharp_small":{"layout":"fixed","placeholder":{"fallback":"data:image/svg+xml,%3csvg%20xmlns='http://www.w3.org/2000/svg'%20width='150'%20height='150'%20viewBox='0%200%20150%20150'%20preserveAspectRatio='none'%3e%3cpath%20d='M48%202c-5%203-12%2014-15%2024-1%205%200%2011%204%2015l2%205%202%208%202%207c1%206%207%2010%2015%2010%205%200%2011%206%209%208l-1%204c0%202%202%201%203-1l3-3c2%200%201-2-3-5l-7-7c-2-3-3-4-5-4-5%200-9-8-6-13%202-3%206-4%209-3%203%203%205%200%205-5-1-4%200-10%203-13l5-7c4-7%207-8%2022-9%2016-1%2017-1%2020%205%205%2011%206%2037%203%2048-6%2017-22%2024-33%2015-4-3-6-3-3%200s9%206%2014%206l4%201-10%2019-3%204-6-6a179%20179%200%2001-19-21l-1%202v7l-2%2031v26h56l-1-5a1097%201097%200%2000-6-59l3-4c12-10%2016-44%207-64l-3-10c0-8%200-8-14-8-20%200-30%204-37%2013-4%207-8%2017-9%2025l-1%206c-3%200-6%205-7%209v4l-3-5c-2-5-2-7-2-15%200-9-1-10-3-2l-1%204-1-3c-2-4-2-10%202-18%205-9%209-13%2016-16l5-2h-4l-8%202m10%2085l-6%201c-19%203-36%2023-45%2054-2%208-2%208%200%208%201%200%202-1%203-6%208-28%2024-49%2042-54l3-1-3%202c-6%208-7%2013-4%2025l2%207-2%204-4%207c-2%204-1%2016%201%2016l1-6c0-5%201-8%204-14l3-7-2-9c-4-10-3-15%204-23l4-5-1%201m51%202l3%206c4%206%204%2010%203%2016-1%205-1%206%201%2011%203%207%206%2019%206%2024%200%203%200%204%202%204%204%200%202-17-3-29-2-4-3-6-2-11%200-6%200-8-4-15-1-3%207%203%2011%207%207%208%2011%2020%2015%2041%201%206%202%207%203%207%203%200%203-1-1-16-6-25-13-36-25-40-2-1-5-2-6-4l-3-1'%20fill='%23d3d3d3'%20fill-rule='evenodd'/%3e%3c/svg%3e"},"images":{"fallback":{"src":"/static/011b3215b6b7e782f02d67aebfa4c319/a7a66/sample-image-m1.png","srcSet":"/static/011b3215b6b7e782f02d67aebfa4c319/a7a66/sample-image-m1.png 48w,\n/static/011b3215b6b7e782f02d67aebfa4c319/416a0/sample-image-m1.png 96w","sizes":"48px"},"sources":[{"srcSet":"/static/011b3215b6b7e782f02d67aebfa4c319/a3542/sample-image-m1.webp 48w,\n/static/011b3215b6b7e782f02d67aebfa4c319/0f66d/sample-image-m1.webp 96w","type":"image/webp","sizes":"48px"}]},"width":48,"height":48},"ImageSharp_regular":{"layout":"fixed","placeholder":{"fallback":"data:image/svg+xml,%3csvg%20xmlns='http://www.w3.org/2000/svg'%20width='150'%20height='150'%20viewBox='0%200%20150%20150'%20preserveAspectRatio='none'%3e%3cpath%20d='M48%202c-5%203-12%2014-15%2024-1%205%200%2011%204%2015l2%205%202%208%202%207c1%206%207%2010%2015%2010%205%200%2011%206%209%208l-1%204c0%202%202%201%203-1l3-3c2%200%201-2-3-5l-7-7c-2-3-3-4-5-4-5%200-9-8-6-13%202-3%206-4%209-3%203%203%205%200%205-5-1-4%200-10%203-13l5-7c4-7%207-8%2022-9%2016-1%2017-1%2020%205%205%2011%206%2037%203%2048-6%2017-22%2024-33%2015-4-3-6-3-3%200s9%206%2014%206l4%201-10%2019-3%204-6-6a179%20179%200%2001-19-21l-1%202v7l-2%2031v26h56l-1-5a1097%201097%200%2000-6-59l3-4c12-10%2016-44%207-64l-3-10c0-8%200-8-14-8-20%200-30%204-37%2013-4%207-8%2017-9%2025l-1%206c-3%200-6%205-7%209v4l-3-5c-2-5-2-7-2-15%200-9-1-10-3-2l-1%204-1-3c-2-4-2-10%202-18%205-9%209-13%2016-16l5-2h-4l-8%202m10%2085l-6%201c-19%203-36%2023-45%2054-2%208-2%208%200%208%201%200%202-1%203-6%208-28%2024-49%2042-54l3-1-3%202c-6%208-7%2013-4%2025l2%207-2%204-4%207c-2%204-1%2016%201%2016l1-6c0-5%201-8%204-14l3-7-2-9c-4-10-3-15%204-23l4-5-1%201m51%202l3%206c4%206%204%2010%203%2016-1%205-1%206%201%2011%203%207%206%2019%206%2024%200%203%200%204%202%204%204%200%202-17-3-29-2-4-3-6-2-11%200-6%200-8-4-15-1-3%207%203%2011%207%207%208%2011%2020%2015%2041%201%206%202%207%203%207%203%200%203-1-1-16-6-25-13-36-25-40-2-1-5-2-6-4l-3-1'%20fill='%23d3d3d3'%20fill-rule='evenodd'/%3e%3c/svg%3e"},"images":{"fallback":{"src":"/static/011b3215b6b7e782f02d67aebfa4c319/46e60/sample-image-m1.png","srcSet":"/static/011b3215b6b7e782f02d67aebfa4c319/46e60/sample-image-m1.png 150w,\n/static/011b3215b6b7e782f02d67aebfa4c319/d612b/sample-image-m1.png 300w","sizes":"150px"},"sources":[{"srcSet":"/static/011b3215b6b7e782f02d67aebfa4c319/ae23d/sample-image-m1.webp 150w,\n/static/011b3215b6b7e782f02d67aebfa4c319/bd37b/sample-image-m1.webp 300w","type":"image/webp","sizes":"150px"}]},"width":150,"height":150}}},"thumbnail":null}],"pageInfo":{"pageCount":2,"hasPreviousPage":false,"hasNextPage":true,"currentPage":1},"totalCount":8}},"pageContext":{"slug":"/category/etc/","limit":6,"skip":0,"collectionType":"category","paginatePostsPage":true,"basePath":"/","services":{"algolia":false,"mailchimp":false,"disqus":true,"graphComment":false,"facebookComment":false},"siteUrl":"https://playinpap.github.io","mobileMenu":{"title":"Topics","items":[{"name":"Causal Inference","slug":"/category/causal-inference/"},{"name":"Data Engineering","slug":"/category/data-engineering/"},{"name":"Etc","slug":"/category/etc/"},{"name":"Experiment","slug":"/category/experiment/"},{"name":"Metric","slug":"/category/metric/"},{"name":"Notice","slug":"/category/notice/"},{"name":"Visualization","slug":"/category/visualization/"}]},"darkMode":true,"includeExcerpt":true,"includeTimeToRead":true,"includeTableOfContents":true,"imageQuality":75}},
    "staticQueryHashes": ["1992822086","2313160350"]}