{"componentChunkName":"component---packages-blog-gatsby-blog-core-src-templates-collection-tag-js","path":"/tag/page/15/","result":{"data":{"collectionInfo":{"id":"5d632e66-67c0-572b-b021-b390ea561caa","name":"íšŒì‚¬","slug":"/tag/"},"posts":{"nodes":[{"id":"9a0c1c03-0010-557b-ba30-2795e8dafd3e","title":"ë³¼ìˆ˜ë¡ ì•ˆì¢‹ì€ Vanity Metric, ê·¸ë ‡ë‹¤ë©´ ì–´ë–»ê²Œ êµ¬ë¶„í•´ì•¼ í• ê¹Œ?","slug":"/vanity-metric-part1/","link":null,"excerpt":"ê°œìš” 'ë‹¨ìˆœíˆ ê·¸ë˜í”„ ê¸°ìš¸ê¸°ê°€ ë†’ì•„ì¡Œë‹¤'ê°€ ì•„ë‹ˆë¼ 'ì•ìœ¼ë¡œ ì–´ë–¤ ì¼ì„ í• ê¹Œ'ì— ëŒ€í•œ ë‹¨ì„œë¥¼ ì°¾ì•„ë´…ì‹œë‹¤. ìš°â€¦","timeToRead":3,"featured":null,"thumbnailText":null,"date":"2021-12-12","category":{"id":"548e726d-f106-558f-8ae7-d58a9f70d36e","name":"Metric","slug":"/category/metric/","color":"#e9d8fd","icon":null},"author":{"id":"e6841cef-e5ac-551a-b781-3ef8d514357e","name":"ë°•ë™í˜","slug":"/author/matt/","title":"Performance Marketer","description":"ê²°í˜¼ì •ë³´ í”Œë«í¼ì˜ í¼í¬ë¨¼ìŠ¤ ë§ˆì¼€íŒ…ì„ ë§¡ê³  ìˆìŠµë‹ˆë‹¤.","skills":["Data Analysis","Communication","Business Strategy"],"social":null,"thumbnail":null},"thumbnail":null},{"id":"15799e67-8da8-5dc9-b033-8771075cb8a6","title":"ì‹ ë¢°í•  ìˆ˜ ìˆëŠ” ì‹¤í—˜ ë¶„ì„ì„ ìœ„í•´ ë°ì´í„° í€„ë¦¬í‹° ì±™ê¸°ê¸°","slug":"/data-quality-for-ab-testing/","link":null,"excerpt":"A/B í…ŒìŠ¤íŠ¸ì™€ ê°™ì€ ì œí’ˆ ì‹¤í—˜ì„ ìì£¼ ì‹¤í–‰í•˜ëŠ” ì¡°ì§ì¼ìˆ˜ë¡, ì‹¤í—˜ ë¶„ì„ ê²°ê³¼ì— ë”°ë¼ ë‹¤ìŒ ì•¡ì…˜ì´ ë¹ ë¥´ê²Œ ê²°â€¦","timeToRead":6,"featured":null,"thumbnailText":null,"date":"2021-12-12","category":{"id":"1c4c37b8-393e-55bb-a4bc-8261b121a85c","name":"Experiment","slug":"/category/experiment/","color":"#e9d8fd","icon":null},"author":{"id":"7f7544f8-74a8-546e-8544-ff6b3e4013da","name":"ê¹€ê°€ì—°","slug":"/author/claire/","title":"Data Analyst","description":"ê·¼ê±° ìˆëŠ” ëŠë‚Œì ì¸ ëŠë‚Œì„ ë§Œë“œëŠ” ë°ì´í„° ë¶„ì„ê°€","skills":["Data Analysis","Visualization","SQL","Python","Communication","Product Strategy"],"social":[{"name":"Website","url":"https://koolganni.github.io"}],"thumbnail":null},"thumbnail":null},{"id":"d7b1e130-3b2b-5d92-89ee-835b6f24f754","title":"ë³µë¦¬ë¡œ ì„±ì¥í•˜ëŠ” ê·¸ë¡œìŠ¤ loop","slug":"/growth-loop/","link":null,"excerpt":"ğŸ™†ğŸ»â€â™‚ï¸ ë³¸ ê¸€ì€  ê°œì¸ë¸”ë¡œê·¸ ì—ì„œë„ í™•ì¸ ê°€ëŠ¥í•©ë‹ˆë‹¤. íšŒì‚¬ì˜ ìŠ¤í…Œì´ì§€ì— ë”°ë¼ ë‹¬ë¼ì§€ëŠ” ì „ëµ í”„ë¡œë•íŠ¸ ë¶„ì„ ê³µë¶€â€¦","timeToRead":3,"featured":null,"thumbnailText":null,"date":"2021-12-11","category":{"id":"548e726d-f106-558f-8ae7-d58a9f70d36e","name":"Metric","slug":"/category/metric/","color":"#e9d8fd","icon":null},"author":{"id":"a3d9a776-8230-5988-bc8e-25ddd6ae64b6","name":"í—ˆí˜„","slug":"/author/ben/","title":"Data Analyst","description":"NCSOFTì—ì„œ ìœ ì €ì™€ ê²Œì„ ìƒí™©ì„ ë¶„ì„í•˜ëŠ” ì¼ì„ í•˜ê³  ìˆìŠµë‹ˆë‹¤.","skills":["Data Analysis","SQL","Communication","Visualization"],"social":[{"name":"Website","url":"https://benheo.github.io"}],"thumbnail":null},"thumbnail":null},{"id":"232dbc16-1267-5051-b3af-8e06f8e41954","title":"í†µê³„ í…Œì´ë¸”ì„ í†µí•œ ë°ì´í„° ì¶”ì¶œ ìš”ì²­ ì²˜ë¦¬","slug":"/data-extraction-using-stat-table/","link":null,"excerpt":"ê°œìš” ìŠ¤íƒ€íŠ¸ì—… ë°ì´í„° íŒ€ì—ì„œ ì¼í•˜ë‹¤ë³´ë©´ íƒ€ ë¶€ì„œì˜ ë°ì´í„° ì¶”ì¶œ ìš”ì²­ì„ ì •ë§ ë§ì´ ë°›ê²Œë©ë‹ˆë‹¤. ì €í¬ íšŒì‚¬ì˜ â€¦","timeToRead":2,"featured":null,"thumbnailText":null,"date":"2021-12-11","category":{"id":"fb358d67-4892-5d1f-8eb1-02627ea4300c","name":"Data Engineering","slug":"/category/data-engineering/","color":"#e9d8fd","icon":null},"author":{"id":"75c31cae-14f5-574c-8c9d-c6eeae2041d1","name":"ë°•ì°¬ë¯¼","slug":"/author/chan/","title":"Data Engineer","description":"ë°ì´í„° ì—”ì§€ë‹ˆì–´ë¡œ ì‹œì‘í–ˆì§€ë§Œ, ë¶„ì„ ë° ì˜ì‚¬ê²°ì •ì—ë„ ê´€ì‹¬ì´ ë§ì•„ í•¨ê»˜ í™œë™í•˜ê²Œ ë˜ì—ˆìŠµë‹ˆë‹¤ ğŸ˜‚","skills":["SQL","Development","Business Strategy","Python"],"social":[{"name":"Website","url":"https://chanssp.github.io/"}],"thumbnail":null},"thumbnail":null},{"id":"917f49e7-1b15-5bb5-b7f5-123fe69cc450","title":"ì¸ê³¼ì¶”ë¡  ê°„ë‹¨ ë§›ë³´ê¸°","slug":"/causal-inference-basic/","link":null,"excerpt":"ğŸ¯ ë³¸ ê¸€ì€  ê°œì¸ë¸”ë¡œê·¸ ì—ì„œë„ í™•ì¸ ê°€ëŠ¥í•©ë‹ˆë‹¤. Causal Inference(ì¸ê³¼ì¶”ë¡ )ì´ë¼ëŠ” ë‹¨ì–´ê°€ ìµœâ€¦","timeToRead":2,"featured":null,"thumbnailText":null,"date":"2021-12-06","category":{"id":"91a926e7-e227-537c-9237-db3e7379964e","name":"Causal Inference","slug":"/category/causal-inference/","color":"#c6f6d5","icon":null},"author":{"id":"a35e07c7-ac6b-556d-8985-f7fdfb1565c8","name":"ìš°ì§€ì² ","slug":"/author/jimmy/","title":"Data Scientist","description":"ë°ì´í„°ë¥¼ í™œìš©í•´ ë‹¤ì–‘í•œ ê°€ì¹˜ë¥¼ ë§Œë“¤ì–´ ë‚´ëŠ” ê²ƒì— ì§‘ì¤‘í•©ë‹ˆë‹¤.","skills":["Communication","ML/DL","Growth Hacking"],"social":[{"name":"Website","url":"https://zicheori.github.io"}],"thumbnail":null},"thumbnail":null},{"id":"4fd1cc40-09d5-5e0e-943d-38e2e5e7db3a","title":"ì´ê²ƒì´ ë°ì´í„° í’€ìŠ¤íƒì´ë‹¤.","slug":"/data-fullstack/","link":null,"excerpt":"ê¸€ì„ ì½ê¸°ì— ì•ì„œ ë°ì´í„° í’€ìŠ¤íƒì„ í¬ë§í•˜ëŠ” ì–´ëŠ ë°ì´í„° ë¶„ì„ê°€ì˜ ê°œì¸ì ì¸ ì˜ê²¬ì„ ì ì—ˆìŠµë‹ˆë‹¤. ê°œë°œìë“¤ë„ í’€â€¦","timeToRead":3,"featured":null,"thumbnailText":null,"date":"2021-12-05","category":{"id":"72591dba-cc76-502b-b1a6-e70b32d12956","name":"Data-Driven","slug":"/category/data-driven/","color":"#fefcbf","icon":null},"author":{"id":"79161546-a306-548e-b4f5-9f2abdfc5af9","name":"ì´ì¸ì˜","slug":"/author/nathan/","title":"Data Analyst","description":"ìƒì¡´í˜• ë¹„ì¦ˆë‹ˆìŠ¤ ë°ì´í„°ë¶„ì„ê°€","skills":null,"social":null,"thumbnail":null},"thumbnail":null}],"pageInfo":{"pageCount":18,"hasPreviousPage":true,"hasNextPage":true,"currentPage":15},"totalCount":104}},"pageContext":{"slug":"/tag/","limit":6,"skip":84,"collectionType":"tags","paginatePostsPage":true,"basePath":"/","services":{"algolia":false,"mailchimp":false,"disqus":true,"graphComment":false,"facebookComment":false},"siteUrl":"https://playinpap.github.io","mobileMenu":{"title":"Topics","items":[{"name":"AI","slug":"/category/ai/"},{"name":"Time Series","slug":"/category/time-series/"},{"name":"Notice","slug":"/category/notice/"},{"name":"Visualization","slug":"/category/visualization/"},{"name":"SQL","slug":"/category/sql/"},{"name":"RecSys","slug":"/category/recsys/"},{"name":"Product Analytics","slug":"/category/product-analytics/"},{"name":"Metric","slug":"/category/metric/"},{"name":"Machine Learning","slug":"/category/machine-learning/"},{"name":"Experiment","slug":"/category/experiment/"},{"name":"Etc","slug":"/category/etc/"},{"name":"Data Engineering","slug":"/category/data-engineering/"},{"name":"Data-Driven","slug":"/category/data-driven/"},{"name":"Causal Inference","slug":"/category/causal-inference/"},{"name":"Career","slug":"/category/career/"},{"name":"Career","slug":"/category/career/"},{"name":"Causal Inference","slug":"/category/causal-inference/"},{"name":"Data-Driven","slug":"/category/data-driven/"},{"name":"Data Engineering","slug":"/category/data-engineering/"},{"name":"Etc","slug":"/category/etc/"},{"name":"Experiment","slug":"/category/experiment/"},{"name":"Machine Learning","slug":"/category/machine-learning/"},{"name":"Metric","slug":"/category/metric/"},{"name":"Product Analytics","slug":"/category/product-analytics/"},{"name":"RecSys","slug":"/category/recsys/"},{"name":"SQL","slug":"/category/sql/"},{"name":"Visualization","slug":"/category/visualization/"},{"name":"Notice","slug":"/category/notice/"}]},"darkMode":true,"includeExcerpt":true,"includeTimeToRead":true,"includeTableOfContents":true,"imageQuality":75}},"staticQueryHashes":["1992822086","2313160350"]}