{"componentChunkName":"component---packages-blog-gatsby-blog-core-src-templates-collection-tag-js","path":"/tag/page/17/","result":{"data":{"collectionInfo":{"id":"0ee6dc2f-86b3-5f71-b1d3-fa4710b72715","name":"í”„ë¡œë•íŠ¸ ë§¤ë‹ˆì €","slug":"/tag/"},"posts":{"nodes":[{"id":"e6cf150d-5ff0-5da6-b291-245636e5fe8b","title":"CausalImpactëŠ” ì–´ë–»ê²Œ ì´ë²¤íŠ¸ íš¨ê³¼ë¥¼ ì¶”ì •í• ê¹Œ?","slug":"/causalimpact/","link":null,"excerpt":"ì´ ê¸€ì€ ëˆ„ê°€ ì½ìœ¼ë©´ ì¢‹ì„ê¹Œìš”? : ì¸ê³¼ íš¨ê³¼ ì¶”ì •ì— ê´€ì‹¬ì´ ìˆëŠ” ë°ì´í„° ë¶„ì„ê°€ ì›ê¸€ :  https://â€¦","timeToRead":4,"featured":null,"thumbnailText":null,"date":"2021-11-21","category":{"id":"91a926e7-e227-537c-9237-db3e7379964e","name":"Causal Inference","slug":"/category/causal-inference/","color":"#c6f6d5","icon":null},"author":{"id":"a15208ac-8905-5728-8e7c-c01420836432","name":"ì´ë¯¼í˜¸","slug":"/author/miika/","title":null,"description":"ë°ì´í„°ë¼ì´ì¦ˆ PM","skills":null,"social":null,"thumbnail":null},"thumbnail":null},{"id":"4722bb1f-b76d-5037-a8c7-b7f6c40119c6","title":"ë°ì´í„° ë¶„ì„ê°€ ì œëŒ€ë¡œ ì¨ë¨¹ê¸°","slug":"/cooperate-with-da/","link":null,"excerpt":"ì›ê¸€ :  https://www.jsang.me/cooperate-with-da/ ì´ ê¸€ì€ ëˆ„ê°€ ì½ìœ¼ë©´ ì¢‹â€¦","timeToRead":2,"featured":null,"thumbnailText":null,"date":"2021-11-21","category":{"id":"72591dba-cc76-502b-b1a6-e70b32d12956","name":"Data-Driven","slug":"/category/data-driven/","color":"#fefcbf","icon":null},"author":{"id":"508dec7d-724c-5d76-b07a-fe296e973bd9","name":"ê¹€ìƒí˜„","slug":"/author/jsang/","title":"Data Analyst","description":"ì»¤ë¨¸ìŠ¤ì˜ ì„±ì¥ì„ ë„ìš¸ ìˆ˜ ìˆëŠ” ë°ì´í„° ë¶„ì„ì„ í•©ë‹ˆë‹¤.","skills":["Data Analysis","R","Communication"],"social":[{"name":"Website","url":"https://www.jsang.me"}],"thumbnail":null},"thumbnail":null},{"id":"db6cd7d6-1b1c-5c52-92f7-c8fccb5da754","title":"ê·¸ë˜ì¸ì € ì¸ê³¼ê´€ê³„ ê²€ì •","slug":"/granger-causality-test/","link":null,"excerpt":"ğŸ™†ğŸ»â€â™‚ï¸ ë³¸ ê¸€ì€  ê°œì¸ë¸”ë¡œê·¸ ì—ì„œë„ í™•ì¸ ê°€ëŠ¥í•©ë‹ˆë‹¤. ê³¼ê±° ë‹¤ë¥¸ ê¸€ì—ì„œ ì•„ë˜ì™€ ê°™ì€ ì–˜ê¸°ë¥¼ í•œ ì ì´ ìˆìŠµë‹ˆë‹¤.â€¦","timeToRead":4,"featured":null,"thumbnailText":null,"date":"2021-11-21","category":{"id":"91a926e7-e227-537c-9237-db3e7379964e","name":"Causal Inference","slug":"/category/causal-inference/","color":"#c6f6d5","icon":null},"author":{"id":"a3d9a776-8230-5988-bc8e-25ddd6ae64b6","name":"í—ˆí˜„","slug":"/author/ben/","title":"Data Analyst","description":"NCSOFTì—ì„œ ìœ ì €ì™€ ê²Œì„ ìƒí™©ì„ ë¶„ì„í•˜ëŠ” ì¼ì„ í•˜ê³  ìˆìŠµë‹ˆë‹¤.","skills":["Data Analysis","SQL","Communication","Visualization"],"social":[{"name":"Website","url":"https://benheo.github.io"}],"thumbnail":null},"thumbnail":null},{"id":"eecc332e-6863-5887-9d0f-921698ce4bea","title":"ë² ì´ì§€ì•ˆ ì¸ê³¼ ê´€ê³„ ì¶”ë¡  í†ºì•„ë³´ê¸°","slug":"/bayesian-causal/","link":null,"excerpt":"ì´ ê¸€ì€ ì—„ê²©í•œ ì‹¤í—˜ì´ ì•„ë‹Œ ê´€ì¸¡ í™˜ê²½ (observational studies)ì—ì„œ  ì¸ê³¼ê´€ê³„ ì¶”ë¡  ì„ â€¦","timeToRead":7,"featured":null,"thumbnailText":null,"date":"2021-11-19","category":{"id":"91a926e7-e227-537c-9237-db3e7379964e","name":"Causal Inference","slug":"/category/causal-inference/","color":"#c6f6d5","icon":null},"author":{"id":"b7895b55-4604-5d46-af41-6840def92f34","name":"ì´ì€ì§€","slug":"/author/eunji/","title":"Data Analyst","description":"ë„¥ìŠ¨ ì½”ë¦¬ì•„ì—ì„œ ì–´ë–»ê²Œ í•˜ë©´ ìœ ì €ë“¤ì´ ë” ì¦ê¸¸ ìˆ˜ ìˆëŠ” ê²Œì„ì„ ë§Œë“¤ì§€ ë¶„ì„ê°€ì˜ ê´€ì ì—ì„œ ë°”ë¼ë³´ê³ ì ë…¸ë ¥í•˜ê³  ìˆìŠµë‹ˆë‹¤.","skills":["Data Analysis","Visualization","R","Pyspark","SQL"],"social":[{"name":"Website","url":"https://assaeunji.github.io"}],"thumbnail":null},"thumbnail":null},{"id":"e7439ecd-5716-5582-ab10-756c07323b60","title":"ê°€ë³ê²Œ ì½ëŠ” Product Analysis","slug":"/basic-product-analysis/","link":null,"excerpt":"Don't Boil the Ocean How to Measure Your Product ìš”ì•½ ì •ë¦¬ ê¸€ ì›ê¸€â€¦","timeToRead":6,"featured":null,"thumbnailText":null,"date":"2021-11-18","category":{"id":"548e726d-f106-558f-8ae7-d58a9f70d36e","name":"Metric","slug":"/category/metric/","color":"#e9d8fd","icon":null},"author":{"id":"a52ce1a7-def3-5dd8-af26-056e71a54d6e","name":"ê¹€ì§„í™˜","slug":"/author/jinhwan/","title":"Data Scientist","description":"ë°ì´í„° ê¹ëŠ” ì• ì˜¹ì´","skills":["R","Visualization","Product Management","Data Analysis","ì¸„ë¥´"],"social":[{"name":"Website","url":"https://medium.com/@jhk0530"}],"thumbnail":null},"thumbnail":null},{"id":"3476c849-e2a0-5ca9-9117-72c6d8c26e6d","title":"A/B í…ŒìŠ¤íŠ¸ì˜ í™•ì¥íŒ, MAB (Multi-Armed Bandits) ì•Œê³ ë¦¬ì¦˜","slug":"/mab/","link":null,"excerpt":"ì´ë²ˆ í¬ìŠ¤íŒ…ì—ì„œëŠ” A/B í…ŒìŠ¤íŠ¸ì˜ í™•ì¥íŒì´ë¼ ë³¼ ìˆ˜ ìˆëŠ” MAB (Multi-Armed Bandits) ì•Œâ€¦","timeToRead":7,"featured":null,"thumbnailText":null,"date":"2021-11-03","category":{"id":"1c4c37b8-393e-55bb-a4bc-8261b121a85c","name":"Experiment","slug":"/category/experiment/","color":"#e9d8fd","icon":null},"author":{"id":"b7895b55-4604-5d46-af41-6840def92f34","name":"ì´ì€ì§€","slug":"/author/eunji/","title":"Data Analyst","description":"ë„¥ìŠ¨ ì½”ë¦¬ì•„ì—ì„œ ì–´ë–»ê²Œ í•˜ë©´ ìœ ì €ë“¤ì´ ë” ì¦ê¸¸ ìˆ˜ ìˆëŠ” ê²Œì„ì„ ë§Œë“¤ì§€ ë¶„ì„ê°€ì˜ ê´€ì ì—ì„œ ë°”ë¼ë³´ê³ ì ë…¸ë ¥í•˜ê³  ìˆìŠµë‹ˆë‹¤.","skills":["Data Analysis","Visualization","R","Pyspark","SQL"],"social":[{"name":"Website","url":"https://assaeunji.github.io"}],"thumbnail":null},"thumbnail":null}],"pageInfo":{"pageCount":18,"hasPreviousPage":true,"hasNextPage":true,"currentPage":17},"totalCount":103}},"pageContext":{"slug":"/tag/","limit":6,"skip":96,"collectionType":"tags","paginatePostsPage":true,"basePath":"/","services":{"algolia":false,"mailchimp":false,"disqus":true,"graphComment":false,"facebookComment":false},"siteUrl":"https://playinpap.github.io","mobileMenu":{"title":"Topics","items":[{"name":"AI","slug":"/category/ai/"},{"name":"Time Series","slug":"/category/time-series/"},{"name":"Notice","slug":"/category/notice/"},{"name":"Visualization","slug":"/category/visualization/"},{"name":"SQL","slug":"/category/sql/"},{"name":"RecSys","slug":"/category/recsys/"},{"name":"Product Analytics","slug":"/category/product-analytics/"},{"name":"Metric","slug":"/category/metric/"},{"name":"Machine Learning","slug":"/category/machine-learning/"},{"name":"Experiment","slug":"/category/experiment/"},{"name":"Etc","slug":"/category/etc/"},{"name":"Data Engineering","slug":"/category/data-engineering/"},{"name":"Data-Driven","slug":"/category/data-driven/"},{"name":"Causal Inference","slug":"/category/causal-inference/"},{"name":"Career","slug":"/category/career/"},{"name":"Causal Inference","slug":"/category/causal-inference/"},{"name":"Data-Driven","slug":"/category/data-driven/"},{"name":"Career","slug":"/category/career/"},{"name":"Data Engineering","slug":"/category/data-engineering/"},{"name":"Etc","slug":"/category/etc/"},{"name":"Experiment","slug":"/category/experiment/"},{"name":"Machine Learning","slug":"/category/machine-learning/"},{"name":"Metric","slug":"/category/metric/"},{"name":"Notice","slug":"/category/notice/"},{"name":"Product Analytics","slug":"/category/product-analytics/"},{"name":"Visualization","slug":"/category/visualization/"},{"name":"RecSys","slug":"/category/recsys/"},{"name":"SQL","slug":"/category/sql/"}]},"darkMode":true,"includeExcerpt":true,"includeTimeToRead":true,"includeTableOfContents":true,"imageQuality":75}},"staticQueryHashes":["1992822086","2313160350"]}