{"componentChunkName":"component---packages-blog-gatsby-blog-core-src-templates-collection-tag-js","path":"/tag/page/16/","result":{"data":{"collectionInfo":{"id":"453f9e8d-b63a-56ed-8023-db50795e3447","name":"ëŒ€ì‹œë³´ë“œ","slug":"/tag/"},"posts":{"nodes":[{"id":"232dbc16-1267-5051-b3af-8e06f8e41954","title":"í†µê³„ í…Œì´ë¸”ì„ í†µí•œ ë°ì´í„° ì¶”ì¶œ ìš”ì²­ ì²˜ë¦¬","slug":"/data-extraction-using-stat-table/","link":null,"excerpt":"ê°œìš” ìŠ¤íƒ€íŠ¸ì—… ë°ì´í„° íŒ€ì—ì„œ ì¼í•˜ë‹¤ë³´ë©´ íƒ€ ë¶€ì„œì˜ ë°ì´í„° ì¶”ì¶œ ìš”ì²­ì„ ì •ë§ ë§ì´ ë°›ê²Œë©ë‹ˆë‹¤. ì €í¬ íšŒì‚¬ì˜ â€¦","timeToRead":2,"featured":null,"thumbnailText":null,"date":"2021-12-11","category":{"id":"fb358d67-4892-5d1f-8eb1-02627ea4300c","name":"Data Engineering","slug":"/category/data-engineering/","color":"#e9d8fd","icon":null},"author":{"id":"75c31cae-14f5-574c-8c9d-c6eeae2041d1","name":"ë°•ì°¬ë¯¼","slug":"/author/chan/","title":"Data Engineer","description":"ë°ì´í„° ì—”ì§€ë‹ˆì–´ë¡œ ì‹œì‘í–ˆì§€ë§Œ, ë¶„ì„ ë° ì˜ì‚¬ê²°ì •ì—ë„ ê´€ì‹¬ì´ ë§ì•„ í•¨ê»˜ í™œë™í•˜ê²Œ ë˜ì—ˆìŠµë‹ˆë‹¤ ğŸ˜‚","skills":["SQL","Development","Business Strategy","Python"],"social":[{"name":"Website","url":"https://chanssp.github.io/"}],"thumbnail":null},"thumbnail":null},{"id":"917f49e7-1b15-5bb5-b7f5-123fe69cc450","title":"ì¸ê³¼ì¶”ë¡  ê°„ë‹¨ ë§›ë³´ê¸°","slug":"/causal-inference-basic/","link":null,"excerpt":"ğŸ¯ ë³¸ ê¸€ì€  ê°œì¸ë¸”ë¡œê·¸ ì—ì„œë„ í™•ì¸ ê°€ëŠ¥í•©ë‹ˆë‹¤. Causal Inference(ì¸ê³¼ì¶”ë¡ )ì´ë¼ëŠ” ë‹¨ì–´ê°€ ìµœâ€¦","timeToRead":2,"featured":null,"thumbnailText":null,"date":"2021-12-06","category":{"id":"91a926e7-e227-537c-9237-db3e7379964e","name":"Causal Inference","slug":"/category/causal-inference/","color":"#c6f6d5","icon":null},"author":{"id":"a35e07c7-ac6b-556d-8985-f7fdfb1565c8","name":"ìš°ì§€ì² ","slug":"/author/jimmy/","title":"Data Scientist","description":"ë°ì´í„°ë¥¼ í™œìš©í•´ ë‹¤ì–‘í•œ ê°€ì¹˜ë¥¼ ë§Œë“¤ì–´ ë‚´ëŠ” ê²ƒì— ì§‘ì¤‘í•©ë‹ˆë‹¤.","skills":["Communication","ML/DL","Growth Hacking"],"social":[{"name":"Website","url":"https://zicheori.github.io"}],"thumbnail":null},"thumbnail":null},{"id":"4fd1cc40-09d5-5e0e-943d-38e2e5e7db3a","title":"ì´ê²ƒì´ ë°ì´í„° í’€ìŠ¤íƒì´ë‹¤.","slug":"/data-fullstack/","link":null,"excerpt":"ê¸€ì„ ì½ê¸°ì— ì•ì„œ ë°ì´í„° í’€ìŠ¤íƒì„ í¬ë§í•˜ëŠ” ì–´ëŠ ë°ì´í„° ë¶„ì„ê°€ì˜ ê°œì¸ì ì¸ ì˜ê²¬ì„ ì ì—ˆìŠµë‹ˆë‹¤. ê°œë°œìë“¤ë„ í’€â€¦","timeToRead":3,"featured":null,"thumbnailText":null,"date":"2021-12-05","category":{"id":"72591dba-cc76-502b-b1a6-e70b32d12956","name":"Data-Driven","slug":"/category/data-driven/","color":"#fefcbf","icon":null},"author":{"id":"79161546-a306-548e-b4f5-9f2abdfc5af9","name":"ì´ì¸ì˜","slug":"/author/nathan/","title":"Data Analyst","description":"ìƒì¡´í˜• ë¹„ì¦ˆë‹ˆìŠ¤ ë°ì´í„°ë¶„ì„ê°€","skills":null,"social":null,"thumbnail":null},"thumbnail":null},{"id":"1b1ac7c4-b2da-517c-9ccb-113b128c06f5","title":"í‚¤ìš¸ìˆ˜ë¡ ì†í•´ê°€ ë˜ëŠ” ì§€í‘œê°€ ìˆë‹¤ë©´!? Vanity Metricì˜ ìœ í˜¹ â€” Prelude","slug":"/vanity-metric-prelude/","link":null,"excerpt":"ê°œìš” ë‹¤ë¥¸ ìŠ¤íƒ€íŠ¸ì—…ë“¤ì˜ íˆ¬ììœ ì¹˜ì—ì„œ í™œìš©ë˜ëŠ” ì§€í‘œë¥¼ ë§¹ì‹ í•´ì„œëŠ” ì•ˆë©ë‹ˆë‹¤. ì–¸ë¡ ë³´ë„, ì±„ìš©ê³µê³ ì—ì„œ ì–¸ê¸‰í•˜ê¸´ â€¦","timeToRead":2,"featured":null,"thumbnailText":null,"date":"2021-12-05","category":{"id":"548e726d-f106-558f-8ae7-d58a9f70d36e","name":"Metric","slug":"/category/metric/","color":"#e9d8fd","icon":null},"author":{"id":"e6841cef-e5ac-551a-b781-3ef8d514357e","name":"ë°•ë™í˜","slug":"/author/matt/","title":"Performance Marketer","description":"ê²°í˜¼ì •ë³´ í”Œë«í¼ì˜ í¼í¬ë¨¼ìŠ¤ ë§ˆì¼€íŒ…ì„ ë§¡ê³  ìˆìŠµë‹ˆë‹¤.","skills":["Data Analysis","Communication","Business Strategy"],"social":null,"thumbnail":null},"thumbnail":null},{"id":"eee2ef7f-9856-563c-978b-d1b5fde85a75","title":"ë°ì´í„°ë¡œ í–‰ë™ê³¼ ì˜ì‚¬ê²°ì • ì´ëŒì–´ë‚´ê¸°","slug":"/data-analysis-to-action/","link":null,"excerpt":"ì´ ê¸€ì€ ì œ  ê°œì¸ë¸”ë¡œê·¸ ì—ì„œë„ í™•ì¸í•  ìˆ˜ ìˆìŠµë‹ˆë‹¤. ì›¹ ë°ì´í„° ë¶„ì„ì˜ ëŒ€ê°€ë¼ê³  ë¶ˆë¦¬ëŠ” ì•„ë¹„ë‚˜ì‰¬ ì¹´ìš°ì‰­(Aâ€¦","timeToRead":4,"featured":null,"thumbnailText":null,"date":"2021-12-05","category":{"id":"72591dba-cc76-502b-b1a6-e70b32d12956","name":"Data-Driven","slug":"/category/data-driven/","color":"#fefcbf","icon":null},"author":{"id":"7a7d0f8f-6082-5dd7-aae3-d7f4803f9c32","name":"ì˜¤ì±„í™˜","slug":"/author/chaehwan/","title":"Data Scientist","description":"ì´ì»¤ë¨¸ìŠ¤ë¥¼ ìœ„í•œ ë§ˆì¼€íŒ… ìë™í™” ì†”ë£¨ì…˜ì„ ì œê³µí•˜ëŠ” ë¹…ì¸ì‚¬ì´íŠ¸ì—ì„œ ë°ì´í„° ë¶„ì„ì„ ë§¡ê³  ìˆìŠµë‹ˆë‹¤.","skills":["Data Analysis","Development","SQL","ML/DL"],"social":[{"name":"Website","url":"https://chaehwan-oh.github.io"}],"thumbnail":null},"thumbnail":null},{"id":"69a5ec80-f973-51f6-a3a7-bf677585b2f4","title":"ì‹¤íŒ¨í•œ A/B í…ŒìŠ¤íŠ¸ ê²°ê³¼ì—ì„œë„ ê°€ì¹˜ë¥¼ ì´ëŒì–´ë‚´ëŠ” ë°©ë²•","slug":"/ate-cate-hte/","link":null,"excerpt":"ë¶€ì œ:  ì‹¤í—˜ ê²°ê³¼ ë°ì´í„° ë¶„ì„: ATE, CATE, HTE ì› ê¸€ì€  ì‘ì„±ì ë¸”ë¡œê·¸ ì—ì„œ ë³´ì‹¤ ìˆ˜ ìˆìŠµë‹ˆâ€¦","timeToRead":3,"featured":null,"thumbnailText":null,"date":"2021-12-05","category":{"id":"1c4c37b8-393e-55bb-a4bc-8261b121a85c","name":"Experiment","slug":"/category/experiment/","color":"#e9d8fd","icon":null},"author":{"id":"8646d171-706b-59e0-9492-1525e03b3fa6","name":"ìµœë³´ê²½","slug":"/author/bonnie/","title":"Data Analyst","description":"ë°ì´í„°ê°€ ê¸°ì—… ìš´ì˜ì˜ í•µì‹¬ì´ ë˜ë„ë¡ í•˜ëŠ” ì¼ì„ ì§€í–¥í•©ë‹ˆë‹¤.","skills":["Data Analysis","SQL","Communication","Product Strategy","Business Strategy"],"social":[{"name":"Website","url":"https://medium.com/bondata"}],"thumbnail":null},"thumbnail":{"__typename":"ImageSharp","ImageSharp_vertical":{"layout":"constrained","backgroundColor":"#f8f8f8","images":{"fallback":{"src":"/static/b6384503371ff96590bff67ab7905479/19188/doordash.png","srcSet":"/static/b6384503371ff96590bff67ab7905479/db297/doordash.png 190w,\n/static/b6384503371ff96590bff67ab7905479/19188/doordash.png 380w","sizes":"(min-width: 380px) 380px, 100vw"},"sources":[{"srcSet":"/static/b6384503371ff96590bff67ab7905479/228d6/doordash.webp 190w,\n/static/b6384503371ff96590bff67ab7905479/6b99c/doordash.webp 380w","type":"image/webp","sizes":"(min-width: 380px) 380px, 100vw"}]},"width":380,"height":290},"ImageSharp_hero":{"layout":"constrained","backgroundColor":"#f8f8f8","images":{"fallback":{"src":"/static/b6384503371ff96590bff67ab7905479/f5389/doordash.png","srcSet":"/static/b6384503371ff96590bff67ab7905479/598e6/doordash.png 467w,\n/static/b6384503371ff96590bff67ab7905479/f5389/doordash.png 933w","sizes":"(min-width: 933px) 933px, 100vw"},"sources":[{"srcSet":"/static/b6384503371ff96590bff67ab7905479/1c4d5/doordash.webp 467w,\n/static/b6384503371ff96590bff67ab7905479/9975e/doordash.webp 933w","type":"image/webp","sizes":"(min-width: 933px) 933px, 100vw"}]},"width":1600,"height":649.94640943194}}}],"pageInfo":{"pageCount":18,"hasPreviousPage":true,"hasNextPage":true,"currentPage":16},"totalCount":107}},"pageContext":{"slug":"/tag/","limit":6,"skip":90,"collectionType":"{tags: {slug: SELECT}","paginatePostsPage":true,"basePath":"/","services":{"algolia":false,"mailchimp":false,"disqus":true,"graphComment":false,"facebookComment":false},"siteUrl":"https://playinpap.github.io","mobileMenu":{"title":"Topics","items":[{"name":"Statistics","slug":"/category/statistics/"},{"name":"Data pipeline","slug":"/category/data-pipeline/"},{"name":"AI","slug":"/category/ai/"},{"name":"Time Series","slug":"/category/time-series/"},{"name":"Notice","slug":"/category/notice/"},{"name":"Visualization","slug":"/category/visualization/"},{"name":"SQL","slug":"/category/sql/"},{"name":"RecSys","slug":"/category/recsys/"},{"name":"Product Analytics","slug":"/category/product-analytics/"},{"name":"Metric","slug":"/category/metric/"},{"name":"Machine Learning","slug":"/category/machine-learning/"},{"name":"Experiment","slug":"/category/experiment/"},{"name":"Etc","slug":"/category/etc/"},{"name":"Data Engineering","slug":"/category/data-engineering/"},{"name":"Data-Driven","slug":"/category/data-driven/"},{"name":"Causal Inference","slug":"/category/causal-inference/"},{"name":"Career","slug":"/category/career/"},{"name":"Career","slug":"/category/career/"},{"name":"Causal Inference","slug":"/category/causal-inference/"},{"name":"Data-Driven","slug":"/category/data-driven/"},{"name":"Data Engineering","slug":"/category/data-engineering/"},{"name":"Etc","slug":"/category/etc/"},{"name":"Experiment","slug":"/category/experiment/"},{"name":"Machine Learning","slug":"/category/machine-learning/"},{"name":"Metric","slug":"/category/metric/"},{"name":"Notice","slug":"/category/notice/"},{"name":"RecSys","slug":"/category/recsys/"},{"name":"Visualization","slug":"/category/visualization/"},{"name":"SQL","slug":"/category/sql/"},{"name":"Product Analytics","slug":"/category/product-analytics/"}]},"darkMode":true,"includeExcerpt":true,"includeTimeToRead":true,"includeTableOfContents":true,"imageQuality":75}},"staticQueryHashes":["1992822086","2313160350"],"slicesMap":{}}