{"componentChunkName":"component---packages-blog-gatsby-blog-core-src-templates-collection-tag-js","path":"/tag/page/2/","result":{"data":{"collectionInfo":{"id":"b2cefa94-20b0-54ae-acfd-96fb23be7755","name":"#커뮤니티공지","slug":"/tag/"},"posts":{"nodes":[{"id":"3d9ccb9c-ded0-5643-b7e6-d8f439b4d651","title":"다짜고짜 배워보는 시계열 분석 | 정상성을 둘러싼 기초 개념 — 2편","slug":"/easypeasy-time-series-02/","link":null,"excerpt":"시계열 분석의 기초는 과거의 관측값이 가지고 있는 여러 패턴 토대로, 미래의 관측값을 예측하는 것입니다. …","timeToRead":5,"featured":null,"thumbnailText":null,"date":"2022-08-15","category":{"id":"fdc6088f-100f-5e34-b5c5-72c641ed1c6a","name":"Etc","slug":"/category/etc/","color":"#bee3f8","icon":null},"author":{"id":"11b163c4-212b-50ce-a753-4730fa1fce33","name":"이윤희","slug":"/author/noel/","title":"Strategy Manager","description":"논리와 데이터 기반의 탁월한 제너럴리스트를 지향합니다.","skills":["Data Analysis","Communication","SQL","Business Strategy"],"social":[{"name":"Website","url":"https://medium.com/@connect2yh"}],"thumbnail":null},"thumbnail":{"__typename":"ImageSharp","ImageSharp_vertical":{"layout":"constrained","backgroundColor":"#f8f8f8","images":{"fallback":{"src":"/static/581f689b0b85ead4ab92d7d1addcab0f/19188/07_trans.png","srcSet":"/static/581f689b0b85ead4ab92d7d1addcab0f/db297/07_trans.png 190w,\n/static/581f689b0b85ead4ab92d7d1addcab0f/19188/07_trans.png 380w","sizes":"(min-width: 380px) 380px, 100vw"},"sources":[{"srcSet":"/static/581f689b0b85ead4ab92d7d1addcab0f/228d6/07_trans.webp 190w,\n/static/581f689b0b85ead4ab92d7d1addcab0f/6b99c/07_trans.webp 380w","type":"image/webp","sizes":"(min-width: 380px) 380px, 100vw"}]},"width":380,"height":290},"ImageSharp_hero":{"layout":"constrained","backgroundColor":"#f8f8f8","images":{"fallback":{"src":"/static/581f689b0b85ead4ab92d7d1addcab0f/b9c47/07_trans.png","srcSet":"/static/581f689b0b85ead4ab92d7d1addcab0f/b49b8/07_trans.png 280w,\n/static/581f689b0b85ead4ab92d7d1addcab0f/b9c47/07_trans.png 560w","sizes":"(min-width: 560px) 560px, 100vw"},"sources":[{"srcSet":"/static/581f689b0b85ead4ab92d7d1addcab0f/14914/07_trans.webp 280w,\n/static/581f689b0b85ead4ab92d7d1addcab0f/ea704/07_trans.webp 560w","type":"image/webp","sizes":"(min-width: 560px) 560px, 100vw"}]},"width":1600,"height":651.4285714285714}}},{"id":"72367be3-d09b-50e2-aac2-18b0eb518386","title":"라떼 시리즈 (1): 회사에서 꽤나 괜찮은 주니어가 되려면","slug":"/latte-1/","link":null,"excerpt":"이번엔 특별히 라떼 시리즈로 찾아왔습니다! 이제 어느덧 서른을 접어들면서 일, 결혼, 차, 사치, 주식, …","timeToRead":8,"featured":null,"thumbnailText":null,"date":"2022-08-08","category":{"id":"03fd41aa-5b9b-5e34-a9c9-fcfe159c2c98","name":"Career","slug":"/category/career/","color":"#bee3f8","icon":null},"author":{"id":"b7895b55-4604-5d46-af41-6840def92f34","name":"이은지","slug":"/author/eunji/","title":"Data Analyst","description":"넥슨 코리아에서 어떻게 하면 유저들이 더 즐길 수 있는 게임을 만들지 분석가의 관점에서 바라보고자 노력하고 있습니다.","skills":["Data Analysis","Visualization","R","Pyspark","SQL"],"social":[{"name":"Website","url":"https://assaeunji.github.io"}],"thumbnail":null},"thumbnail":{"__typename":"ImageSharp","ImageSharp_vertical":{"layout":"constrained","backgroundColor":"#987868","images":{"fallback":{"src":"/static/4f6904803f278abcf851b42e8846c97c/5b879/latte-1.jpg","srcSet":"/static/4f6904803f278abcf851b42e8846c97c/3cdec/latte-1.jpg 182w,\n/static/4f6904803f278abcf851b42e8846c97c/5b879/latte-1.jpg 364w","sizes":"(min-width: 364px) 364px, 100vw"},"sources":[{"srcSet":"/static/4f6904803f278abcf851b42e8846c97c/9930f/latte-1.webp 182w,\n/static/4f6904803f278abcf851b42e8846c97c/f216b/latte-1.webp 364w","type":"image/webp","sizes":"(min-width: 364px) 364px, 100vw"}]},"width":380,"height":290.2197802197802},"ImageSharp_hero":{"layout":"constrained","backgroundColor":"#987868","images":{"fallback":{"src":"/static/4f6904803f278abcf851b42e8846c97c/d2af9/latte-1.jpg","srcSet":"/static/4f6904803f278abcf851b42e8846c97c/7037b/latte-1.jpg 182w,\n/static/4f6904803f278abcf851b42e8846c97c/d2af9/latte-1.jpg 364w","sizes":"(min-width: 364px) 364px, 100vw"},"sources":[{"srcSet":"/static/4f6904803f278abcf851b42e8846c97c/7201b/latte-1.webp 182w,\n/static/4f6904803f278abcf851b42e8846c97c/6ae84/latte-1.webp 364w","type":"image/webp","sizes":"(min-width: 364px) 364px, 100vw"}]},"width":1600,"height":650.5494505494505}}},{"id":"d2e5aaf9-54dd-5beb-af98-83ba589566b1","title":"데이터를 조지는 101가지 삽질 전 물어볼 질문들","slug":"/shapjil-101/","link":null,"excerpt":"데이터를 조지는 101가지 삽질 전 물어볼 질문들 모든 것이 빠르게 변하는 이 시대에 \"데이터 드리븐 결정…","timeToRead":5,"featured":null,"thumbnailText":null,"date":"2022-08-08","category":{"id":"fdc6088f-100f-5e34-b5c5-72c641ed1c6a","name":"Etc","slug":"/category/etc/","color":"#bee3f8","icon":null},"author":{"id":"30544e57-6926-5dfe-8ac4-b2c00d9f85e6","name":"최창식","slug":"/author/herick/","title":"Data Analyst","description":"서비스에 관심많은 데이터 분석가 입니다.","skills":["Data Analysis"],"social":[{"name":"Website","url":"https://brunch.co.kr/@changsikcho33ug"}],"thumbnail":null},"thumbnail":{"__typename":"ImageSharp","ImageSharp_vertical":{"layout":"constrained","backgroundColor":"#d85858","images":{"fallback":{"src":"/static/0aebbfc3b3c5d42ff832f21a176991cb/19188/season2_thumbnail.png","srcSet":"/static/0aebbfc3b3c5d42ff832f21a176991cb/db297/season2_thumbnail.png 190w,\n/static/0aebbfc3b3c5d42ff832f21a176991cb/19188/season2_thumbnail.png 380w","sizes":"(min-width: 380px) 380px, 100vw"},"sources":[{"srcSet":"/static/0aebbfc3b3c5d42ff832f21a176991cb/228d6/season2_thumbnail.webp 190w,\n/static/0aebbfc3b3c5d42ff832f21a176991cb/6b99c/season2_thumbnail.webp 380w","type":"image/webp","sizes":"(min-width: 380px) 380px, 100vw"}]},"width":380,"height":290},"ImageSharp_hero":{"layout":"constrained","backgroundColor":"#d85858","images":{"fallback":{"src":"/static/0aebbfc3b3c5d42ff832f21a176991cb/5fb32/season2_thumbnail.png","srcSet":"/static/0aebbfc3b3c5d42ff832f21a176991cb/739fd/season2_thumbnail.png 600w,\n/static/0aebbfc3b3c5d42ff832f21a176991cb/5fb32/season2_thumbnail.png 1200w","sizes":"(min-width: 1200px) 1200px, 100vw"},"sources":[{"srcSet":"/static/0aebbfc3b3c5d42ff832f21a176991cb/288e3/season2_thumbnail.webp 600w,\n/static/0aebbfc3b3c5d42ff832f21a176991cb/5b893/season2_thumbnail.webp 1200w","type":"image/webp","sizes":"(min-width: 1200px) 1200px, 100vw"}]},"width":1600,"height":650.6666666666666}}},{"id":"3eca469b-b42d-5161-bccc-f0e5e9f04d3c","title":"고객의 행동을 변화시키는 Actionable Insight","slug":"/for-model/","link":null,"excerpt":"부제: 데이터분석과 심리학 사이 그 어딘가 이번 글에서는 ( 이어지는 글 ) 아래 product analy…","timeToRead":3,"featured":null,"thumbnailText":null,"date":"2022-08-08","category":{"id":"72591dba-cc76-502b-b1a6-e70b32d12956","name":"Data-Driven","slug":"/category/data-driven/","color":"#fefcbf","icon":null},"author":{"id":"a52ce1a7-def3-5dd8-af26-056e71a54d6e","name":"김진환","slug":"/author/jinhwan/","title":"Data Scientist","description":"데이터 깎는 애옹이","skills":["R","Visualization","Product Management","Data Analysis","츄르"],"social":[{"name":"Website","url":"https://medium.com/@jhk0530"}],"thumbnail":null},"thumbnail":null},{"id":"a98ee8e0-b204-5eee-b121-b950cc33ef67","title":"데이터 프로덕트는 결국 프로덕트다 (번역)","slug":"/data-product-management/","link":null,"excerpt":"이 글은  작성자 블로그 에서도 보실 수 있습니다. 이 글은 아래 미디엄 블로그의 글을 번역하였습니다. (…","timeToRead":6,"featured":null,"thumbnailText":null,"date":"2022-07-31","category":{"id":"fdc6088f-100f-5e34-b5c5-72c641ed1c6a","name":"Etc","slug":"/category/etc/","color":"#bee3f8","icon":null},"author":{"id":"ef0b2d29-821c-5ebf-9a35-79f0cb7bd774","name":"이용혁","slug":"/author/yong/","title":"Data Scientist","description":"기술에서 출발하는 것이 아닌 서비스에서 출발하는 ML을 만들어나가고 있습니다. 모두가 자신만의 ML 서비스를 만드는 그날까지.","skills":["ML/DL","Statistics","Python","Pyspark","Communication"],"social":[{"name":"Website","url":"https://medium.com/@joshuaisland"}],"thumbnail":null},"thumbnail":{"__typename":"ImageSharp","ImageSharp_vertical":{"layout":"constrained","backgroundColor":"#d85858","images":{"fallback":{"src":"/static/0aebbfc3b3c5d42ff832f21a176991cb/19188/season2_thumbnail.png","srcSet":"/static/0aebbfc3b3c5d42ff832f21a176991cb/db297/season2_thumbnail.png 190w,\n/static/0aebbfc3b3c5d42ff832f21a176991cb/19188/season2_thumbnail.png 380w","sizes":"(min-width: 380px) 380px, 100vw"},"sources":[{"srcSet":"/static/0aebbfc3b3c5d42ff832f21a176991cb/228d6/season2_thumbnail.webp 190w,\n/static/0aebbfc3b3c5d42ff832f21a176991cb/6b99c/season2_thumbnail.webp 380w","type":"image/webp","sizes":"(min-width: 380px) 380px, 100vw"}]},"width":380,"height":290},"ImageSharp_hero":{"layout":"constrained","backgroundColor":"#d85858","images":{"fallback":{"src":"/static/0aebbfc3b3c5d42ff832f21a176991cb/5fb32/season2_thumbnail.png","srcSet":"/static/0aebbfc3b3c5d42ff832f21a176991cb/739fd/season2_thumbnail.png 600w,\n/static/0aebbfc3b3c5d42ff832f21a176991cb/5fb32/season2_thumbnail.png 1200w","sizes":"(min-width: 1200px) 1200px, 100vw"},"sources":[{"srcSet":"/static/0aebbfc3b3c5d42ff832f21a176991cb/288e3/season2_thumbnail.webp 600w,\n/static/0aebbfc3b3c5d42ff832f21a176991cb/5b893/season2_thumbnail.webp 1200w","type":"image/webp","sizes":"(min-width: 1200px) 1200px, 100vw"}]},"width":1600,"height":650.6666666666666}}},{"id":"09044c93-3a4e-5d05-af51-291b38440e90","title":"Retention Plateau의 중심에서 PMF를 외치다","slug":"/retention-plateau/","link":null,"excerpt":"현재 여러분께서는  프로덕트 데이터 분석 커뮤니티 PAP 블로그 에서 이 글을 보고 계시는데 디자인이 fi…","timeToRead":4,"featured":null,"thumbnailText":null,"date":"2022-07-31","category":{"id":"72591dba-cc76-502b-b1a6-e70b32d12956","name":"Data-Driven","slug":"/category/data-driven/","color":"#fefcbf","icon":null},"author":{"id":"f32690e1-9afe-504d-b1b6-fd20ab5308cb","name":"이한나","slug":"/author/hannah/","title":"Project Manager","description":"Unmet-Needs를 충족하는 기획자 & Wants를 해결하는 PMO입니다. 길거리 음식 지도 커뮤니티 ‘가슴속 3천원’을 만들고 있습니다.","skills":["Product Management","Communication","Product Strategy","Growth Hacking"],"social":[{"name":"Website","url":"https://litt.ly/yeehannah"}],"thumbnail":null},"thumbnail":null}],"pageInfo":{"pageCount":17,"hasPreviousPage":true,"hasNextPage":true,"currentPage":2},"totalCount":101}},"pageContext":{"slug":"/tag/","limit":6,"skip":6,"collectionType":"tags","paginatePostsPage":true,"basePath":"/","services":{"algolia":false,"mailchimp":false,"disqus":true,"graphComment":false,"facebookComment":false},"siteUrl":"https://playinpap.github.io","mobileMenu":{"title":"Topics","items":[{"name":"Notice","slug":"/category/notice/"},{"name":"Visualization","slug":"/category/visualization/"},{"name":"SQL","slug":"/category/sql/"},{"name":"RecSys","slug":"/category/recsys/"},{"name":"Product Analytics","slug":"/category/product-analytics/"},{"name":"Metric","slug":"/category/metric/"},{"name":"Machine Learning","slug":"/category/machine-learning/"},{"name":"Experiment","slug":"/category/experiment/"},{"name":"Etc","slug":"/category/etc/"},{"name":"Data Engineering","slug":"/category/data-engineering/"},{"name":"Data-Driven","slug":"/category/data-driven/"},{"name":"Causal Inference","slug":"/category/causal-inference/"},{"name":"Career","slug":"/category/career/"},{"name":"Career","slug":"/category/career/"},{"name":"Causal Inference","slug":"/category/causal-inference/"},{"name":"Data-Driven","slug":"/category/data-driven/"},{"name":"Data Engineering","slug":"/category/data-engineering/"},{"name":"Etc","slug":"/category/etc/"},{"name":"Experiment","slug":"/category/experiment/"},{"name":"Machine Learning","slug":"/category/machine-learning/"},{"name":"Metric","slug":"/category/metric/"},{"name":"Notice","slug":"/category/notice/"},{"name":"Product Analytics","slug":"/category/product-analytics/"},{"name":"RecSys","slug":"/category/recsys/"},{"name":"SQL","slug":"/category/sql/"},{"name":"Visualization","slug":"/category/visualization/"}]},"darkMode":true,"includeExcerpt":true,"includeTimeToRead":true,"includeTableOfContents":true,"imageQuality":75}},"staticQueryHashes":["1992822086","2313160350"]}