{"componentChunkName":"component---packages-blog-gatsby-blog-core-src-templates-collection-tag-js","path":"/tag/page/19/","result":{"data":{"collectionInfo":{"id":"453f9e8d-b63a-56ed-8023-db50795e3447","name":"ëŒ€ì‹œë³´ë“œ","slug":"/tag/"},"posts":{"nodes":[{"id":"e7439ecd-5716-5582-ab10-756c07323b60","title":"ê°€ë³ê²Œ ì½ëŠ” Product Analysis","slug":"/basic-product-analysis/","link":null,"excerpt":"Don't Boil the Ocean How to Measure Your Product ìš”ì•½ ì •ë¦¬ ê¸€ ì›ê¸€â€¦","timeToRead":6,"featured":null,"thumbnailText":null,"date":"2021-11-18","category":{"id":"548e726d-f106-558f-8ae7-d58a9f70d36e","name":"Metric","slug":"/category/metric/","color":"#e9d8fd","icon":null},"author":{"id":"a52ce1a7-def3-5dd8-af26-056e71a54d6e","name":"ê¹€ì§„í™˜","slug":"/author/jinhwan/","title":"Data Scientist","description":"ë°ì´í„° ê¹ëŠ” ì• ì˜¹ì´","skills":["R","Visualization","Product Management","Data Analysis","ì¸„ë¥´"],"social":[{"name":"Website","url":"https://medium.com/@jhk0530"}],"thumbnail":null},"thumbnail":null},{"id":"3476c849-e2a0-5ca9-9117-72c6d8c26e6d","title":"A/B í…ŒìŠ¤íŠ¸ì˜ í™•ì¥íŒ, MAB (Multi-Armed Bandits) ì•Œê³ ë¦¬ì¦˜","slug":"/mab/","link":null,"excerpt":"ì´ë²ˆ í¬ìŠ¤íŒ…ì—ì„œëŠ” A/B í…ŒìŠ¤íŠ¸ì˜ í™•ì¥íŒì´ë¼ ë³¼ ìˆ˜ ìˆëŠ” MAB (Multi-Armed Bandits) ì•Œâ€¦","timeToRead":7,"featured":null,"thumbnailText":null,"date":"2021-11-03","category":{"id":"1c4c37b8-393e-55bb-a4bc-8261b121a85c","name":"Experiment","slug":"/category/experiment/","color":"#e9d8fd","icon":null},"author":{"id":"b7895b55-4604-5d46-af41-6840def92f34","name":"ì´ì€ì§€","slug":"/author/eunji/","title":"Data Analyst","description":"ë„¥ìŠ¨ ì½”ë¦¬ì•„ì—ì„œ ì–´ë–»ê²Œ í•˜ë©´ ìœ ì €ë“¤ì´ ë” ì¦ê¸¸ ìˆ˜ ìˆëŠ” ê²Œì„ì„ ë§Œë“¤ì§€ ë¶„ì„ê°€ì˜ ê´€ì ì—ì„œ ë°”ë¼ë³´ê³ ì ë…¸ë ¥í•˜ê³  ìˆìŠµë‹ˆë‹¤.","skills":["Data Analysis","Visualization","R","Pyspark","SQL"],"social":[{"name":"Website","url":"https://assaeunji.github.io"}],"thumbnail":null},"thumbnail":null},{"id":"3e95dea5-277f-5f9c-973d-67fc64f3af02","title":"2021ë…„ FWì‹œì¦Œ PAP í¼ë¸”ë¦¬ì…”ë¥¼ ëª¨ì§‘í•©ë‹ˆë‹¤!","slug":"/2021-fw-member-recruitment/","link":null,"excerpt":"ì•ˆë…•í•˜ì„¸ìš”. PAPê³¼ í•¨ê»˜í•  ë©¤ë²„ë“¤ì„ ì°¾ê³  ìˆìŠµë‹ˆë‹¤! ì´ëŸ° ë¶„ë“¤ ê³„ì‹ ê°€ìš”? ğŸ’ğŸ» í”„ë¡œë•íŠ¸ì™€ ë°ì´í„° ë¶„ì„ ê´€ë ¨â€¦","timeToRead":1,"featured":null,"thumbnailText":null,"date":"2021-10-14","category":{"id":"88d0b610-237e-5ff2-98f0-ea762ae750cc","name":"Notice","slug":"/category/notice/","color":"#c6f6d5","icon":null},"author":{"id":"8646d171-706b-59e0-9492-1525e03b3fa6","name":"ìµœë³´ê²½","slug":"/author/bonnie/","title":"Data Analyst","description":"ë°ì´í„°ê°€ ê¸°ì—… ìš´ì˜ì˜ í•µì‹¬ì´ ë˜ë„ë¡ í•˜ëŠ” ì¼ì„ ì§€í–¥í•©ë‹ˆë‹¤.","skills":["Data Analysis","SQL","Communication","Product Strategy","Business Strategy"],"social":[{"name":"Website","url":"https://medium.com/bondata"}],"thumbnail":null},"thumbnail":null}],"pageInfo":{"pageCount":19,"hasPreviousPage":true,"hasNextPage":false,"currentPage":19},"totalCount":111}},"pageContext":{"slug":"/tag/","limit":6,"skip":108,"collectionType":"{tags: {slug: SELECT}","paginatePostsPage":true,"basePath":"/","services":{"algolia":false,"mailchimp":false,"disqus":true,"graphComment":false,"facebookComment":false},"siteUrl":"https://playinpap.github.io","mobileMenu":{"title":"Topics","items":[{"name":"Statistics","slug":"/category/statistics/"},{"name":"Data pipeline","slug":"/category/data-pipeline/"},{"name":"AI","slug":"/category/ai/"},{"name":"Time Series","slug":"/category/time-series/"},{"name":"Notice","slug":"/category/notice/"},{"name":"Visualization","slug":"/category/visualization/"},{"name":"RecSys","slug":"/category/recsys/"},{"name":"Metric","slug":"/category/metric/"},{"name":"Machine Learning","slug":"/category/machine-learning/"},{"name":"Experiment","slug":"/category/experiment/"},{"name":"Data Engineering","slug":"/category/data-engineering/"},{"name":"Data-Driven","slug":"/category/data-driven/"},{"name":"Career","slug":"/category/career/"},{"name":"Causal Inference","slug":"/category/causal-inference/"},{"name":"Data-Driven","slug":"/category/data-driven/"},{"name":"Data Engineering","slug":"/category/data-engineering/"},{"name":"Etc","slug":"/category/etc/"},{"name":"Experiment","slug":"/category/experiment/"},{"name":"Machine Learning","slug":"/category/machine-learning/"},{"name":"Metric","slug":"/category/metric/"},{"name":"Notice","slug":"/category/notice/"},{"name":"RecSys","slug":"/category/recsys/"},{"name":"Visualization","slug":"/category/visualization/"},{"name":"SQL","slug":"/category/sql/"},{"name":"Product Analytics","slug":"/category/product-analytics/"},{"name":"Product Analytics","slug":"/category/product-analytics/"},{"name":"Etc","slug":"/category/etc/"},{"name":"SQL","slug":"/category/sql/"},{"name":"Causal Inference","slug":"/category/causal-inference/"},{"name":"Career","slug":"/category/career/"}]},"darkMode":true,"includeExcerpt":true,"includeTimeToRead":true,"includeTableOfContents":true,"imageQuality":75}},"staticQueryHashes":["1992822086","2313160350"],"slicesMap":{}}