{"componentChunkName":"component---packages-blog-gatsby-blog-core-src-templates-collection-tag-js","path":"/tag/","result":{"data":{"collectionInfo":{"id":"453f9e8d-b63a-56ed-8023-db50795e3447","name":"ëŒ€ì‹œë³´ë“œ","slug":"/tag/"},"posts":{"nodes":[{"id":"3387f4e8-297a-5eec-bf49-1203ee71869a","title":"ë°ì´í„° ë¶„ì„ê°€ì˜ Redash ëŒ€ì‹œë³´ë“œ êµ¬ì¶•í•˜ê¸° 101","slug":"/redash-101/","link":null,"excerpt":"ëŒ€ìƒì ëŒ€ì‹œë³´ë“œ í”„ë¡œì íŠ¸ë¥¼ í¬íŠ¸í´ë¦¬ì˜¤ë¡œ ì‚¬ìš©í•˜ê³  ì‹¶ì€ ë¶„ ë°ì´í„° ë¶„ì„ê°€ê°€ ê°„í¸í•˜ê²Œ ëŒ€ì‹œë³´ë“œë¥¼ êµ¬ì¶•í•˜ê³  ì‹¶ì€â€¦","timeToRead":3,"featured":false,"thumbnailText":null,"date":"2023-04-30","category":{"id":"fb358d67-4892-5d1f-8eb1-02627ea4300c","name":"Data Engineering","slug":"/category/data-engineering/","color":"#e9d8fd","icon":null},"author":{"id":"667772b9-dd19-5d6b-9400-214b7a44568d","name":"ëˆ„ë¦¬","slug":"/author/nuli/","title":"Data Analyst","description":"ë°ì´í„° ë¶„ì„ì„ í†µí•´ ìœ ì €ë¥¼ ì´í•´í•˜ëŠ” ê²ƒì„ ì¢‹ì•„í•©ë‹ˆë‹¤. ","skills":["SQL","Python"],"social":null,"thumbnail":null},"thumbnail":null},{"id":"9f5ff561-33c5-5eb4-ab1e-be601edb9cf3","title":"ë¶„ì„ ì¡°ì§ì´ ì¡°ê¸ˆ ë” ë¹ ë¥´ê³  ìœ ì—°í•˜ê²Œ ì›€ì§ì¼ ìˆ˜ ìˆëŠ” í™˜ê²½ ë§Œë“¤ê¸°","slug":"/data-pipeline-elt/","link":null,"excerpt":"ì˜¤ëŠ˜ì˜ ê¸€ì€ \"ë¶„ì„ ì¡°ì§ì´ ì¡°ê¸ˆ ë” ë¹ ë¥´ê³  ìœ ì—°í•˜ê²Œ ì›€ì§ì¼ ìˆ˜ ìˆëŠ” í™˜ê²½ì€?\"ì´ë¼ëŠ” ì§ˆë¬¸ìœ¼ë¡œë¶€í„° ì‹œì‘ë˜ì—ˆìœ¼â€¦","timeToRead":3,"featured":false,"thumbnailText":null,"date":"2023-04-30","category":{"id":"ab6a1acd-e9af-5189-9b62-01b99c3a2576","name":"Data pipeline","slug":"/category/data-pipeline/","color":"#FDFF90","icon":null},"author":{"id":"ff9a2fc6-d970-530d-873b-38c2e8192842","name":"ë°•ì¤€í•˜","slug":"/author/goldlant/","title":"Data Analyst","description":"Product Growth / Analytics Engineeringì— ê´€ì‹¬ì´ ë§ìŠµë‹ˆë‹¤.","skills":["SQL","Python"],"social":[{"name":null,"url":"https://www.linkedin.com/in/goldlant/"}],"thumbnail":null},"thumbnail":{"__typename":"ContentfulAsset","ContentfulAsset_vertical":{"images":{"sources":[{"srcSet":"https://images.ctfassets.net/1doif00uinav/73agZyHHj290Y5pBdO8nhi/9a1f49035222c5f1d8b481e972e10464/ETL_Data_Pipeline.png?w=95&h=73&q=75&fm=webp&fit=thumb&f=center 95w,\nhttps://images.ctfassets.net/1doif00uinav/73agZyHHj290Y5pBdO8nhi/9a1f49035222c5f1d8b481e972e10464/ETL_Data_Pipeline.png?w=190&h=145&q=75&fm=webp&fit=thumb&f=center 190w,\nhttps://images.ctfassets.net/1doif00uinav/73agZyHHj290Y5pBdO8nhi/9a1f49035222c5f1d8b481e972e10464/ETL_Data_Pipeline.png?w=380&h=290&q=75&fm=webp&fit=thumb&f=center 380w,\nhttps://images.ctfassets.net/1doif00uinav/73agZyHHj290Y5pBdO8nhi/9a1f49035222c5f1d8b481e972e10464/ETL_Data_Pipeline.png?w=760&h=580&q=75&fm=webp&fit=thumb&f=center 760w","sizes":"(min-width: 380px) 380px, 100vw","type":"image/webp"}],"fallback":{"src":"https://images.ctfassets.net/1doif00uinav/73agZyHHj290Y5pBdO8nhi/9a1f49035222c5f1d8b481e972e10464/ETL_Data_Pipeline.png?w=380&h=290&fl=progressive&q=75&fm=jpg&fit=thumb&f=center","srcSet":"https://images.ctfassets.net/1doif00uinav/73agZyHHj290Y5pBdO8nhi/9a1f49035222c5f1d8b481e972e10464/ETL_Data_Pipeline.png?w=95&h=73&fl=progressive&q=75&fm=jpg&fit=thumb&f=center 95w,\nhttps://images.ctfassets.net/1doif00uinav/73agZyHHj290Y5pBdO8nhi/9a1f49035222c5f1d8b481e972e10464/ETL_Data_Pipeline.png?w=190&h=145&fl=progressive&q=75&fm=jpg&fit=thumb&f=center 190w,\nhttps://images.ctfassets.net/1doif00uinav/73agZyHHj290Y5pBdO8nhi/9a1f49035222c5f1d8b481e972e10464/ETL_Data_Pipeline.png?w=380&h=290&fl=progressive&q=75&fm=jpg&fit=thumb&f=center 380w,\nhttps://images.ctfassets.net/1doif00uinav/73agZyHHj290Y5pBdO8nhi/9a1f49035222c5f1d8b481e972e10464/ETL_Data_Pipeline.png?w=760&h=580&fl=progressive&q=75&fm=jpg&fit=thumb&f=center 760w","sizes":"(min-width: 380px) 380px, 100vw"}},"layout":"constrained","backgroundColor":"#080808","width":380,"height":290},"ContentfulAsset_hero":{"images":{"sources":[{"srcSet":"https://images.ctfassets.net/1doif00uinav/73agZyHHj290Y5pBdO8nhi/9a1f49035222c5f1d8b481e972e10464/ETL_Data_Pipeline.png?w=400&h=163&q=75&fm=webp&fit=thumb 400w,\nhttps://images.ctfassets.net/1doif00uinav/73agZyHHj290Y5pBdO8nhi/9a1f49035222c5f1d8b481e972e10464/ETL_Data_Pipeline.png?w=800&h=325&q=75&fm=webp&fit=thumb 800w,\nhttps://images.ctfassets.net/1doif00uinav/73agZyHHj290Y5pBdO8nhi/9a1f49035222c5f1d8b481e972e10464/ETL_Data_Pipeline.png?w=1600&h=650&q=75&fm=webp&fit=thumb 1600w","sizes":"(min-width: 1600px) 1600px, 100vw","type":"image/webp"}],"fallback":{"src":"https://images.ctfassets.net/1doif00uinav/73agZyHHj290Y5pBdO8nhi/9a1f49035222c5f1d8b481e972e10464/ETL_Data_Pipeline.png?w=1600&h=650&fl=progressive&q=75&fm=jpg&fit=thumb","srcSet":"https://images.ctfassets.net/1doif00uinav/73agZyHHj290Y5pBdO8nhi/9a1f49035222c5f1d8b481e972e10464/ETL_Data_Pipeline.png?w=400&h=163&fl=progressive&q=75&fm=jpg&fit=thumb 400w,\nhttps://images.ctfassets.net/1doif00uinav/73agZyHHj290Y5pBdO8nhi/9a1f49035222c5f1d8b481e972e10464/ETL_Data_Pipeline.png?w=800&h=325&fl=progressive&q=75&fm=jpg&fit=thumb 800w,\nhttps://images.ctfassets.net/1doif00uinav/73agZyHHj290Y5pBdO8nhi/9a1f49035222c5f1d8b481e972e10464/ETL_Data_Pipeline.png?w=1600&h=650&fl=progressive&q=75&fm=jpg&fit=thumb 1600w","sizes":"(min-width: 1600px) 1600px, 100vw"}},"layout":"constrained","backgroundColor":"#080808","width":1600,"height":650}}},{"id":"51c0965b-4479-5d39-90a9-12b2385e84b5","title":"ì§€í‘œì™€ ë¶„ì„ì˜ ì°¨ì´ì ","slug":"/difference_between_metric_and_analysis/","link":null,"excerpt":"ë°ì´í„° ì§êµ°ìœ¼ë¡œì„œ íšŒì‚¬ë¥¼ ë‹¤ë‹ˆë‹¤ë³´ë©´ ë°ì´í„° ì§êµ°ì´ ì•„ë‹Œ ë¶„ë“¤ì—ê²Œ ë°ì´í„° ê´€ë ¨ ì§ˆë¬¸ì„ ë°›ê³¤ í•´ìš”. ìµœê·¼ì— í•¨â€¦","timeToRead":4,"featured":false,"thumbnailText":null,"date":"2023-04-29","category":{"id":"dfebefca-7b20-5a5e-9ed5-28a35cf56320","name":"Product Analytics","slug":"/category/product-analytics/","color":"#c6f6d5","icon":null},"author":{"id":"2c0cdad6-2bd2-5762-aa35-aaae07f52939","name":"ì´ì›…ì›","slug":"/author/dnddnjs11/","title":"Data Analyst","description":"ëª¨ë‘ê°€ ì‚¬ìš©ìë¥¼ ìœ„í•œ ì˜ì‚¬ê²°ì •ì„ í•  ìˆ˜ ìˆê²Œ í•˜ëŠ” ì¼ì„ í•´ìš”.","skills":null,"social":null,"thumbnail":null},"thumbnail":null},{"id":"03a170a2-af3b-581f-80af-14b7c711b6bf","title":"1ì¸ ì£¼ë‹ˆì–´ ë°ì´í„° ë¶„ì„ê°€ ì‚´ì•„ë‚¨ê¸°","slug":"/work-da-alone/","link":null,"excerpt":"Intro ì•ˆë…•í•˜ì„¸ìš”. ì €ëŠ” 2ë…„ 1ê°œì›”ì§¸ ì¼í•˜ê³  ìˆëŠ” ì£¼ë‹ˆì–´ ë°ì´í„° ë¶„ì„ê°€ì…ë‹ˆë‹¤. ğŸ™‚ í˜„ì¬ ì§ì¥ìœ¼ë¡œ ì´ì§â€¦","timeToRead":4,"featured":false,"thumbnailText":null,"date":"2023-04-02","category":{"id":"03fd41aa-5b9b-5e34-a9c9-fcfe159c2c98","name":"Career","slug":"/category/career/","color":"#bee3f8","icon":null},"author":{"id":"667772b9-dd19-5d6b-9400-214b7a44568d","name":"ëˆ„ë¦¬","slug":"/author/nuli/","title":"Data Analyst","description":"ë°ì´í„° ë¶„ì„ì„ í†µí•´ ìœ ì €ë¥¼ ì´í•´í•˜ëŠ” ê²ƒì„ ì¢‹ì•„í•©ë‹ˆë‹¤. ","skills":["SQL","Python"],"social":null,"thumbnail":null},"thumbnail":null},{"id":"0ce7322c-2ba7-5fe6-9430-2525de3a472a","title":"ë°ì´í„° ë¶„ì„ê°€ê°€ ì²˜ìŒ íšŒì‚¬ì— ë“¤ì–´ì™€ì„œ í•´ì•¼ í•  ì¼ë“¤ 7ê°€ì§€","slug":"/7-things-a-data-analyst-should-do-when-he-first-comes-to-the-company/","link":null,"excerpt":"Intro í•„ìì˜ ì¤‘í•™êµ ì‹œì ˆ êµì¥ ì„ ìƒë‹˜ê»˜ì„œ ë§¤ í›ˆí™” ë•Œë§ˆë‹¤ í•´ì£¼ì…¨ë˜ ë§ì”€ì´ ìˆì—ˆë‹¤. â€œì²« ë‹¨ì¶”ë¥¼ ì˜ ë¼â€¦","timeToRead":6,"featured":false,"thumbnailText":null,"date":"2023-04-02","category":{"id":"03fd41aa-5b9b-5e34-a9c9-fcfe159c2c98","name":"Career","slug":"/category/career/","color":"#bee3f8","icon":null},"author":{"id":"79161546-a306-548e-b4f5-9f2abdfc5af9","name":"ì´ì¸ì˜","slug":"/author/nathan/","title":"Data Analyst","description":"ìƒì¡´í˜• ë¹„ì¦ˆë‹ˆìŠ¤ ë°ì´í„°ë¶„ì„ê°€","skills":null,"social":null,"thumbnail":null},"thumbnail":{"__typename":"ContentfulAsset","ContentfulAsset_vertical":{"images":{"sources":[{"srcSet":"https://images.ctfassets.net/1doif00uinav/7ffDkKWxaIGjphnS6M6CZr/084b2d32f07bf10330e90469706bc8f5/Website_Creator-bro.png?w=95&h=73&q=75&fm=webp&fit=thumb&f=center 95w,\nhttps://images.ctfassets.net/1doif00uinav/7ffDkKWxaIGjphnS6M6CZr/084b2d32f07bf10330e90469706bc8f5/Website_Creator-bro.png?w=190&h=145&q=75&fm=webp&fit=thumb&f=center 190w,\nhttps://images.ctfassets.net/1doif00uinav/7ffDkKWxaIGjphnS6M6CZr/084b2d32f07bf10330e90469706bc8f5/Website_Creator-bro.png?w=380&h=290&q=75&fm=webp&fit=thumb&f=center 380w,\nhttps://images.ctfassets.net/1doif00uinav/7ffDkKWxaIGjphnS6M6CZr/084b2d32f07bf10330e90469706bc8f5/Website_Creator-bro.png?w=760&h=580&q=75&fm=webp&fit=thumb&f=center 760w","sizes":"(min-width: 380px) 380px, 100vw","type":"image/webp"}],"fallback":{"src":"https://images.ctfassets.net/1doif00uinav/7ffDkKWxaIGjphnS6M6CZr/084b2d32f07bf10330e90469706bc8f5/Website_Creator-bro.png?w=380&h=290&fl=progressive&q=75&fm=jpg&fit=thumb&f=center","srcSet":"https://images.ctfassets.net/1doif00uinav/7ffDkKWxaIGjphnS6M6CZr/084b2d32f07bf10330e90469706bc8f5/Website_Creator-bro.png?w=95&h=73&fl=progressive&q=75&fm=jpg&fit=thumb&f=center 95w,\nhttps://images.ctfassets.net/1doif00uinav/7ffDkKWxaIGjphnS6M6CZr/084b2d32f07bf10330e90469706bc8f5/Website_Creator-bro.png?w=190&h=145&fl=progressive&q=75&fm=jpg&fit=thumb&f=center 190w,\nhttps://images.ctfassets.net/1doif00uinav/7ffDkKWxaIGjphnS6M6CZr/084b2d32f07bf10330e90469706bc8f5/Website_Creator-bro.png?w=380&h=290&fl=progressive&q=75&fm=jpg&fit=thumb&f=center 380w,\nhttps://images.ctfassets.net/1doif00uinav/7ffDkKWxaIGjphnS6M6CZr/084b2d32f07bf10330e90469706bc8f5/Website_Creator-bro.png?w=760&h=580&fl=progressive&q=75&fm=jpg&fit=thumb&f=center 760w","sizes":"(min-width: 380px) 380px, 100vw"}},"layout":"constrained","backgroundColor":"#f8f8f8","width":380,"height":290},"ContentfulAsset_hero":{"images":{"sources":[{"srcSet":"https://images.ctfassets.net/1doif00uinav/7ffDkKWxaIGjphnS6M6CZr/084b2d32f07bf10330e90469706bc8f5/Website_Creator-bro.png?w=400&h=163&q=75&fm=webp&fit=thumb 400w,\nhttps://images.ctfassets.net/1doif00uinav/7ffDkKWxaIGjphnS6M6CZr/084b2d32f07bf10330e90469706bc8f5/Website_Creator-bro.png?w=800&h=325&q=75&fm=webp&fit=thumb 800w,\nhttps://images.ctfassets.net/1doif00uinav/7ffDkKWxaIGjphnS6M6CZr/084b2d32f07bf10330e90469706bc8f5/Website_Creator-bro.png?w=1600&h=650&q=75&fm=webp&fit=thumb 1600w","sizes":"(min-width: 1600px) 1600px, 100vw","type":"image/webp"}],"fallback":{"src":"https://images.ctfassets.net/1doif00uinav/7ffDkKWxaIGjphnS6M6CZr/084b2d32f07bf10330e90469706bc8f5/Website_Creator-bro.png?w=1600&h=650&fl=progressive&q=75&fm=jpg&fit=thumb","srcSet":"https://images.ctfassets.net/1doif00uinav/7ffDkKWxaIGjphnS6M6CZr/084b2d32f07bf10330e90469706bc8f5/Website_Creator-bro.png?w=400&h=163&fl=progressive&q=75&fm=jpg&fit=thumb 400w,\nhttps://images.ctfassets.net/1doif00uinav/7ffDkKWxaIGjphnS6M6CZr/084b2d32f07bf10330e90469706bc8f5/Website_Creator-bro.png?w=800&h=325&fl=progressive&q=75&fm=jpg&fit=thumb 800w,\nhttps://images.ctfassets.net/1doif00uinav/7ffDkKWxaIGjphnS6M6CZr/084b2d32f07bf10330e90469706bc8f5/Website_Creator-bro.png?w=1600&h=650&fl=progressive&q=75&fm=jpg&fit=thumb 1600w","sizes":"(min-width: 1600px) 1600px, 100vw"}},"layout":"constrained","backgroundColor":"#f8f8f8","width":1600,"height":650}}},{"id":"142698d5-5f90-5e6d-9b45-7a102aa9f0de","title":"AIì˜ ì‹œëŒ€, PMìœ¼ë¡œ ì‚´ì•„ë‚¨ê¸°","slug":"/ai-pm/","link":null,"excerpt":"ë‹¹ì‹ ì€ AIë¥¼ ê°œë°œí•˜ê²Œ ë©ë‹ˆë‹¤, ê°œë°œìê°€ ì•„ë‹ˆë”ë¼ë„ ì•ìœ¼ë¡œ ìš°ë¦¬ëŠ” AIë¡œ ëŒ€ì²´ë˜ëŠ” ê²ƒì´ ì•„ë‹Œ, AIë¥¼ ë§Œë“¤â€¦","timeToRead":7,"featured":false,"thumbnailText":null,"date":"2023-04-02","category":{"id":"bd6cbcc0-76d4-5cf4-8010-9e7ad38cb1fb","name":"AI","slug":"/category/ai/","color":"#DAF7A6","icon":null},"author":{"id":"312146ad-c889-5c04-b37f-501750564b31","name":"í™ì„ ì•„","slug":"/author/soosunnaa/","title":"Product Manager","description":"ë§Œë“¤ê³  ê¸°ë¡í•˜ëŠ” ì‚¬ëŒ. í”„ë¡œë•íŠ¸ ë§¤ë‹ˆì €ë¡œ ì¼í•©ë‹ˆë‹¤.","skills":["í”„ë¡œë•íŠ¸ ë§¤ë‹ˆì§€ë¨¼íŠ¸","ê¸€ì“°ê¸°"],"social":[{"name":null,"url":"https://www.linkedin.com/in/suna-hong/"}],"thumbnail":null},"thumbnail":{"__typename":"ContentfulAsset","ContentfulAsset_vertical":{"images":{"sources":[{"srcSet":"https://images.ctfassets.net/1doif00uinav/24abvEwRCu7juOQKbjtt2U/a2364fd86d557116b1650db03f0809b5/Artificial_intelligence-amico.png?w=95&h=73&q=75&fm=webp&fit=thumb&f=center 95w,\nhttps://images.ctfassets.net/1doif00uinav/24abvEwRCu7juOQKbjtt2U/a2364fd86d557116b1650db03f0809b5/Artificial_intelligence-amico.png?w=190&h=145&q=75&fm=webp&fit=thumb&f=center 190w,\nhttps://images.ctfassets.net/1doif00uinav/24abvEwRCu7juOQKbjtt2U/a2364fd86d557116b1650db03f0809b5/Artificial_intelligence-amico.png?w=380&h=290&q=75&fm=webp&fit=thumb&f=center 380w,\nhttps://images.ctfassets.net/1doif00uinav/24abvEwRCu7juOQKbjtt2U/a2364fd86d557116b1650db03f0809b5/Artificial_intelligence-amico.png?w=760&h=580&q=75&fm=webp&fit=thumb&f=center 760w","sizes":"(min-width: 380px) 380px, 100vw","type":"image/webp"}],"fallback":{"src":"https://images.ctfassets.net/1doif00uinav/24abvEwRCu7juOQKbjtt2U/a2364fd86d557116b1650db03f0809b5/Artificial_intelligence-amico.png?w=380&h=290&fl=progressive&q=75&fm=jpg&fit=thumb&f=center","srcSet":"https://images.ctfassets.net/1doif00uinav/24abvEwRCu7juOQKbjtt2U/a2364fd86d557116b1650db03f0809b5/Artificial_intelligence-amico.png?w=95&h=73&fl=progressive&q=75&fm=jpg&fit=thumb&f=center 95w,\nhttps://images.ctfassets.net/1doif00uinav/24abvEwRCu7juOQKbjtt2U/a2364fd86d557116b1650db03f0809b5/Artificial_intelligence-amico.png?w=190&h=145&fl=progressive&q=75&fm=jpg&fit=thumb&f=center 190w,\nhttps://images.ctfassets.net/1doif00uinav/24abvEwRCu7juOQKbjtt2U/a2364fd86d557116b1650db03f0809b5/Artificial_intelligence-amico.png?w=380&h=290&fl=progressive&q=75&fm=jpg&fit=thumb&f=center 380w,\nhttps://images.ctfassets.net/1doif00uinav/24abvEwRCu7juOQKbjtt2U/a2364fd86d557116b1650db03f0809b5/Artificial_intelligence-amico.png?w=760&h=580&fl=progressive&q=75&fm=jpg&fit=thumb&f=center 760w","sizes":"(min-width: 380px) 380px, 100vw"}},"layout":"constrained","backgroundColor":"#485868","width":380,"height":290},"ContentfulAsset_hero":{"images":{"sources":[{"srcSet":"https://images.ctfassets.net/1doif00uinav/24abvEwRCu7juOQKbjtt2U/a2364fd86d557116b1650db03f0809b5/Artificial_intelligence-amico.png?w=400&h=163&q=75&fm=webp&fit=thumb 400w,\nhttps://images.ctfassets.net/1doif00uinav/24abvEwRCu7juOQKbjtt2U/a2364fd86d557116b1650db03f0809b5/Artificial_intelligence-amico.png?w=800&h=325&q=75&fm=webp&fit=thumb 800w,\nhttps://images.ctfassets.net/1doif00uinav/24abvEwRCu7juOQKbjtt2U/a2364fd86d557116b1650db03f0809b5/Artificial_intelligence-amico.png?w=1600&h=650&q=75&fm=webp&fit=thumb 1600w","sizes":"(min-width: 1600px) 1600px, 100vw","type":"image/webp"}],"fallback":{"src":"https://images.ctfassets.net/1doif00uinav/24abvEwRCu7juOQKbjtt2U/a2364fd86d557116b1650db03f0809b5/Artificial_intelligence-amico.png?w=1600&h=650&fl=progressive&q=75&fm=jpg&fit=thumb","srcSet":"https://images.ctfassets.net/1doif00uinav/24abvEwRCu7juOQKbjtt2U/a2364fd86d557116b1650db03f0809b5/Artificial_intelligence-amico.png?w=400&h=163&fl=progressive&q=75&fm=jpg&fit=thumb 400w,\nhttps://images.ctfassets.net/1doif00uinav/24abvEwRCu7juOQKbjtt2U/a2364fd86d557116b1650db03f0809b5/Artificial_intelligence-amico.png?w=800&h=325&fl=progressive&q=75&fm=jpg&fit=thumb 800w,\nhttps://images.ctfassets.net/1doif00uinav/24abvEwRCu7juOQKbjtt2U/a2364fd86d557116b1650db03f0809b5/Artificial_intelligence-amico.png?w=1600&h=650&fl=progressive&q=75&fm=jpg&fit=thumb 1600w","sizes":"(min-width: 1600px) 1600px, 100vw"}},"layout":"constrained","backgroundColor":"#485868","width":1600,"height":650}}}],"pageInfo":{"pageCount":18,"hasPreviousPage":false,"hasNextPage":true,"currentPage":1},"totalCount":107}},"pageContext":{"slug":"/tag/","limit":6,"skip":0,"collectionType":"{tags: {slug: SELECT}","paginatePostsPage":true,"basePath":"/","services":{"algolia":false,"mailchimp":false,"disqus":true,"graphComment":false,"facebookComment":false},"siteUrl":"https://playinpap.github.io","mobileMenu":{"title":"Topics","items":[{"name":"Statistics","slug":"/category/statistics/"},{"name":"Data pipeline","slug":"/category/data-pipeline/"},{"name":"AI","slug":"/category/ai/"},{"name":"Time Series","slug":"/category/time-series/"},{"name":"Notice","slug":"/category/notice/"},{"name":"Visualization","slug":"/category/visualization/"},{"name":"SQL","slug":"/category/sql/"},{"name":"RecSys","slug":"/category/recsys/"},{"name":"Product Analytics","slug":"/category/product-analytics/"},{"name":"Metric","slug":"/category/metric/"},{"name":"Machine Learning","slug":"/category/machine-learning/"},{"name":"Experiment","slug":"/category/experiment/"},{"name":"Etc","slug":"/category/etc/"},{"name":"Data Engineering","slug":"/category/data-engineering/"},{"name":"Data-Driven","slug":"/category/data-driven/"},{"name":"Causal Inference","slug":"/category/causal-inference/"},{"name":"Career","slug":"/category/career/"},{"name":"Career","slug":"/category/career/"},{"name":"Causal Inference","slug":"/category/causal-inference/"},{"name":"Data-Driven","slug":"/category/data-driven/"},{"name":"Data Engineering","slug":"/category/data-engineering/"},{"name":"Etc","slug":"/category/etc/"},{"name":"Experiment","slug":"/category/experiment/"},{"name":"Machine Learning","slug":"/category/machine-learning/"},{"name":"Metric","slug":"/category/metric/"},{"name":"Notice","slug":"/category/notice/"},{"name":"RecSys","slug":"/category/recsys/"},{"name":"Visualization","slug":"/category/visualization/"},{"name":"SQL","slug":"/category/sql/"},{"name":"Product Analytics","slug":"/category/product-analytics/"}]},"darkMode":true,"includeExcerpt":true,"includeTimeToRead":true,"includeTableOfContents":true,"imageQuality":75}},"staticQueryHashes":["1992822086","2313160350"],"slicesMap":{}}